<svg xmlns="http://www.w3.org/2000/svg" xmlns:xlink="http://www.w3.org/1999/xlink" width="80" height="80" viewBox="0 0 80 80">
    <defs>
        <path id="prefix__a" d="M0.463 0.041L52.029 0.041 52.029 36.106 0.463 36.106z"/>
        <path id="prefix__c" d="M0 47.959L56.995 47.959 56.995 0.667 0 0.667z"/>
    </defs>
    <g fill="none" fill-rule="evenodd" transform="translate(11.333 18)">
        <g transform="translate(1.333 .626)">
            <mask id="prefix__b" fill="#fff">
                <use xlink:href="#prefix__a"/>
            </mask>
            <path fill="#08449B" d="M1.035 14.3L30.49 34.372c1.657 1.13 3.615 1.734 5.621 1.734h14.417c.829 0 1.5-.672 1.5-1.5v-3.922c0-2.328-1.339-4.45-3.44-5.45l-8.92-4.248L27.34 1.906 17.08 5.581 9.144.041.69 12.483c-.406.598-.25 1.41.346 1.816" mask="url(#prefix__b)"/>
        </g>
        <path fill="#F3D21A" d="M35.218 11.397L32.002 6.421 23.68 9.632 23.724 9.745 26.872 14.617zM31.676 22.335L40.017 19.093 36.802 14.117 28.461 17.36z"/>
        <mask id="prefix__d" fill="#fff">
            <use xlink:href="#prefix__c"/>
        </mask>
        <path fill="#F3D21A" d="M25.801 47.959L56.995 47.959 56.995 41.808 25.801 41.808zM11.055 47.959L21.008 47.959 21.008 41.808 11.055 41.808zM0 47.959L6.452 47.959 6.452 41.808 0 41.808z" mask="url(#prefix__d)"/>
    </g>
</svg>
