<svg xmlns="http://www.w3.org/2000/svg" xmlns:xlink="http://www.w3.org/1999/xlink" width="70" height="70" viewBox="0 0 70 70">
    <defs>
        <path id="prefix__a" d="M0 0.362L15.144 0.362 15.144 7.933 0 7.933z"/>
        <path id="prefix__c" d="M0.438 0.362L15.581 0.362 15.581 7.933 0.438 7.933z"/>
        <path id="prefix__e" d="M0.321 0.557L17.654 0.557 17.654 33.25 0.321 33.25z"/>
    </defs>
    <g fill="none" fill-rule="evenodd">
        <path fill="#FF5673" d="M14.504 26.893L7.572 9.313 0.934 26.893z" transform="translate(10.5 12.833)"/>
        <g>
            <g transform="translate(10.5 12.833) translate(0 .325) translate(0 25.667)">
                <mask id="prefix__b" fill="#fff">
                    <use xlink:href="#prefix__a"/>
                </mask>
                <path fill="#08449B" d="M0 .362c0 4.181 3.39 7.57 7.571 7.57 4.182 0 7.573-3.389 7.573-7.57H0z" mask="url(#prefix__b)"/>
            </g>
            <path fill="#FF5673" d="M48.193 26.567L41.26 8.988 34.622 26.567z" transform="translate(10.5 12.833) translate(0 .325)"/>
            <g transform="translate(10.5 12.833) translate(0 .325) translate(33.25 25.667)">
                <mask id="prefix__d" fill="#fff">
                    <use xlink:href="#prefix__c"/>
                </mask>
                <path fill="#08449B" d="M.438.362c0 4.181 3.39 7.57 7.572 7.57 4.181 0 7.572-3.389 7.572-7.57H.438z" mask="url(#prefix__d)"/>
            </g>
            <g transform="translate(10.5 12.833) translate(0 .325) translate(15.167 11.083)">
                <mask id="prefix__f" fill="#fff">
                    <use xlink:href="#prefix__e"/>
                </mask>
                <path fill="#08449B" d="M11.809.557c-.872.35-1.824.546-2.821.546-.935 0-1.83-.17-2.658-.482v27.15H.321v5.48h17.333v-5.48H11.81V.558z" mask="url(#prefix__f)"/>
            </g>
            <path fill="#08449B" d="M16.591 4.623c0-.921.165-1.803.467-2.62H2.29v5.478h14.862c-.36-.881-.56-1.847-.56-2.858M31.25 2.004c.302.816.467 1.698.467 2.619 0 1.012-.2 1.977-.56 2.859H46.15V2.004h-14.9z" transform="translate(10.5 12.833) translate(0 .325)"/>
            <path fill="#FF5673" d="M19.79 4.623c0-2.411 1.954-4.365 4.364-4.365s4.365 1.954 4.365 4.365c0 2.41-1.954 4.365-4.365 4.365-2.41 0-4.365-1.954-4.365-4.365" transform="translate(10.5 12.833) translate(0 .325)"/>
        </g>
    </g>
</svg>
