<svg xmlns="http://www.w3.org/2000/svg" xmlns:xlink="http://www.w3.org/1999/xlink" width="70" height="70" viewBox="0 0 70 70">
    <defs>
        <path id="prefix__a" d="M0 0.138L37.116 0.138 37.116 37.255 0 37.255z"/>
    </defs>
    <g fill="none" fill-rule="evenodd">
        <path fill="#08449B" d="M27.37 31.839L38.279 42.749 41.835 39.193 30.926 28.284z" transform="translate(14 13.417)"/>
        <g transform="translate(14 13.417) translate(0 .157)">
            <mask id="prefix__b" fill="#fff">
                <use xlink:href="#prefix__a"/>
            </mask>
            <path fill="#41D4C3" d="M18.558 5.167c-7.46 0-13.53 6.07-13.53 13.53 0 7.46 6.07 13.53 13.53 13.53 7.461 0 13.53-6.07 13.53-13.53 0-7.46-6.069-13.53-13.53-13.53m0 32.088C8.325 37.255 0 28.93 0 18.696 0 8.463 8.325.138 18.558.138c10.234 0 18.558 8.325 18.558 18.558 0 10.234-8.324 18.559-18.558 18.559" mask="url(#prefix__b)"/>
            <path fill="#41D4C3" d="M12.71 18.696H7.684c0-5.996 4.878-10.875 10.876-10.875v5.028c-3.225 0-5.848 2.623-5.848 5.847"/>
        </g>
    </g>
</svg>
