<svg xmlns="http://www.w3.org/2000/svg" width="569" height="162" viewBox="0 0 569 162">
    <g fill="#FEFEFE" fill-rule="evenodd" opacity=".18">
        <path d="M25.934 197.024c-4.97 0-9-4.03-9-9.002 0-4.971 4.03-9.002 9-9.002 4.972 0 9.002 4.03 9.002 9.002s-4.03 9.002-9.002 9.002m25.93-9c0-3.11-1.573-5.849-3.97-7.466-.623-.421-1.316-.732-2.038-.989l.015-.014c-5.384-1.63-9.657-6.586-11.476-11.475l-.01.01c-1.239-3.489-4.536-6.002-8.45-6.002-3.108 0-5.848 1.576-7.466 3.971-.422.623-.733 1.317-.99 2.039l-.013-.014c-1.63 5.384-6.585 9.657-11.474 11.475l.009.01c-3.49 1.24-6 4.537-6 8.45 0 3.108 1.574 5.848 3.97 7.466.621.42 1.312.731 2.032.987l-.027.027c4.89 1.818 9.843 6.092 11.475 11.475l.027-.027c1.238 3.492 4.537 6.008 8.454 6.008 3.106 0 5.847-1.576 7.465-3.972.42-.621.73-1.313.986-2.031l.027.027c1.819-4.89 6.093-9.845 11.476-11.476l-.027-.027c3.491-1.239 6.006-4.536 6.006-8.452M198.356 214.433h-6.613c0-16.387 13.331-29.719 29.717-29.719v6.615c-12.738 0-23.104 10.365-23.104 23.104M168.638 191.329v-6.615c12.74 0 23.105-10.364 23.105-23.104h6.613c0 16.387-13.331 29.719-29.718 29.719" transform="translate(0 -57)"/>
        <path d="M221.46 191.329c-16.386 0-29.718-13.332-29.718-29.719h6.615c0 12.74 10.364 23.104 23.104 23.104v6.615zM198.356 214.433h-6.613c0-12.739-10.366-23.104-23.105-23.104v-6.615c16.387 0 29.718 13.332 29.718 29.719M283.64 218.7c-16.916 0-30.678-13.761-30.678-30.678h6.614c0 13.269 10.795 24.064 24.064 24.064 13.27 0 24.066-10.795 24.066-24.064 0-13.27-10.796-24.067-24.066-24.067v-6.613c16.918 0 30.681 13.763 30.681 30.68s-13.763 30.678-30.68 30.678" transform="translate(0 -57)"/>
        <path d="M283.64 207.884c-10.951 0-19.862-8.91-19.862-19.862 0-10.953 8.91-19.863 19.862-19.863 10.954 0 19.865 8.91 19.865 19.863h-6.614c0-7.305-5.944-13.248-13.25-13.248-7.305 0-13.248 5.943-13.248 13.248 0 7.304 5.943 13.248 13.247 13.248v6.614z" transform="translate(0 -57)"/>
        <path d="M283.64 185.12c-1.599 0-2.901 1.302-2.901 2.902s1.302 2.9 2.901 2.9c1.6 0 2.902-1.3 2.902-2.9 0-1.6-1.302-2.902-2.902-2.902m0 12.417c-5.247 0-9.515-4.268-9.515-9.515 0-5.247 4.268-9.516 9.515-9.516 5.248 0 9.516 4.269 9.516 9.516s-4.268 9.515-9.516 9.515M93.676 181.335l-5.947-2.89c.293-.608 7.378-14.865 24.11-14.865 16.73 0 23.814 14.257 24.107 14.864l-5.953 2.878c-.22-.44-5.643-11.128-18.154-11.128-12.512 0-17.937 10.687-18.163 11.141M111.836 212.464c-16.73 0-23.814-14.257-24.107-14.865l5.954-2.878c.219.441 5.643 11.128 18.153 11.128 12.512 0 17.938-10.687 18.163-11.14l5.947 2.89c-.292.608-7.378 14.865-24.11 14.865" transform="translate(0 -57)"/>
        <path d="M116.748 188.39c-2.792 0-5.055-2.264-5.055-5.056 0-2.161 1.365-3.993 3.274-4.715-.984-.328-2.033-.512-3.128-.512-5.475 0-9.914 4.44-9.914 9.914 0 5.476 4.439 9.915 9.914 9.915 5.476 0 9.915-4.44 9.915-9.915 0-.926-.137-1.819-.375-2.669-.78 1.786-2.557 3.038-4.631 3.038M370.374 166.558c-11.836 0-21.464 9.629-21.464 21.464 0 11.835 9.628 21.464 21.464 21.464 11.835 0 21.462-9.63 21.462-21.464 0-11.835-9.627-21.464-21.462-21.464m0 49.542c-15.483 0-28.078-12.595-28.078-28.078 0-15.483 12.595-28.079 28.078-28.079 15.48 0 28.076 12.596 28.076 28.08 0 15.482-12.595 28.077-28.076 28.077" transform="translate(0 -57)"/>
        <path d="M370.374 205.236c-7.504 0-14.09-4.797-16.39-11.935l6.297-2.028c1.414 4.397 5.47 7.349 10.093 7.349 4.622 0 8.677-2.952 10.091-7.349l6.298 2.028c-2.3 7.138-8.885 11.935-16.39 11.935M479.725 212.451L432.731 212.31 432.731 187.786 439.345 187.786 439.345 205.715 473.111 205.817 473.111 187.889 479.725 187.889z" transform="translate(0 -57)"/>
        <path d="M432.691 195.571L427.974 190.937 456.219 162.195 484.461 190.937 479.743 195.571 456.219 171.632zM542.18 197.024c-4.97 0-9-4.03-9-9.002 0-4.971 4.03-9.002 9-9.002 4.972 0 9.002 4.03 9.002 9.002s-4.03 9.002-9.002 9.002m25.93-9c0-3.11-1.574-5.849-3.97-7.466-.623-.421-1.317-.732-2.04-.989l.017-.014c-5.384-1.63-9.657-6.586-11.477-11.475l-.009.01c-1.24-3.489-4.537-6.002-8.45-6.002-3.108 0-5.85 1.576-7.466 3.971-.422.623-.733 1.317-.99 2.039l-.013-.014c-1.63 5.384-6.585 9.657-11.475 11.475l.01.01c-3.49 1.24-6.002 4.537-6.002 8.45 0 3.108 1.575 5.848 3.971 7.466.622.42 1.313.731 2.033.987l-.027.027c4.89 1.818 9.843 6.092 11.475 11.475l.027-.027c1.238 3.492 4.537 6.008 8.453 6.008 3.107 0 5.847-1.576 7.466-3.972.42-.621.73-1.313.985-2.031l.028.027c1.819-4.89 6.092-9.845 11.476-11.476l-.028-.027c3.492-1.239 6.007-4.536 6.007-8.452M66.213 87.886c-11.835 0-21.464 9.629-21.464 21.465 0 11.834 9.629 21.463 21.464 21.463 11.835 0 21.464-9.629 21.464-21.463 0-11.836-9.629-21.465-21.464-21.465m0 49.543c-15.482 0-28.078-12.596-28.078-28.078 0-15.484 12.596-28.078 28.078-28.078 15.483 0 28.078 12.594 28.078 28.078 0 15.482-12.595 28.078-28.078 28.078" transform="translate(0 -57)"/>
        <path d="M66.213 126.565c-7.504 0-14.09-4.797-16.389-11.935l6.298-2.028c1.414 4.396 5.47 7.348 10.091 7.348 4.62 0 8.679-2.954 10.095-7.348l6.293 2.028c-2.299 7.138-8.886 11.935-16.388 11.935M175.567 133.78L128.572 133.638 128.572 109.115 135.186 109.115 135.186 127.044 168.952 127.146 168.952 109.218 175.567 109.218z" transform="translate(0 -57)"/>
        <path d="M128.532 116.9L123.815 112.265 152.06 83.523 180.301 112.265 175.584 116.9 152.06 92.96zM238.02 118.353c-4.97 0-9-4.03-9-9.002s4.03-9.002 9-9.002c4.973 0 9.003 4.03 9.003 9.002 0 4.971-4.03 9.002-9.003 9.002m25.932-9c0-3.109-1.575-5.85-3.971-7.467-.623-.42-1.317-.732-2.039-.988l.016-.014c-5.385-1.63-9.658-6.586-11.477-11.476l-.01.01c-1.239-3.488-4.536-6.001-8.45-6.001-3.108 0-5.848 1.576-7.466 3.97-.42.624-.733 1.319-.99 2.04l-.013-.014c-1.63 5.384-6.585 9.657-11.474 11.475l.009.01c-3.49 1.24-6 4.537-6 8.45 0 3.108 1.574 5.849 3.97 7.465.621.421 1.312.732 2.033.987l-.028.028c4.89 1.818 9.843 6.092 11.475 11.475l.027-.027c1.238 3.491 4.538 6.008 8.454 6.008 3.107 0 5.847-1.576 7.465-3.971.42-.622.73-1.314.986-2.033l.028.027c1.819-4.889 6.092-9.845 11.475-11.475l-.027-.027c3.491-1.238 6.007-4.536 6.007-8.453M410.443 135.762h-6.615c0-16.387 13.332-29.72 29.718-29.72v6.615c-12.74 0-23.103 10.365-23.103 23.105M380.724 112.657v-6.614c12.74 0 23.104-10.365 23.104-23.104h6.614c0 16.386-13.331 29.718-29.718 29.718" transform="translate(0 -57)"/>
        <path d="M433.546 112.657c-16.386 0-29.718-13.332-29.718-29.718h6.614c0 12.74 10.365 23.104 23.104 23.104v6.614zM410.443 135.762h-6.615c0-12.74-10.364-23.105-23.104-23.105v-6.614c16.387 0 29.719 13.332 29.719 29.719M305.762 102.664l-5.947-2.891c.293-.608 7.382-14.865 24.11-14.865 16.732 0 23.815 14.257 24.107 14.865l-5.954 2.878c-.218-.443-5.642-11.128-18.154-11.128-12.51 0-17.936 10.687-18.162 11.14M323.922 133.792c-16.73 0-23.814-14.257-24.107-14.864l5.953-2.878c.22.44 5.643 11.128 18.154 11.128 12.512 0 17.938-10.687 18.163-11.141l5.947 2.89c-.292.608-7.379 14.865-24.11 14.865" transform="translate(0 -57)"/>
        <path d="M328.834 109.72c-2.792 0-5.055-2.264-5.055-5.056 0-2.163 1.365-3.995 3.274-4.717-.984-.326-2.033-.511-3.128-.511-5.475 0-9.914 4.439-9.914 9.914s4.439 9.914 9.914 9.914c5.476 0 9.915-4.439 9.915-9.914 0-.926-.137-1.82-.375-2.67-.78 1.787-2.557 3.04-4.631 3.04M283.64 61.36c-16.916 0-30.678-13.764-30.678-30.68h6.614c0 13.268 10.795 24.064 24.064 24.064 13.27 0 24.066-10.796 24.066-24.065 0-13.27-10.796-24.065-24.066-24.065V0c16.918 0 30.681 13.762 30.681 30.68 0 16.916-13.763 30.68-30.68 30.68" transform="translate(0 -57)"/>
    </g>
</svg>
