<svg xmlns="http://www.w3.org/2000/svg" width="481" height="481" viewBox="0 0 481 481">
    <path fill="#F5F9FC" fill-rule="evenodd" d="M481 481H361.81c0-199.48-162.304-361.81-361.81-361.81V0c265.23 0 481 215.77 481 481"/>
</svg>
