<svg xmlns="http://www.w3.org/2000/svg" width="449" height="449" viewBox="0 0 449 449">
    <path fill="#FFF" fill-rule="evenodd" d="M224.985 303C181.944 303 147 268.085 147 224.985c0-43.07 34.944-77.985 77.985-77.985C268.056 147 303 181.915 303 224.985c0 43.1-34.944 78.015-78.015 78.015M449 224.485c0-26.879-13.658-50.597-34.362-64.602-5.423-3.654-11.425-6.35-17.689-8.554l.145-.145c-46.6-14.092-83.6-57.006-99.346-99.34l-.087.087C286.932 21.747 258.398 0 224.5 0c-26.88 0-50.6 13.628-64.636 34.389-3.625 5.364-6.321 11.395-8.525 17.63l-.116-.117c-14.151 46.597-57.01 83.595-99.346 99.34l.087.087C21.748 162.058 0 190.62 0 224.485c0 26.88 13.658 50.627 34.362 64.603 5.394 3.654 11.367 6.35 17.63 8.554l-.26.232c42.336 15.745 85.195 52.743 99.346 99.34l.232-.232C162.039 427.195 190.573 449 224.5 449c26.88 0 50.6-13.657 64.636-34.389 3.625-5.364 6.292-11.366 8.496-17.6l.261.26c15.746-42.333 52.747-85.247 99.346-99.34l-.26-.26C427.222 286.97 449 258.38 449 224.485"/>
</svg>
