[ 
        "Où sont les femmes ?", 
        "Passeurs d'images", 
        "MHMQ", 
        "MIAA", 
        "Portrait citoyens", 
        "Parcours d'engagement", 
        "Piles Fertile",
        "La République des images"
    ]