<?xml version="1.0" encoding="utf-8"?>
<!-- Generator: Adobe Illustrator 22.0.1, SVG Export Plug-In . SVG Version: 6.00 Build 0)  -->
<svg version="1.1" id="Calque_1" xmlns="http://www.w3.org/2000/svg" xmlns:xlink="http://www.w3.org/1999/xlink" x="0px" y="0px"
	 viewBox="0 0 246.5 209.1" style="enable-background:new 0 0 246.5 209.1;" xml:space="preserve">
<style type="text/css">
	.st0{fill:#FFFFFF;}
	.st1{fill:#FAFBFC;}
	.st2{fill:none;stroke:#FAFBFC;stroke-width:2.0408;stroke-miterlimit:10;}
</style>
<g>
	<path class="st0" d="M184.7,143.1c-8,4.1-19.2,5.4-24.7,5.4c0-0.7,0-1.4,0-2.2c0.1-3.8,0-7.6-1.2-11.3c-2.8-8.3-8.3-14-16.5-17.1
		c-0.3-0.1-0.7-0.2-1-0.4c0,0,0-0.1-0.1-0.2c4-4,6.2-9,6.5-14.8c3.3,0,6.5,0,9.6,0c3.5,0,7-0.2,10.4,0.6c8.9,2.2,15.5,9.6,16.8,18.7
		c0,0.2,0.1,0.4,0.2,0.6C184.7,129.4,184.7,136.3,184.7,143.1z"/>
	<path class="st0" d="M126.2,120.5c3.7,0.2,7.4,0,11,0.6c10.6,1.6,18.3,10.6,18.6,21.3c0.2,6,0.1,11.9,0,17.9c0,0.4-0.4,1-0.8,1.2
		c-4.4,2.2-9.2,3.4-14.1,4.2c-14.9,2.4-29.4,0.5-43.7-4c-0.7-0.2-0.9-0.6-0.9-1.2c0-5.8,0-11.7,0-17.5c0.1-12.4,9.9-22.1,22.3-22.2
		c2.5,0,5,0,7.5,0C126.2,120.6,126.2,120.5,126.2,120.5z"/>
	<path class="st0" d="M104.5,102.6c0.3,5.9,2.5,10.8,6.5,14.9c-14.2,5.5-19.9,16.1-18.7,31c-2.2-0.2-4.3-0.3-6.3-0.6
		c-6.5-0.8-12.9-2.3-19.1-4.2c-0.9-0.3-1.2-0.7-1.2-1.6c0.1-5.6,0-11.2,0-16.8c0-12.8,9.8-22.6,22.7-22.6c4.7,0,9.4,0,14.1,0
		C103.1,102.6,103.8,102.6,104.5,102.6z"/>
	<path class="st0" d="M108.7,101.9c0-9.6,7.8-17.4,17.4-17.4c9.6,0,17.5,7.9,17.4,17.6c-0.1,9.6-7.9,17.4-17.5,17.3
		C116.4,119.4,108.7,111.6,108.7,101.9z"/>
	<path class="st0" d="M95.6,66.5c9.7,0.1,17.5,8,17.3,17.5c0,0.5-0.3,1.1-0.7,1.4c-3.8,3.3-6.3,7.4-7.3,12.4c-0.1,0.5-0.5,1.1-1,1.4
		c-6.5,3.4-13,3.1-18.9-1.3c-6-4.5-8.2-10.8-6.4-18.1c1.8-7.1,6.5-11.4,13.7-12.9C93.4,66.6,94.5,66.6,95.6,66.5z"/>
	<path class="st0" d="M155.1,66.5c9.1,0,16.6,7,17.3,16c0.7,9.1-5.6,17.2-14.6,18.7c-3.2,0.5-6.2,0.2-9.2-1c-0.7-0.3-1-0.6-1.1-1.4
		c-1-6.1-4-10.9-9-14.5c-0.7-0.5-1-1-0.9-1.9C138.4,73.4,146,66.5,155.1,66.5z"/>
</g>
<circle class="st1" cx="129.5" cy="990.1" r="11.7"/>
<circle class="st2" cx="166.7" cy="990.1" r="11.7"/>
<circle class="st2" cx="204.9" cy="990.1" r="11.7"/>
</svg>
