<?xml version="1.0" encoding="utf-8"?>
<!-- Generator: Adobe Illustrator 22.0.1, SVG Export Plug-In . SVG Version: 6.00 Build 0)  -->
<svg version="1.1" id="Calque_1" xmlns="http://www.w3.org/2000/svg" xmlns:xlink="http://www.w3.org/1999/xlink" x="0px" y="0px"
	 viewBox="0 0 246.5 209.1" style="enable-background:new 0 0 246.5 209.1;" xml:space="preserve">
<style type="text/css">
	.st0{fill:#FAFBFC;}
	.st1{fill:none;stroke:#FAFBFC;stroke-width:2.0408;stroke-miterlimit:10;}
	.st2{fill:#FFFFFF;}
</style>
<circle class="st0" cx="129.5" cy="990.1" r="11.7"/>
<circle class="st1" cx="166.7" cy="990.1" r="11.7"/>
<circle class="st1" cx="204.9" cy="990.1" r="11.7"/>
<g>
	<g>
		<path class="st2" d="M157.4,82.1v-11h-77v60.5c0,0,0,11,11,11h68.7c0,0,8.2-0.2,8.2-11V82.1H157.4z M91.4,137.1
			c-5.5,0-5.5-5.5-5.5-5.5v-55h66v55c0,2.5,0.8,4.3,1.9,5.5H91.4z"/>
		<rect x="91.4" y="87.6" class="st2" width="55" height="5.5"/>
		<rect x="121.6" y="120.6" class="st2" width="19.2" height="5.5"/>
		<rect x="121.6" y="109.6" class="st2" width="24.7" height="5.5"/>
		<rect x="121.6" y="98.6" class="st2" width="24.7" height="5.5"/>
		<rect x="91.4" y="98.6" class="st2" width="24.7" height="27.5"/>
	</g>
</g>
</svg>
