<?xml version="1.0" encoding="utf-8"?>
<!-- Generator: Adobe Illustrator 22.0.1, SVG Export Plug-In . SVG Version: 6.00 Build 0)  -->
<svg version="1.1" id="Calque_1" xmlns="http://www.w3.org/2000/svg" xmlns:xlink="http://www.w3.org/1999/xlink" x="0px" y="0px"
	 viewBox="0 0 246.5 209.1" style="enable-background:new 0 0 246.5 209.1;" xml:space="preserve">
<style type="text/css">
	.st0{fill:#FAFBFC;}
	.st1{fill:none;stroke:#FAFBFC;stroke-width:2.0408;stroke-miterlimit:10;}
	.st2{fill:#FFFFFF;}
</style>
<circle class="st0" cx="129.5" cy="990.1" r="11.7"/>
<circle class="st1" cx="166.7" cy="990.1" r="11.7"/>
<circle class="st1" cx="204.9" cy="990.1" r="11.7"/>
<g>
	<path class="st2" d="M162.4,55.2c0.3,0.1,0.6,0.1,0.9,0.2c1.3,0.2,2.4,1.1,2.5,2.5c0.6,7.1-0.2,14-2.1,20.8
		c-10.1-0.5-20.5-11.1-21.2-20.9c3.4-1.1,6.8-1.8,10.3-2.2c1-0.1,2.1-0.2,3.1-0.4C158.1,55.2,160.3,55.2,162.4,55.2z"/>
	<path class="st2" d="M68.9,102.4c0.6-0.7,1-1.5,1.7-2.1c3-3,6-6.1,9.2-9c2.9-2.6,6.4-4.3,10.4-4.9c1.6-0.2,3.2-0.3,4.6,0.4
		c-3.9,6-7.8,11.9-11.8,18c-3.3-0.6-6.7,0.1-10.1,1c-2,0.5-3,0-4-2C68.9,103.3,68.9,102.9,68.9,102.4z"/>
	<path class="st2" d="M162,84.5c-1.6,3.2-3.1,6.4-5,9.5c-5.4,9.1-12.5,16.7-20.5,23.5c-5.6,4.7-11.5,8.9-17.8,12.8
		c-0.7,0.4-1.1,0.3-1.6-0.2c-1.8-1.8-3.5-3.6-5.4-5.4c-0.4-0.4-0.5-0.7-0.3-1.2c0.9-2.4,1.4-4.9,1-7.5c-0.7-4.7-4.4-7.6-9.4-7.3
		c-1.8,0.1-3.6,0.7-5.5,1.1c-0.3,0.1-0.8,0-1-0.2c-1.9-1.8-3.7-3.7-5.5-5.5c-0.4-0.4-0.4-0.6-0.1-1c8.7-14.2,19.2-26.8,33.1-36.2
		c4-2.7,8.3-5.1,12.8-6.9C140.2,73,148.5,81.2,162,84.5z M145.6,89.8c0-7.9-6.4-14.2-14.3-14.2c-7.9,0-14.2,6.4-14.1,14.3
		c0,7.9,6.4,14.2,14.3,14.1C139.4,103.9,145.7,97.6,145.6,89.8z"/>
	<path class="st2" d="M107,118c-0.2,2.7-1.1,5.2-3.1,7.3c-5.3,5.5-11,10.5-17.6,14.4c-0.5,0.3-1.1,0.6-1.7,0.9
		c-1.4,0.7-2.7,0.5-3.6-0.4c-0.9-0.9-1-2.2-0.4-3.5c1.8-3.7,4.1-7,6.8-10.1c2.6-3,5.2-5.9,8-8.8c2-2.1,4.6-3.2,7.6-3.5
		C105.5,114,107,115.3,107,118z"/>
	<path class="st2" d="M134.3,126.6c0.8,1.7,0.6,3.5,0.3,5.2c-0.8,4.2-2.7,7.9-5.7,11c-2.8,2.9-5.6,5.7-8.5,8.5c-1,1-2.2,1.2-3.3,0.7
		c-1.1-0.5-1.8-1.6-1.6-3c0.2-2.3,0.6-4.5,0.8-6.8c0.1-1,0.1-2.1,0-3.1c-0.1-0.7,0.1-0.9,0.6-1.3c5-3.2,10-6.4,15-9.6
		C132.8,127.8,133.5,127.2,134.3,126.6z"/>
	<path class="st2" d="M99.9,136.9c2.8-2.6,5.5-5.1,8.1-7.6c1.5,1.5,3,3,4.6,4.6c-2.9,1.5-5.8,3.1-8.8,4.5
		C102.4,139.1,101.3,138.6,99.9,136.9z"/>
	<path class="st2" d="M84.3,121.3c-1.6-1.3-1.9-2.5-1-4.3c1.4-2.8,2.8-5.5,4.2-8.2c1.5,1.5,2.9,2.9,4.3,4.4
		C89.4,115.8,86.9,118.5,84.3,121.3z"/>
	<path class="st2" d="M131.4,98.3c-4.8,0-8.5-3.8-8.5-8.6c0-4.7,3.9-8.5,8.5-8.5c4.7,0,8.5,3.8,8.5,8.5
		C140,94.5,136.1,98.3,131.4,98.3z"/>
</g>
</svg>
