<?xml version="1.0" encoding="utf-8"?>
<!-- Generator: Adobe Illustrator 23.0.4, SVG Export Plug-In . SVG Version: 6.00 Build 0)  -->
<svg version="1.1" id="Calque_1" xmlns="http://www.w3.org/2000/svg" xmlns:xlink="http://www.w3.org/1999/xlink" x="0px" y="0px"
	 viewBox="0 0 2400 1167.7" style="enable-background:new 0 0 2400 1167.7;" xml:space="preserve">
<style type="text/css">
	.st0{fill:#FFFFFF;}
	.st1{fill:url(#SVGID_1_);}
	.st2{fill:#EB5594;}
	.st3{fill:url(#SVGID_2_);}
</style>
<g>
	<path class="st0" d="M2401,904.6c0,0-1632.8-106-2398.9,249.1l-0.5,609.9l2397.7-0.1L2401,904.6z"/>
</g>
<linearGradient id="SVGID_1_" gradientUnits="userSpaceOnUse" x1="-3.6378" y1="1144.1921" x2="1212.3622" y2="1144.1921" gradientTransform="matrix(0.9975 0 0 1 4.273 0)">
	<stop  offset="0" style="stop-color:#D12E37"/>
	<stop  offset="1" style="stop-color:#EB5594"/>
</linearGradient>
<rect x="0.6" y="1122.2" class="st1" width="1213" height="44"/>
<rect x="1187.8" y="1122.2" class="st2" width="1213" height="44"/>
<g>
	
		<radialGradient id="SVGID_2_" cx="1086.2245" cy="969.7628" r="26.464" gradientTransform="matrix(14.6196 -0.431 -4.3324 4.6733 -11261.6914 -3011.8767)" gradientUnits="userSpaceOnUse">
		<stop  offset="0" style="stop-color:#FDC83D"/>
		<stop  offset="0.3058" style="stop-color:#FCC238"/>
		<stop  offset="0.8064" style="stop-color:#F9AF2A"/>
		<stop  offset="0.9962" style="stop-color:#F7A624"/>
	</radialGradient>
	<path class="st3" d="M-100.4,1153.7C356.1,989.6,950.3,932.9,950.3,932.9c-574.2,95.7-836.2,173.7-973.1,235.1L-100.4,1153.7z"/>
</g>
</svg>
