<?xml version="1.0" encoding="utf-8"?>
<!-- Generator: Adobe Illustrator 24.0.3, SVG Export Plug-In . SVG Version: 6.00 Build 0)  -->
<svg version="1.1" id="Calque_1" xmlns="http://www.w3.org/2000/svg" xmlns:xlink="http://www.w3.org/1999/xlink" x="0px" y="0px"
	 viewBox="0 0 318 319" style="enable-background:new 0 0 318 319;" xml:space="preserve">
<style type="text/css">
	.st0{fill:white;}
</style>
<path class="st0" d="M278.31,279.72v-24c0-0.83,0.67-1.5,1.5-1.5h31c0.83,0,1.5-0.67,1.5-1.5V23.82c0-8.07-6.54-14.6-14.6-14.6
	H21.92c-8.07,0-14.6,6.54-14.6,14.6v288.9c0,0.83,0.67,1.5,1.5,1.5h36c0.83,0,1.5-0.67,1.5-1.5l0,0c0-0.83-0.67-1.5-1.5-1.5h-32
	c-0.83,0-1.5-0.67-1.5-1.5v-26c0-0.83,0.67-1.5,1.5-1.5h45c0.83,0,1.5,0.67,1.5,1.5v11c0,0.83,0.67,1.5,1.5,1.5h25
	c0.83,0,1.5,0.67,1.5,1.5v15c0,0.83,0.67,1.5,1.5,1.5h170c0.83,0,1.5-0.67,1.5-1.5v-26c0-0.83,0.67-1.5,1.5-1.5h34
	c0.83,0,1.5,0.67,1.5,1.5v26c0,0.83,0.67,1.5,1.5,1.5h12c0.83,0,1.5-0.67,1.5-1.5v-30c0-0.83-0.67-1.5-1.5-1.5h-31
	C278.99,281.22,278.31,280.54,278.31,279.72z"/>
</svg>
