<?xml version="1.0" encoding="utf-8"?>
<!-- Generator: Adobe Illustrator 24.0.3, SVG Export Plug-In . SVG Version: 6.00 Build 0)  -->
<svg version="1.1" id="Calque_1" xmlns="http://www.w3.org/2000/svg" xmlns:xlink="http://www.w3.org/1999/xlink" x="0px" y="0px"
	 viewBox="0 0 53 55" style="enable-background:new 0 0 53 55;" xml:space="preserve">
<style type="text/css">
	.st0{fill:none;}
	.st1{fill:#3E3C3F;}
	.st2{fill:#F7E200;}
	.st3{fill:#27353E;}
	.st4{fill:url(#New_Pattern_3);}
	.st5{font-family:'Montserrat-Medium';}
	.st6{font-size:22px;}
</style>
<pattern  x="-22" y="-293" width="113.39" height="170.08" patternUnits="userSpaceOnUse" id="New_Pattern_3" viewBox="41.44 -218.56 113.39 170.08" style="overflow:visible;">
	<g>
		<rect x="41.44" y="-218.56" class="st0" width="113.39" height="170.08"/>
		<g>
			<rect x="85.61" y="-85.47" class="st1" width="57.7" height="57.7"/>
			<rect x="113.39" y="-57.7" class="st1" width="57.7" height="57.7"/>
			<rect x="95.79" y="-122.43" class="st2" width="57.7" height="57.7"/>
			<rect x="123.57" y="-94.66" class="st2" width="57.7" height="57.7"/>
			<rect x="150.34" y="-67.88" class="st2" width="57.7" height="57.7"/>
			<rect x="146.83" y="-100.42" class="st1" width="36.39" height="36.39"/>
			<rect x="153.25" y="-123.73" class="st2" width="36.39" height="36.39"/>
		</g>
		<g>
			<rect x="0" y="-57.7" class="st1" width="57.7" height="57.7"/>
			<rect x="10.18" y="-94.66" class="st2" width="57.7" height="57.7"/>
			<rect x="36.96" y="-67.88" class="st2" width="57.7" height="57.7"/>
			<rect x="33.44" y="-100.42" class="st1" width="36.39" height="36.39"/>
			<rect x="50.96" y="-82.91" class="st1" width="36.39" height="36.39"/>
			<rect x="69.15" y="-66.02" class="st1" width="36.39" height="36.39"/>
			<rect x="39.86" y="-123.73" class="st2" width="36.39" height="36.39"/>
			<rect x="57.38" y="-106.22" class="st2" width="36.39" height="36.39"/>
			<rect x="74.27" y="-89.33" class="st2" width="36.39" height="36.39"/>
		</g>
		<g>
			<rect x="142.31" y="-170.51" class="st1" width="57.7" height="57.7"/>
			<rect x="152.49" y="-207.47" class="st2" width="57.7" height="57.7"/>
		</g>
		<g>
			<rect x="28.92" y="-170.51" class="st1" width="57.7" height="57.7"/>
			<rect x="56.69" y="-142.74" class="st1" width="57.7" height="57.7"/>
			<rect x="85.54" y="-115.96" class="st1" width="57.7" height="57.7"/>
			<rect x="39.1" y="-207.47" class="st2" width="57.7" height="57.7"/>
			<rect x="66.87" y="-179.7" class="st2" width="57.7" height="57.7"/>
			<rect x="93.65" y="-152.92" class="st2" width="57.7" height="57.7"/>
			<rect x="90.14" y="-185.46" class="st1" width="36.39" height="36.39"/>
			<rect x="107.65" y="-167.95" class="st1" width="36.39" height="36.39"/>
			<rect x="125.85" y="-151.06" class="st1" width="36.39" height="36.39"/>
			<rect x="96.56" y="-208.77" class="st2" width="36.39" height="36.39"/>
			<rect x="114.07" y="-191.26" class="st2" width="36.39" height="36.39"/>
			<rect x="130.96" y="-174.37" class="st2" width="36.39" height="36.39"/>
		</g>
		<g>
			<rect x="12.46" y="-151.06" class="st1" width="36.39" height="36.39"/>
			<rect x="17.57" y="-174.37" class="st2" width="36.39" height="36.39"/>
		</g>
		<g>
			<rect x="85.61" y="-255.55" class="st1" width="57.7" height="57.7"/>
			<rect x="113.39" y="-227.78" class="st1" width="57.7" height="57.7"/>
			<rect x="142.24" y="-201" class="st1" width="57.7" height="57.7"/>
			<rect x="123.57" y="-264.74" class="st2" width="57.7" height="57.7"/>
			<rect x="150.34" y="-237.96" class="st2" width="57.7" height="57.7"/>
		</g>
		<g>
			<rect x="0" y="-227.78" class="st1" width="57.7" height="57.7"/>
			<rect x="28.85" y="-201" class="st1" width="57.7" height="57.7"/>
			<rect x="10.18" y="-264.74" class="st2" width="57.7" height="57.7"/>
			<rect x="36.96" y="-237.96" class="st2" width="57.7" height="57.7"/>
			<rect x="50.96" y="-252.99" class="st1" width="36.39" height="36.39"/>
			<rect x="69.15" y="-236.1" class="st1" width="36.39" height="36.39"/>
		</g>
	</g>
</pattern>
<g>
	<g>
		<g>
			<path class="st3" d="M36.03,29.31v-4.39H31.3v-4.55h-4.55v-9.46h1.67V9.58c-1.17-0.19-2.37-0.29-3.6-0.29
				c-12.11,0-21.94,9.82-21.94,21.94c0,12.12,9.82,21.94,21.94,21.94c12.12,0,21.94-9.82,21.94-21.94c0-2.59-0.45-5.08-1.27-7.38
				v5.47H36.03z"/>
		</g>
		<polygon class="st4" points="36.03,19.85 36.21,19.85 36.21,18.86 32.97,18.86 32.97,15.46 31.3,15.46 31.3,20.37 36.03,20.37 		
			"/>
		<path class="st4" d="M45.49,23.84v-0.59h-0.22C45.34,23.44,45.41,23.64,45.49,23.84z"/>
		<polygon class="st4" points="37.36,19.85 36.21,19.85 36.21,20.37 36.03,20.37 36.03,24.92 40.76,24.92 40.76,23.25 37.36,23.25 
					"/>
		<path class="st4" d="M32.97,9.41h3.81V8.46h1.05V4.86h-9.42v4.72c1.58,0.26,3.1,0.69,4.55,1.27V9.41z"/>
		<rect x="28.42" y="10.91" class="st4" width="4.55" height="3.4"/>
		<rect x="32.97" y="14.31" class="st4" width="3.24" height="1.15"/>
		<rect x="36.21" y="15.46" class="st4" width="1.15" height="3.4"/>
		<path class="st4" d="M36.78,12.83c-0.19-0.12-0.38-0.25-0.58-0.36v1.84h0.58V12.83z"/>
		<path class="st4" d="M32.97,10.85v0.06h0.15C33.07,10.89,33.02,10.87,32.97,10.85z"/>
		<path class="st4" d="M33.12,10.91c1.07,0.44,2.1,0.96,3.08,1.55v-1.55H33.12z"/>
		<rect x="45.49" y="20.06" class="st4" width="1.33" height="3.19"/>
		<path class="st4" d="M42.43,18.13c0.07,0.1,0.14,0.19,0.21,0.29V17.3h-0.21V18.13z"/>
		<rect x="37.36" y="18.86" class="st4" width="3.4" height="0.99"/>
		<path class="st4" d="M42.63,19.85h-1.88v3.4h4.51c-0.43-1.11-0.95-2.17-1.55-3.19h-1.08V19.85z"/>
		<path class="st4" d="M37.36,14.42v1.04h2.29v-0.4c-0.24-0.22-0.48-0.43-0.72-0.63H37.36z"/>
		<path class="st4" d="M40.76,17.3v1.57h1.67v-0.73c-0.21-0.28-0.43-0.56-0.65-0.83H40.76z"/>
		<path class="st4" d="M38.14,13.79c-0.09-0.07-0.18-0.14-0.27-0.2v0.2H38.14z"/>
		<rect x="36.78" y="14.31" class="st4" width="0.58" height="0.11"/>
		<path class="st4" d="M37.87,13.59v-2.98h-0.04v-1.2h-1.05v3.42C37.15,13.07,37.52,13.33,37.87,13.59z"/>
		<path class="st4" d="M38.93,14.42h0.72v-0.63h-1.51C38.41,14,38.67,14.21,38.93,14.42z"/>
		<rect x="37.36" y="13.79" class="st4" width="0.52" height="0.52"/>
		<rect x="42.74" y="13.48" class="st4" width="0.73" height="0.32"/>
		<path class="st4" d="M39.65,15.06c0.15,0.13,0.29,0.27,0.43,0.4h0.68v0.68c0.35,0.37,0.69,0.75,1.01,1.15h0.65v-2.87h-2.77V15.06z
			"/>
		<path class="st4" d="M39.65,17.3h1.11v-1.15c-0.22-0.23-0.45-0.46-0.68-0.68h-0.43V17.3z"/>
		<polygon class="st4" points="40.7,13.48 40.7,11.33 39.65,11.33 39.65,13.79 42.43,13.79 42.43,13.48 		"/>
		<polygon class="st4" points="42.43,13.79 42.43,14.42 42.63,14.42 42.63,14.1 42.74,14.1 42.74,13.79 		"/>
		<rect x="46.81" y="16.24" class="st4" width="1.78" height="3.82"/>
		<path class="st4" d="M43.59,19.85c-0.3-0.49-0.62-0.97-0.95-1.44v1.44H43.59z"/>
		<path class="st4" d="M45.49,20.06v-0.21h-1.9c0.04,0.07,0.08,0.14,0.13,0.21H45.49z"/>
		<polygon class="st4" points="43.47,14.1 42.74,14.1 42.74,14.42 42.63,14.42 42.63,17.3 45.61,17.3 45.61,16.24 43.47,16.24 		"/>
		<polygon class="st4" points="37.68,8.46 40.51,8.46 40.51,7.51 43.6,7.51 43.6,4.64 37.64,4.64 37.64,4.86 37.68,4.86 		"/>
		<rect x="37.83" y="8.46" class="st4" width="0.04" height="0.94"/>
		<rect x="37.87" y="9.41" class="st4" width="2.83" height="1.2"/>
		<rect x="43.8" y="7.51" class="st4" width="2.87" height="2.77"/>
		<rect x="42.74" y="10.61" class="st4" width="0.73" height="0.73"/>
		<rect x="40.7" y="10.61" class="st4" width="1.72" height="0.73"/>
		<rect x="42.43" y="11.33" class="st4" width="0.32" height="2.14"/>
		<polygon class="st4" points="42.43,9.41 42.43,10.61 42.74,10.61 42.74,8.46 40.7,8.46 40.7,9.41 		"/>
		<polygon class="st4" points="49.43,10.28 46.67,10.28 46.67,13.48 45.61,13.48 45.61,13.79 46.81,13.79 46.81,14.1 48.6,14.1 
			48.6,16.24 49.43,16.24 		"/>
		<rect x="43.47" y="13.79" class="st4" width="2.14" height="0.31"/>
		<rect x="45.61" y="14.1" class="st4" width="1.2" height="2.14"/>
		<rect x="43.47" y="11.33" class="st4" width="2.14" height="2.14"/>
		<rect x="43.47" y="10.28" class="st4" width="0.33" height="0.33"/>
	</g>
	<rect x="8.49" y="24.06" class="st0" width="33.33" height="20.75"/>
	<text transform="matrix(1 0 0 1 18.757 40.3894)" class="st2 st5 st6">+</text>
</g>
</svg>
