<?xml version="1.0" encoding="UTF-8" standalone="no"?>
<svg
   xmlns:dc="http://purl.org/dc/elements/1.1/"
   xmlns:cc="http://creativecommons.org/ns#"
   xmlns:rdf="http://www.w3.org/1999/02/22-rdf-syntax-ns#"
   xmlns:svg="http://www.w3.org/2000/svg"
   xmlns="http://www.w3.org/2000/svg"
   xmlns:sodipodi="http://sodipodi.sourceforge.net/DTD/sodipodi-0.dtd"
   xmlns:inkscape="http://www.inkscape.org/namespaces/inkscape"
   id="Calque_1"
   data-name="Calque 1"
   viewBox="0 0 195.75 169.52"
   version="1.1"
   sodipodi:docname="chat.svg"
   inkscape:version="0.92.1 r15371">
  <metadata
     id="metadata17">
    <rdf:RDF>
      <cc:Work
         rdf:about="">
        <dc:format>image/svg+xml</dc:format>
        <dc:type
           rdf:resource="http://purl.org/dc/dcmitype/StillImage" />
        <dc:title>char</dc:title>
      </cc:Work>
    </rdf:RDF>
  </metadata>
  <sodipodi:namedview
     pagecolor="#ffffff"
     bordercolor="#666666"
     borderopacity="1"
     objecttolerance="10"
     gridtolerance="10"
     guidetolerance="10"
     inkscape:pageopacity="0"
     inkscape:pageshadow="2"
     inkscape:window-width="1280"
     inkscape:window-height="987"
     id="namedview15"
     showgrid="false"
     inkscape:zoom="1.3921661"
     inkscape:cx="99.31161"
     inkscape:cy="84.760002"
     inkscape:window-x="0"
     inkscape:window-y="0"
     inkscape:window-maximized="1"
     inkscape:current-layer="Calque_1" />
  <defs
     id="defs4">
    <style
       id="style2">.cls-1{fill:#4AB5A1;}.cls-2{fill:#fff;}</style>
  </defs>
  <title
     id="title6">char</title>
  <polygon
     class="cls-1"
     points="146.81 0 48.94 0 0 84.76 48.94 169.52 146.81 169.52 195.75 84.76 146.81 0"
     id="polygon8" />
  <path
     class="cls-2"
     d="M110.6,126.82a37.34,37.34,0,0,0,15.07-10.6,22,22,0,0,0,0-29.2,37.34,37.34,0,0,0-15.07-10.6,54.68,54.68,0,0,0-20.79-3.89A54.66,54.66,0,0,0,69,76.42,37.34,37.34,0,0,0,54,87a22.46,22.46,0,0,0-5.53,14.6,21.83,21.83,0,0,0,4.17,12.73A33.92,33.92,0,0,0,64.07,124.4c-.39.91-.8,1.75-1.21,2.51a14.38,14.38,0,0,1-1.47,2.18q-.86,1-1.32,1.65a20.86,20.86,0,0,1-1.53,1.68c-.71.72-1.16,1.19-1.35,1.42,0,0-.08,0-.24.25s-.24.3-.26.29-.1.07-.24.28l-.2.31-.15.28a1.21,1.21,0,0,0-.12.35,2,2,0,0,0,0,.36,1.06,1.06,0,0,0,.06.37,1.92,1.92,0,0,0,.68,1.2,1.87,1.87,0,0,0,1.2.45h.18c2-.27,3.64-.57,5.06-.91a50.25,50.25,0,0,0,16.34-7.27,61.54,61.54,0,0,0,10.34.91A54.68,54.68,0,0,0,110.6,126.82Z"
     transform="translate(-4 -27.77)"
     id="path10" />
  <path
     class="cls-2"
     d="M149.6,128.92a21.57,21.57,0,0,0-.24-25.82,34.4,34.4,0,0,0-12-10.12,28.37,28.37,0,0,1-2.59,23.07,38.39,38.39,0,0,1-11.28,12A52.53,52.53,0,0,1,108,135.42,63.93,63.93,0,0,1,89.81,138c-1.17,0-2.9-.08-5.17-.23q11.82,7.5,27.75,7.5a60.51,60.51,0,0,0,10.34-.91,50.23,50.23,0,0,0,16.35,7.28c1.41.34,3.09.64,5,.91a1.9,1.9,0,0,0,1.3-.4,2.1,2.1,0,0,0,.76-1.25c0-.23,0-.35.06-.37s.05-.14,0-.37l-.12-.34-.14-.28c-.05-.08-.11-.18-.21-.32a2.91,2.91,0,0,0-.24-.28l-.26-.28-.23-.26c-.2-.23-.65-.7-1.36-1.42s-1.21-1.28-1.52-1.67l-1.33-1.65a14.71,14.71,0,0,1-1.47-2.19c-.41-.76-.81-1.59-1.2-2.5A34.06,34.06,0,0,0,149.6,128.92Z"
     transform="translate(-4 -27.77)"
     id="path12" />
  <path
     style="opacity:1;fill:#4ab5a1;fill-opacity:1;stroke-width:0.71830511"
     d="M 48.319638,167.76016 C 47.144255,165.91773 2.5916619,88.699568 1.2853062,86.240659 0.51234202,84.785739 2.7403022,80.630272 24.681371,42.603625 L 48.931755,0.57464408 h 48.938411 48.938404 l 23.944,41.47134492 c 13.1692,22.80924 23.96149,41.975861 23.98289,42.592483 0.0214,0.616629 -10.78955,19.928568 -24.02432,42.915438 l -24.06322,41.7943 -48.648617,0.0141 -48.64861,0.0141 -1.031055,-1.61618 z m 93.939022,-44.04822 c 0.53768,-1.4012 -0.30052,-3.0104 -2.77266,-5.323 -1.04861,-0.98094 -2.59583,-2.89879 -3.43828,-4.2619 l -1.53173,-2.47839 2.11528,-1.47117 c 4.82505,-3.35579 10.26622,-9.74148 11.82949,-13.882942 2.09448,-5.548734 1.72607,-12.637939 -0.92418,-17.78379 -2.25617,-4.380713 -11.31218,-13.288645 -13.50953,-13.288645 -0.24705,0 -0.3038,3.151564 -0.1261,7.003475 0.27466,5.954089 0.0894,7.621591 -1.23649,11.128715 -3.3229,8.789462 -11.3243,16.61712 -21.87698,21.401937 -6.50219,2.94823 -12.97434,4.37469 -22.322277,4.91982 l -7.901356,0.46077 2.407974,1.53498 c 1.324382,0.84424 5.041611,2.44034 8.260509,3.5469 5.335154,1.83405 6.850102,2.02406 17.13689,2.14932 10.33588,0.12586 11.50552,0.27409 13.91557,1.76358 3.69838,2.28572 13.80179,5.68875 16.92365,5.70022 1.72355,0.006 2.76474,-0.37594 3.05022,-1.11988 z m -82.497,-14.33676 c 2.354644,-0.60509 6.705449,-2.2772 9.668458,-3.7158 5.382842,-2.61348 5.395886,-2.61575 15.802712,-2.74004 11.627025,-0.13887 15.72969,-0.98677 24.27507,-5.016969 6.55871,-3.093237 13.06831,-9.143277 15.76224,-14.649452 2.79536,-5.713521 2.79536,-13.108786 0,-18.82231 C 121.3275,56.37214 112.20415,49.7241 100.53214,46.40443 93.111768,44.29398 79.4193,44.144342 71.944186,46.092009 60.395346,49.101098 50.327883,56.235635 46.433824,64.170508 c -2.503974,5.102316 -2.531795,14.333653 -0.05729,19.009223 2.446214,4.622114 5.957412,8.647402 9.711789,11.133729 1.789667,1.185203 3.261047,2.510462 3.269732,2.945022 0.0192,0.960676 -3.579726,6.001888 -5.290955,7.411328 -2.068801,1.70396 -2.803189,3.61123 -1.838198,4.77397 1.082886,1.3048 2.228844,1.29437 7.532758,-0.0686 z"
     id="path4495"
     inkscape:connector-curvature="0" />
  <path
     style="opacity:1;fill:#f8904a;fill-opacity:1;stroke-width:0.71830511"
     d="M 25.11523,127.86354 C 1.4103179,86.652506 -0.48153447,83.223425 0.98796523,84.131622 1.4055653,84.389716 1.7029238,84.180035 1.6487619,83.665707 1.5946,83.151358 12.196003,64.243245 25.207434,41.647675 L 48.864582,0.56482306 97.984743,0.74930988 147.10491,0.93379663 171.13102,42.595493 c 13.21436,22.913932 23.93998,42.032133 23.83472,42.484888 -0.10526,0.452762 -11.0124,19.604569 -24.2381,42.559579 l -24.0467,41.73638 -48.861264,-0.0307 -48.861254,-0.0307 z m 116.84269,-4.07425 c 0.95361,-1.14903 -0.41633,-3.64128 -3.56653,-6.48837 -0.87322,-0.7892 -2.08297,-2.39271 -2.68833,-3.56335 -1.08028,-2.08904 -1.05566,-2.16162 1.33057,-3.92143 1.33718,-0.98614 3.9438,-3.35473 5.79249,-5.26354 9.03525,-9.329033 9.38681,-21.56391 0.89819,-31.259154 -2.70845,-3.093438 -8.75343,-8.071343 -9.80154,-8.071343 -0.14032,0 -0.13259,3.151564 0.0172,7.003475 0.22804,5.864961 0.0205,7.671958 -1.27648,11.115606 -3.32354,8.824271 -10.89909,16.278137 -21.58968,21.242886 -6.76193,3.14028 -12.861399,4.54104 -22.249439,5.10969 l -8.260508,0.50034 5.495192,2.70039 c 6.975554,3.42786 14.913235,4.89033 25.391925,4.67832 7.81726,-0.15816 7.96035,-0.13107 13.44399,2.54516 8.829,4.3089 15.36643,5.71552 17.06297,3.67132 z M 59.629315,109.334 c 2.427433,-0.62773 6.837794,-2.29671 9.800803,-3.70884 5.324738,-2.53772 5.504049,-2.56893 15.44356,-2.68792 11.445329,-0.13702 16.342762,-1.16423 24.781522,-5.197802 6.39438,-3.056388 13.19716,-9.483258 15.79151,-14.91886 2.53213,-5.30525 2.43561,-12.902169 -0.23435,-18.44462 C 121.3341,56.325232 110.81835,48.928772 99.219933,46.093668 92.390281,44.424236 78.590139,44.412731 72.303338,46.071229 60.530955,49.176858 49.877843,56.838127 46.35435,64.732646 c -2.48243,5.561979 -2.372632,13.138494 0.268334,18.516128 1.830187,3.726704 8.346227,10.8335 11.575936,12.625441 1.867533,1.036169 1.136845,2.826028 -3.156699,7.732495 -2.992498,3.4197 -3.451926,4.3094 -2.827653,5.47586 0.903679,1.68855 1.747123,1.71714 7.415047,0.25143 z"
     id="path4511"
     inkscape:connector-curvature="0" />
  <path
     style="opacity:1;fill:#f8904a;fill-opacity:1;stroke-width:0.71830511"
     d="M 24.721469,128.25828 C 11.433505,105.24288 0.39046726,85.927248 0.18138553,85.334646 -0.03612365,84.718161 10.203854,66.279357 24.116005,42.23634 L 48.430773,0.21549153 h 49.458751 49.458756 l 23.8793,41.30254347 c 13.13361,22.716399 24.06029,41.841739 24.2815,42.500755 0.2553,0.760563 -8.51423,16.63371 -24.00919,43.45746 l -24.41141,42.25925 -49.103536,0.18448 -49.10354,0.18449 z m 116.891411,-4.84229 c 0.24036,-0.38892 -1.16853,-2.6364 -3.13087,-4.99439 -3.1662,-3.80457 -5.00063,-7.01393 -4.29044,-7.50615 7.83155,-5.42792 12.07485,-10.10821 13.96674,-15.405085 1.57121,-4.399059 1.24408,-11.425031 -0.72931,-15.663254 -1.99859,-4.292361 -5.93829,-8.875349 -10.07796,-11.723521 l -2.91431,-2.005094 v 7.647839 c 0,7.244122 -0.12936,7.912469 -2.45053,12.660875 -6.51181,13.321205 -22.97403,22.6635 -42.006695,23.83879 -6.250906,0.38599 -6.943518,0.55709 -5.759542,1.42284 0.740191,0.54124 3.937604,1.84473 7.105351,2.89666 5.145637,1.70871 6.961045,1.92717 17.031556,2.04946 10.33955,0.12557 11.49069,0.27205 13.91557,1.7707 3.53529,2.18494 13.75301,5.69587 16.6113,5.70785 1.26066,0.005 2.48876,-0.3086 2.72914,-0.69752 z M 61.273523,108.25023 c 2.708322,-0.82873 6.837627,-2.51916 9.176236,-3.7565 4.202494,-2.22351 4.378156,-2.25035 15.084407,-2.30432 9.290666,-0.0468 11.548026,-0.29068 15.860534,-1.71324 11.43839,-3.773189 19.49417,-9.748769 23.13356,-17.159896 2.83043,-5.763788 2.85594,-13.134987 0.0651,-18.812476 -3.60128,-7.326239 -11.74989,-13.497095 -22.48039,-17.024163 -5.052773,-1.660824 -6.960362,-1.89479 -15.802712,-1.938203 -7.639699,-0.03751 -11.17825,0.263882 -14.725255,1.254195 -7.333117,2.047386 -13.267494,5.220956 -18.068532,9.66264 -11.286136,10.441376 -11.452589,24.047904 -0.420247,34.3525 2.069939,1.933397 4.533713,4.011548 5.475055,4.61812 2.26028,1.456457 1.736358,2.981211 -2.809282,8.175773 -1.964178,2.24457 -3.571232,4.3316 -3.571232,4.63783 0,1.96203 2.688555,1.96433 9.082728,0.008 z"
     id="path4513"
     inkscape:connector-curvature="0" />
  <path
     style="opacity:1;fill:#f8904a;fill-opacity:1;stroke-width:0.71830511"
     d="M 24.559273,127.89913 C 11.182101,104.6862 0.10801231,85.449 -0.04981225,85.149805 -0.39111671,84.502784 24.076984,41.985677 24.991729,41.636261 c 0.346901,-0.13251 0.513084,-0.455748 0.369295,-0.718305 -0.143788,-0.262559 4.991202,-9.528023 11.411091,-20.589922 L 48.44464,0.21549153 h 49.46027 49.46026 L 162.5276,26.433628 c 8.33934,14.419975 15.06214,26.337426 14.93956,26.483225 -0.12258,0.145799 0.17393,0.661882 0.6589,1.146852 1.88107,1.881069 17.86891,30.576563 17.51541,31.437222 -0.20583,0.501147 -11.21514,19.658943 -24.46512,42.572873 l -24.09087,41.6617 -49.102037,0.18448 -49.102039,0.18449 z m 117.010107,-4.41277 c 0.21645,-0.35022 -1.2046,-2.63602 -3.15789,-5.07955 -3.18819,-3.98837 -4.89707,-7.02204 -4.21992,-7.49136 7.83155,-5.42792 12.07485,-10.10821 13.96674,-15.405085 1.57121,-4.399059 1.24408,-11.425031 -0.72931,-15.663254 -1.99859,-4.292361 -5.93829,-8.875349 -10.07796,-11.723521 l -2.91431,-2.005094 v 7.647839 c 0,7.244122 -0.12936,7.912469 -2.45053,12.660875 -6.43223,13.158394 -22.89288,22.5989 -41.545658,23.82724 -3.654377,0.24065 -6.644322,0.68881 -6.644322,0.9959 0,0.76187 7.159052,3.38207 12.893476,4.719 3.285053,0.76587 7.414764,1.02531 13.683814,0.85966 8.44231,-0.22308 9.14504,-0.13425 11.76065,1.4866 6.00392,3.72054 18.30832,6.99412 19.43522,5.17075 z M 61.273523,108.25023 c 2.708322,-0.82873 6.837627,-2.51916 9.176236,-3.7565 4.202494,-2.22351 4.378156,-2.25035 15.084407,-2.30432 9.290666,-0.0468 11.548026,-0.29068 15.860534,-1.71324 11.43839,-3.773189 19.49417,-9.748769 23.13356,-17.159896 2.83043,-5.763788 2.85594,-13.134987 0.0651,-18.812476 -3.60128,-7.326239 -11.74989,-13.497095 -22.48039,-17.024163 -5.052773,-1.660824 -6.960362,-1.89479 -15.802712,-1.938203 -7.639699,-0.03751 -11.17825,0.263882 -14.725255,1.254195 -7.407806,2.068239 -13.348416,5.266097 -18.181439,9.787152 -5.799446,5.425098 -7.912192,9.585012 -8.270619,16.284533 -0.235293,4.397959 0.005,5.753954 1.681606,9.48996 1.873052,4.173719 7.307564,10.217696 11.756728,13.075221 2.260675,1.451946 1.736114,2.977885 -2.809282,8.172167 -1.964178,2.24457 -3.571232,4.3316 -3.571232,4.63783 0,1.96203 2.688555,1.96433 9.082728,0.008 z"
     id="path4515"
     inkscape:connector-curvature="0" />
  <path
     style="opacity:1;fill:#f8904a;fill-opacity:1;stroke-width:0.71830511"
     d="M 24.561448,127.89422 C 11.184347,104.68399 0.1057151,85.442392 -0.05773544,85.135123 -0.38702324,84.516094 11.213975,64.28632 12.116804,63.905211 c 0.311966,-0.13169 0.567211,-0.593488 0.567211,-1.026219 0,-1.068615 11.51174,-20.940017 12.306166,-21.242731 0.347752,-0.13251 0.518241,-0.455748 0.378865,-0.718305 C 25.22967,40.655397 30.363263,31.389933 36.77703,20.328034 L 48.438426,0.21549153 97.737437,0.03095996 147.03645,-0.15357165 148.84479,2.9041804 c 7.56736,12.7958276 45.61893,78.8778146 46.37417,80.5353906 0.67119,1.473114 0.0644,2.900918 -4.80627,11.308076 -3.06595,5.292153 -5.87152,9.819843 -6.23461,10.061543 -0.36308,0.24171 -0.60894,0.65937 -0.54636,0.92814 0.11618,0.4989 -33.6543,59.39451 -34.43095,60.04749 -0.23495,0.19753 -0.81772,1.24805 -1.29504,2.33449 l -0.86786,1.97534 H 97.960658 48.883448 Z M 141.59167,123.4503 c 0.2287,-0.37005 -1.05618,-2.48003 -2.85529,-4.68886 -4.23571,-5.20031 -5.29645,-7.44809 -3.9171,-8.30058 6.9783,-4.31282 13.20764,-12.159463 14.0354,-17.679358 0.7695,-5.131421 -0.0947,-10.621958 -2.31353,-14.698692 -1.93754,-3.559913 -9.73762,-11.42494 -11.32895,-11.423295 -0.50471,5.22e-4 -0.77547,2.57712 -0.77547,7.379582 0,6.938325 -0.14628,7.67792 -2.45053,12.389966 -3.11098,6.361763 -10.08481,13.342474 -16.97827,16.995027 -6.63319,3.51465 -16.393729,6.26553 -24.196067,6.81936 -3.491243,0.24781 -6.501839,0.69994 -6.690208,1.00473 -0.470525,0.76134 6.865266,3.4436 12.963209,4.73986 3.349936,0.71211 7.905066,0.99037 13.647796,0.83372 8.06729,-0.22006 8.79793,-0.1245 11.4015,1.49129 6.06155,3.76183 18.30907,6.99547 19.45751,5.13725 z M 62.03041,107.96604 c 3.08217,-0.98503 7.058513,-2.64791 8.836318,-3.69528 3.085063,-1.81751 3.739777,-1.91077 14.366102,-2.04646 9.843546,-0.12567 11.799627,-0.36041 16.88017,-2.02569 10.72785,-3.516331 19.56296,-10.36384 22.88568,-17.737184 2.09534,-4.649697 2.05931,-12.821299 -0.0771,-17.481019 -2.04276,-4.455522 -8.71676,-10.97509 -14.20831,-13.879551 -8.08149,-4.274268 -13.898583,-5.576882 -24.762165,-5.544961 -14.617911,0.04295 -23.715628,3.068551 -32.133924,10.686673 -5.738911,5.193415 -8.231982,9.966738 -8.655944,16.572976 -0.285831,4.453843 -0.07649,5.734351 1.500677,9.179335 1.771329,3.869086 8.238386,11.183997 11.909365,13.470721 2.264321,1.410492 1.733855,2.947357 -2.809282,8.13906 -1.964178,2.24457 -3.571232,4.3316 -3.571232,4.63783 0,2.0465 2.818961,1.9673 9.839615,-0.27645 z"
     id="path4517"
     inkscape:connector-curvature="0" />
  <path
     style="opacity:1;fill:#f8904a;fill-opacity:1;stroke-width:0.71830511"
     d="M 32.811652,142.26033 C 23.970029,126.95145 12.880833,107.73606 8.1689953,99.559458 L -0.39798306,84.69292 5.540296,74.418779 c 3.2660536,-5.650773 6.152272,-10.435752 6.413817,-10.633286 0.261546,-0.197534 0.691001,-0.942428 0.954346,-1.65532 C 13.321697,61.011508 33.059977,26.580032 44.801612,6.4957243 L 48.688886,-0.15353547 98.00742,0.03097806 147.32595,0.21549153 171.2187,41.518035 c 13.141,22.716399 24.07226,41.840317 24.29166,42.497602 0.37609,1.126647 -21.47751,40.144213 -22.79932,40.706073 -0.30982,0.13169 -0.56329,0.55219 -0.56329,0.93443 0,0.38226 -5.68455,10.53729 -12.63234,22.56676 l -12.63234,21.87175 H 97.8852 48.88733 Z M 141.26063,123.13209 c 0,-0.54506 -1.44805,-2.85584 -3.2179,-5.13505 -3.99713,-5.14752 -4.57915,-6.76505 -2.78993,-7.75363 2.95581,-1.63313 10.14963,-9.27905 11.76264,-12.501853 4.71999,-9.430542 1.15166,-21.339286 -8.63398,-28.814498 l -3.22643,-2.464658 -0.39047,7.539495 c -0.3452,6.665498 -0.6709,8.113249 -2.80967,12.48892 -3.08023,6.301805 -10.08168,13.295087 -16.96312,16.943354 -6.35001,3.36653 -16.160074,6.16998 -24.012499,6.86213 -3.358076,0.296 -6.089633,0.86141 -6.070123,1.25648 0.01954,0.39507 2.767026,1.65557 6.105593,2.80111 5.544173,1.90233 7.044325,2.09844 17.313679,2.26334 10.54721,0.16935 11.43696,0.29282 14.3661,1.99344 6.80613,3.95153 18.56611,6.81545 18.56611,4.52142 z M 61.975803,107.91557 c 3.112204,-1.01281 7.11312,-2.66954 8.890925,-3.68165 3.019877,-1.7192 3.976164,-1.85733 14.546332,-2.10115 9.93324,-0.22912 12.028407,-0.49709 17.16835,-2.195865 6.76708,-2.236543 15.11973,-7.41525 18.42252,-11.422099 3.84431,-4.663819 5.37391,-8.689998 5.43806,-14.313889 0.0315,-2.765475 -0.39361,-6.159466 -0.94476,-7.542203 C 122.58072,59.341801 114.69829,52.42611 104.76425,48.468522 99.606668,46.413811 98.500371,46.248759 88.106051,45.983233 74.977085,45.64785 69.795903,46.579856 61.991985,50.680698 c -6.174161,3.24443 -12.891835,9.634939 -14.899702,14.174054 -1.967442,4.44773 -2.51283,10.279057 -1.349859,14.432785 1.218579,4.35234 6.191603,11.037728 10.732138,14.427553 1.989675,1.485434 3.61759,3.068585 3.61759,3.518122 0,0.782644 -1.560737,2.997018 -5.987595,8.495238 -3.593048,4.46261 -1.180747,5.13289 7.871246,2.18712 z"
     id="path4519"
     inkscape:connector-curvature="0" />
  <path
     style="opacity:1;fill:#f8904a;fill-opacity:1;stroke-width:0.71830511"
     d="M 37.736279,150.92757 C 31.661356,140.38569 26.206108,130.85442 25.613507,129.747 25.020905,128.63957 19.126462,118.3939 12.514744,106.97883 5.9030264,95.563763 0.33761121,85.78159 0.14715427,85.240678 -0.04330275,84.699758 10.726232,65.347807 24.079454,42.23634 L 48.358039,0.21549153 97.67042,0.03096807 146.9828,-0.15355534 148.67522,2.5450359 c 0.93083,1.4842252 2.14843,3.5672922 2.70577,4.6290378 0.55736,1.0617454 5.66745,9.9507713 11.35578,19.7533903 22.77555,39.24877 31.63896,54.661415 32.41943,56.374357 0.74728,1.640092 -0.16669,3.504884 -10.53179,21.488209 -6.24255,10.83073 -11.60357,19.79999 -11.91337,19.93168 -0.30982,0.13169 -0.56329,0.53828 -0.56329,0.90354 0,0.53137 -4.12262,7.98887 -7.90558,14.30058 -0.35518,0.59261 -4.40446,7.62302 -8.99838,15.62314 l -8.35259,14.54568 H 97.836398 48.781594 Z M 141.04652,122.98049 c 0.14165,-0.43091 -1.20028,-2.66088 -2.98207,-4.95548 -4.2119,-5.4241 -4.57863,-6.64523 -2.43936,-8.12276 3.8334,-2.6476 9.11604,-8.2621 10.95799,-11.646365 5.06227,-9.30106 1.83677,-21.287504 -7.7758,-28.896054 l -3.65225,-2.890827 -0.39047,7.536197 c -0.34581,6.674476 -0.66818,8.102129 -2.81926,12.485615 -2.84844,5.80458 -9.1302,12.375865 -15.28202,15.986364 -5.83234,3.42301 -15.25748,6.49559 -22.616839,7.37307 -9.132387,1.08888 -10.028796,1.30477 -8.776151,2.11362 0.572001,0.36934 3.625896,1.51481 6.786439,2.54549 4.957397,1.61665 7.225905,1.9039 16.521021,2.09198 10.65926,0.21569 10.83223,0.24537 16.16186,2.77316 8.45072,4.0081 15.65126,5.60037 16.30691,3.60599 z M 62.500266,107.55993 c 3.613885,-1.2084 7.863649,-2.9428 9.44392,-3.85422 2.603102,-1.50134 3.846667,-1.66842 13.227696,-1.77713 12.519174,-0.14509 15.055808,-0.6582 23.522638,-4.758169 7.75931,-3.757368 13.10733,-8.575392 15.69977,-14.143923 2.45187,-5.266606 2.48604,-13.044158 0.0798,-18.163537 -2.46018,-5.234112 -9.2001,-11.291538 -16.39758,-14.737134 -7.90417,-3.783908 -12.383363,-4.521884 -24.998575,-4.118678 -8.79125,0.280984 -11.156895,0.609793 -15.170295,2.108566 -6.666544,2.489572 -10.87126,5.109013 -15.283545,9.521298 -4.748412,4.748412 -6.809623,8.932794 -7.373203,14.968048 -0.394709,4.226838 -0.22267,5.157295 1.710888,9.253221 2.148874,4.552029 6.274886,9.452594 10.935084,12.987862 2.961627,2.246714 2.762502,3.004936 -2.445642,9.312396 -5.156399,6.24479 -3.641133,6.97595 7.049064,3.4014 z"
     id="path4521"
     inkscape:connector-curvature="0" />
</svg>
