<?xml version="1.0" encoding="UTF-8" standalone="no"?>
<svg
   xmlns:dc="http://purl.org/dc/elements/1.1/"
   xmlns:cc="http://creativecommons.org/ns#"
   xmlns:rdf="http://www.w3.org/1999/02/22-rdf-syntax-ns#"
   xmlns:svg="http://www.w3.org/2000/svg"
   xmlns="http://www.w3.org/2000/svg"
   xmlns:sodipodi="http://sodipodi.sourceforge.net/DTD/sodipodi-0.dtd"
   xmlns:inkscape="http://www.inkscape.org/namespaces/inkscape"
   id="Capa_1"
   data-name="Capa 1"
   viewBox="0 0 148.96 129"
   version="1.1"
   sodipodi:docname="people.svg"
   inkscape:version="0.92.1 r15371">
  <metadata
     id="metadata15">
    <rdf:RDF>
      <cc:Work
         rdf:about="">
        <dc:format>image/svg+xml</dc:format>
        <dc:type
           rdf:resource="http://purl.org/dc/dcmitype/StillImage" />
        <dc:title>people</dc:title>
      </cc:Work>
    </rdf:RDF>
  </metadata>
  <sodipodi:namedview
     pagecolor="#ffffff"
     bordercolor="#666666"
     borderopacity="1"
     objecttolerance="10"
     gridtolerance="10"
     guidetolerance="10"
     inkscape:pageopacity="0"
     inkscape:pageshadow="2"
     inkscape:window-width="1280"
     inkscape:window-height="987"
     id="namedview13"
     showgrid="false"
     inkscape:zoom="1.8294574"
     inkscape:cx="75.573224"
     inkscape:cy="64.5"
     inkscape:window-x="0"
     inkscape:window-y="0"
     inkscape:window-maximized="1"
     inkscape:current-layer="Capa_1" />
  <defs
     id="defs4">
    <style
       id="style2">.cls-1{fill:#4AB5A1;}.cls-2{fill:#fff;}</style>
  </defs>
  <title
     id="title6">people</title>
  <polygon
     class="cls-1"
     points="111.72 0 37.24 0 0 64.5 37.24 129 111.72 129 148.96 64.5 111.72 0"
     id="polygon8" />
  <path
     class="cls-2"
     d="M105.77,59.37a14.55,14.55,0,0,1,6.77,10.81,11.75,11.75,0,1,0-6.77-10.81Zm-7.7,24.06A11.76,11.76,0,1,0,86.31,71.68,11.75,11.75,0,0,0,98.07,83.43Zm5,.8h-10a15.07,15.07,0,0,0-15,15v12.19l0,.19.84.27a68.6,68.6,0,0,0,20.46,3.29c11.06,0,17.47-3.15,17.87-3.35l.78-.4h.09V99.28A15.07,15.07,0,0,0,103.05,84.23ZM122.49,72.1H112.6a14.48,14.48,0,0,1-4.47,10.08A17.9,17.9,0,0,1,120.9,99.29v3.76c9.77-.36,15.4-3.12,15.77-3.31l.79-.4h.08V87.14A15.06,15.06,0,0,0,122.49,72.1Zm-45-.8a11.66,11.66,0,0,0,6.25-1.82,14.53,14.53,0,0,1,5.46-9.27c0-.22,0-.44,0-.66A11.76,11.76,0,1,0,77.45,71.3ZM88,82.18a14.51,14.51,0,0,1-4.47-10c-.36,0-.73-.05-1.1-.05h-10a15.06,15.06,0,0,0-15,15v12.2l0,.19.84.26a70.3,70.3,0,0,0,17,3.19V99.29A17.89,17.89,0,0,1,88,82.18Z"
     transform="translate(-23 -17.01)"
     id="path10" />
  <path
     style="opacity:1;fill:#f8904a;fill-opacity:1;stroke-width:0.54661018"
     d="M 36.769754,127.66081 C 35.87532,126.25877 1.9720379,67.4979 0.9779376,65.626738 0.3897334,64.519585 2.085149,61.357391 18.781691,32.420171 L 37.235558,0.43728814 H 74.476325 111.71709 L 129.9378,31.995826 c 10.0214,17.357196 18.23403,31.942461 18.25032,32.411693 0.0163,0.469238 -8.21055,15.165087 -18.28185,32.657454 l -18.31144,31.804297 -37.020236,0.0107 -37.020236,0.0107 -0.784604,-1.22987 z M 88.503025,96.978685 c 1.730016,-0.479606 4.028408,-1.24092 5.107536,-1.691813 l 1.962052,-0.819795 -0.204749,-7.795617 c -0.242755,-9.24261 -1.222417,-12.20216 -5.197317,-15.701 -3.67128,-3.231592 -6.147036,-3.846731 -15.481968,-3.846731 -7.860407,0 -8.079347,0.03241 -11.389071,1.686309 -3.59059,1.794237 -5.357644,3.678866 -7.146103,7.621609 -0.949549,2.093315 -1.110438,3.591306 -1.12072,10.434668 l -0.01203,7.990473 3.416314,0.961652 c 1.878972,0.528911 5.261123,1.288748 7.51589,1.688528 5.387767,0.955283 18.288909,0.653046 22.55014,-0.528283 z M 52.481252,82.066837 c 0.222562,-2.632901 0.847326,-5.26573 1.682377,-7.089719 1.563163,-3.414395 5.276106,-7.215205 8.443832,-8.643651 2.305394,-1.039587 2.711826,-1.59421 1.649413,-2.250815 -0.959083,-0.592744 -3.212281,-5.830718 -3.21814,-7.481169 l -0.0053,-1.503178 -7.51589,0.0055 c -6.724672,0.0049 -7.804811,0.139883 -10.260393,1.283375 -3.240002,1.50877 -5.855617,3.982569 -7.517855,7.110251 -1.058237,1.99118 -1.223788,3.275075 -1.392135,10.796327 l -0.191069,8.536394 4.829561,1.180662 c 4.216251,1.030726 9.485842,1.966381 12.265243,2.177777 0.705795,0.05368 0.945266,-0.748501 1.230397,-4.121594 z m 52.588558,3.347069 c 2.65302,-0.46265 5.90032,-1.317429 7.21621,-1.899508 l 2.39252,-1.05833 -0.17532,-8.349433 c -0.19926,-9.488759 -0.67993,-11.060973 -4.57374,-14.960031 -3.18891,-3.193209 -6.14298,-4.048299 -13.985642,-4.048299 h -6.437177 l -0.371132,2.049788 c -0.448187,2.475417 -1.600113,4.900054 -3.115262,6.557169 -1.295215,1.416573 -1.372987,1.286031 1.685002,2.828341 6.097273,3.075185 9.429889,8.293082 9.841847,15.409455 0.291005,5.026916 -0.172952,4.812853 7.522694,3.470848 z m -25.570766,-19.6857 c 9.431474,-3.939753 9.998265,-17.038299 0.93901,-21.700487 -7.382183,-3.799112 -16.407586,1.302842 -17.101218,9.667114 -0.325703,3.92751 0.651002,6.573125 3.465814,9.387938 3.405896,3.405901 8.389882,4.444367 12.696394,2.645435 z M 59.530215,53.422942 c 0.826748,-0.377606 1.508579,-1.077529 1.515182,-1.555385 0.02159,-1.563696 1.995209,-5.207701 3.727067,-6.88154 0.933162,-0.901907 1.703494,-2.149456 1.711846,-2.772331 0.03416,-2.549727 -1.759194,-6.231525 -4.075176,-8.366325 -6.128292,-5.648862 -15.39798,-3.674472 -18.933494,4.032724 -2.836367,6.1831 0.803648,13.989817 7.526617,16.142285 1.958697,0.627108 6.54894,0.304462 8.527958,-0.599428 z m 41.143665,-0.762077 c 3.12187,-1.829537 5.29442,-5.45834 5.62026,-9.38748 0.19821,-2.390141 -0.0306,-3.478711 -1.25828,-5.988139 -4.97699,-10.172594 -19.643626,-8.225468 -22.173016,2.943664 -0.374193,1.652353 -0.187853,2.022497 2.24096,4.451309 1.970202,1.970201 2.874716,3.425207 3.529494,5.677553 0.691725,2.379453 1.19647,3.151039 2.355289,3.600457 2.351648,0.912025 6.971133,0.293239 9.685293,-1.297364 z"
     id="path4492"
     inkscape:connector-curvature="0" />
  <path
     style="opacity:1;fill:#f8904a;fill-opacity:1;stroke-width:0.54661018"
     d="M 18.812205,97.600979 C 8.7004343,80.086901 0.29699011,65.388242 0.13788473,64.937288 -0.02763369,64.46816 7.7647038,50.436744 18.351463,32.140678 L 36.854324,0.16398305 H 74.491056 112.12779 L 130.29927,31.594068 c 9.99431,17.286546 18.30921,31.840397 18.47755,32.34189 0.19427,0.578768 -6.4791,12.657787 -18.27033,33.069916 l -18.5764,32.158106 -37.366422,0.14039 -37.366426,0.14039 z m 67.598391,-0.688127 c 2.082355,-0.441131 4.871291,-1.216498 6.197641,-1.723036 l 2.411534,-0.920972 -0.184929,-7.969806 c -0.179709,-7.744991 -0.232757,-8.054602 -1.880661,-10.976157 -1.90615,-3.379401 -5.252388,-6.236357 -8.293705,-7.081001 -1.119791,-0.310994 -5.602612,-0.564413 -9.961829,-0.563151 -7.155192,0.0022 -8.191592,0.1263 -10.658898,1.277702 -3.28739,1.534099 -6.346264,4.780149 -7.594268,8.05898 -0.731594,1.922072 -0.884825,3.93749 -0.760537,10.003048 l 0.155653,7.596006 2.501386,0.728637 c 8.051595,2.345378 20.99129,3.069041 28.068613,1.56975 z M 52.387584,81.192168 c 0.192702,-3.671438 0.534405,-5.062649 1.826607,-7.43685 1.805672,-3.317612 5.512055,-6.832425 8.248123,-7.8218 1.923773,-0.695643 2.274789,-1.216246 1.247949,-1.850866 -0.878331,-0.542838 -3.211897,-5.769465 -3.21814,-7.207864 -0.0055,-1.213879 -0.09951,-1.229714 -7.247925,-1.217869 -8.113842,0.01345 -10.569554,0.712572 -13.986458,3.981847 -3.624636,3.468029 -4.148389,5.196503 -4.363861,14.401484 l -0.193892,8.283046 2.917763,0.83293 c 3.505587,1.000728 10.47459,2.292128 13.371462,2.477811 1.078785,0.06915 1.178175,-0.246559 1.398372,-4.441869 z m 55.807456,3.098722 c 1.73774,-0.444044 3.78366,-1.091722 4.54649,-1.43929 l 1.38696,-0.631941 -0.17361,-8.231228 c -0.19394,-9.195486 -0.62792,-10.689776 -4.1182,-14.180063 -3.35171,-3.351704 -5.88562,-4.228319 -13.195767,-4.565124 l -6.468847,-0.298039 -0.66681,2.672946 c -0.366748,1.470124 -1.287217,3.737654 -2.045491,5.038958 -0.75828,1.301299 -1.295505,2.439445 -1.193841,2.529209 0.101664,0.08976 1.179798,0.664656 2.395853,1.277538 2.831315,1.426969 6.597978,5.512088 7.995557,8.671544 0.601008,1.358687 1.229725,4.310764 1.401339,6.579847 l 0.311256,4.115537 3.332791,-0.366272 c 1.83304,-0.201454 4.75458,-0.729583 6.49232,-1.173622 z M 79.491582,65.184504 c 8.428297,-3.521564 9.395918,-15.59624 1.615206,-20.15572 -6.124685,-3.589055 -13.110336,-1.545194 -16.337172,4.779927 -1.659093,3.252091 -1.245304,8.290058 0.935151,11.385746 3.048145,4.327584 8.915158,6.025557 13.786815,3.990047 z M 58.529438,53.238868 c 1.475432,-0.616475 2.009716,-1.295797 2.733876,-3.476053 0.495037,-1.49041 1.773919,-3.73074 2.841963,-4.97851 1.745321,-2.039013 1.904816,-2.488182 1.575554,-4.437063 -0.777197,-4.600203 -5.266381,-8.710512 -10.011378,-9.166446 -10.554819,-1.014184 -16.739728,11.485302 -9.50219,19.203597 3.07201,3.27607 8.40563,4.507627 12.362175,2.854475 z m 40.100961,-0.08269 c 7.815451,-3.264703 9.686431,-13.146276 3.585471,-18.93671 -6.503702,-6.172675 -16.806156,-2.779142 -18.97598,6.25051 -0.304773,1.268287 -0.02957,1.794896 1.803634,3.451064 2.275035,2.055357 4.413598,5.811186 4.413598,7.751329 0,2.169094 5.430086,3.047428 9.173277,1.483807 z"
     id="path4494"
     inkscape:connector-curvature="0" />
  <path
     style="opacity:1;fill:#f8904a;fill-opacity:1;stroke-width:0.54661018"
     d="m 32.563347,121.39784 c -2.529928,-4.4217 -4.517366,-8.14531 -4.416531,-8.2747 0.100837,-0.12938 -0.05685,-0.38572 -0.350403,-0.56966 -0.584634,-0.3663 -7.785168,-12.570018 -7.93768,-13.453056 C 19.80681,98.799788 19.604274,98.430826 19.408655,98.280508 19.093747,98.038524 2.0784168,68.768889 0.41312821,65.604552 -0.18074259,64.476097 0.64261942,62.827641 9.1497009,48.113026 14.31543,39.177917 18.816973,31.686659 19.15313,31.465785 c 0.336158,-0.220873 0.437918,-0.405354 0.226134,-0.409957 -0.507712,-0.01104 4.953658,-9.456294 5.768042,-9.975636 0.346352,-0.220873 0.456454,-0.405354 0.24467,-0.409957 -0.507712,-0.01104 4.953658,-9.456294 5.768042,-9.975636 0.346352,-0.220873 0.455993,-0.405354 0.243647,-0.409958 -0.212346,-0.0046 0.929057,-2.2836346 2.536452,-5.0645139 L 36.862652,0.16398305 74.168135,0.02351348 C 110.7901,-0.1143824 113.63515,-0.00192303 112.67863,1.545757 c -0.14888,0.2408943 -0.0434,0.5204919 0.23439,0.6213281 0.65516,0.2378178 14.34015,23.9582219 13.82855,23.9692509 -0.21354,0.0046 -0.10229,0.190316 0.24723,0.412694 0.69146,0.439929 8.49417,13.790801 8.05982,13.790801 -0.146,0 0.23609,0.53833 0.84907,1.196289 1.0292,1.104715 1.19496,1.482273 1.06783,2.432216 -0.0257,0.191865 0.19392,0.499333 0.48799,0.683263 0.53247,0.333034 9.9383,16.288367 11.08227,18.799101 0.53818,1.181192 -0.12237,2.568259 -6.32819,13.288241 -3.81099,6.583165 -7.17495,12.121337 -7.47545,12.307053 -0.3005,0.185722 -0.52535,0.494655 -0.49967,0.686515 0.12713,0.949949 -0.0387,1.327503 -1.06783,2.432219 -0.61298,0.65796 -0.99507,1.196289 -0.84907,1.196289 0.40198,0 -7.34283,13.336103 -7.96985,13.723633 -0.30004,0.18543 -0.52375,0.55563 -0.49713,0.82265 0.0266,0.26702 -2.67548,5.22051 -6.00468,11.00774 l -6.0531,10.52225 H 74.477013 37.163217 Z M 86.565199,96.872993 c 2.292357,-0.473501 5.132544,-1.246873 6.311527,-1.718608 L 95.020329,94.296682 94.82438,86.31296 c -0.169897,-6.922424 -0.354537,-8.282833 -1.388953,-10.233827 -1.869472,-3.525991 -3.771577,-5.47494 -6.831506,-6.99977 -2.676231,-1.333619 -3.282531,-1.40874 -11.329332,-1.403684 -7.754983,0.0049 -8.741866,0.117374 -11.23484,1.280752 -3.28739,1.534099 -6.346264,4.780149 -7.594268,8.05898 -0.731594,1.922072 -0.884825,3.93749 -0.760537,10.003048 l 0.155653,7.596006 2.501386,0.728637 c 8.206893,2.390616 20.761446,3.071162 28.223216,1.529891 z M 52.343635,81.011131 c 0.254508,-3.419134 0.684883,-5.077342 1.894716,-7.300198 1.784174,-3.278125 5.500396,-6.79256 8.223963,-7.777415 1.923773,-0.695643 2.274789,-1.216246 1.247949,-1.850866 -0.878331,-0.542838 -3.211897,-5.769465 -3.21814,-7.207864 -0.0055,-1.213879 -0.09951,-1.229714 -7.247925,-1.217869 -8.113842,0.01345 -10.569554,0.712572 -13.986458,3.981847 -3.624636,3.468029 -4.148389,5.196503 -4.363861,14.401484 l -0.193892,8.283046 2.917763,0.83293 c 1.604769,0.458108 4.393609,1.09392 6.197423,1.412911 8.701358,1.538778 8.131375,1.77657 8.528462,-3.558006 z m 55.851405,3.279759 c 1.73774,-0.444044 3.78818,-1.093778 4.55652,-1.44386 l 1.397,-0.636516 -0.18906,-8.226653 c -0.21163,-9.208621 -0.64012,-10.671175 -4.17741,-14.258632 -3.23398,-3.279858 -5.96763,-4.208199 -13.278381,-4.509288 l -6.356355,-0.261788 -0.674446,2.811407 c -0.370946,1.546279 -1.264173,3.68042 -1.984949,4.742538 -0.720771,1.062124 -1.310498,2.128822 -1.310498,2.370446 0,0.241629 0.986118,0.884 2.191377,1.427494 2.783448,1.255165 6.853146,5.584525 8.278443,8.806644 0.610914,1.381066 1.238548,4.317177 1.411392,6.602565 l 0.311256,4.115537 3.332791,-0.366272 c 1.83304,-0.201454 4.75458,-0.729583 6.49232,-1.173622 z M 79.930111,64.995879 c 2.91792,-1.325289 5.477264,-4.501061 6.261321,-7.76938 2.554102,-10.646693 -10.464873,-18.430674 -18.573507,-11.105008 -3.064865,2.768918 -4.015043,5.128528 -3.748817,9.309536 0.174637,2.742594 0.559882,3.952155 1.835659,5.76343 3.144928,4.46498 9.201122,6.083372 14.225344,3.801422 z M 58.529438,53.238868 c 1.475432,-0.616475 2.009716,-1.295797 2.733876,-3.476053 0.495037,-1.49041 1.752705,-3.705954 2.794818,-4.92343 2.081431,-2.431681 2.150927,-2.735207 1.315275,-5.744368 -1.216481,-4.38053 -6.087658,-8.011487 -10.78024,-8.035555 -8.058374,-0.04133 -13.815772,8.378965 -10.748998,15.720595 2.398429,5.741658 9.22053,8.742128 14.685269,6.458811 z m 40.100961,-0.08269 c 7.815451,-3.264703 9.686431,-13.146276 3.585471,-18.93671 -6.387219,-6.062122 -16.306264,-3.021872 -18.828001,5.770899 -0.418452,1.459055 -0.216551,1.895032 1.950387,4.211666 2.398717,2.564422 4.118866,5.754181 4.118866,7.63782 0,2.002581 5.605006,2.806875 9.173277,1.316325 z"
     id="path4496"
     inkscape:connector-curvature="0" />
</svg>
