[
    {
        "name" : "Element Standard",
        "type" : "blockCopy",
        "path" : "tpls.blockCms.elements.standardElement",
        "page" : "welcome",
        "parent" : {
            "614a0528e4787d741b3fedf5" : {
                "type" : "organizations",
                "name" : "dentiste2"
            }
        },
        "haveTpl" : "false",
        "collection" : "cms",
        "modified" : {
            "sec" : 1632893847,
            "usec" : 0
        },
        "updated" : 1632894536,
        "creator" : "5ef8a3fd690864c5338b4d52",
        "created" : 1632893847,
        "source" : {
            "insertOrign" : "costum",
            "key" : "dentiste2",
            "keys" : [ 
                "dentiste2"
            ]
        },
        "blockCmsBgColor" : "transparent",
        "blockCmsBgImg" : "",
        "blockCmsBgPaint" : "",
        "blockCmsBgPosition" : "center",
        "blockCmsBgRepeat" : "repeat",
        "blockCmsBgSize" : "cover",
        "blockCmsBgTarget" : "thisBlock",
        "blockCmsBgType" : "color",
        "blockCmsBorderBottom" : "",
        "blockCmsBorderColor" : "#ff007f",
        "blockCmsBorderLeft" : "",
        "blockCmsBorderRight" : "",
        "blockCmsBorderTop" : "",
        "blockCmsBorderType" : "solid",
        "blockCmsBorderWidth" : "5",
        "blockCmsColorTitle1" : "grey",
        "blockCmsColorTitle2" : "grey",
        "blockCmsColorTitle3" : "grey",
        "blockCmsColorTitle4" : "grey",
        "blockCmsColorTitle5" : "grey",
        "blockCmsColorTitle6" : "grey",
        "blockCmsLineSeparatorBg" : "#ff007f",
        "blockCmsLineSeparatorBottom" : "",
        "blockCmsLineSeparatorHeight" : "5",
        "blockCmsLineSeparatorIcon" : "align-justify",
        "blockCmsLineSeparatorPosition" : "center",
        "blockCmsLineSeparatorTop" : "",
        "blockCmsLineSeparatorWidth" : "70",
        "blockCmsPoliceTitle1" : "",
        "blockCmsPoliceTitle2" : "",
        "blockCmsPoliceTitle3" : "",
        "blockCmsPoliceTitle4" : "",
        "blockCmsPoliceTitle5" : "",
        "blockCmsPoliceTitle6" : "",
        "blockCmsTextAlignTitle1" : "center",
        "blockCmsTextAlignTitle2" : "center",
        "blockCmsTextAlignTitle3" : "center",
        "blockCmsTextAlignTitle4" : "center",
        "blockCmsTextAlignTitle5" : "center",
        "blockCmsTextAlignTitle6" : "center",
        "blockCmsTextLineHeightTitle1" : "",
        "blockCmsTextLineHeightTitle2" : "",
        "blockCmsTextLineHeightTitle3" : "",
        "blockCmsTextLineHeightTitle4" : "",
        "blockCmsTextLineHeightTitle5" : "",
        "blockCmsTextLineHeightTitle6" : "",
        "blockCmsTextSizeTitle1" : "",
        "blockCmsTextSizeTitle2" : "",
        "blockCmsTextSizeTitle3" : "",
        "blockCmsTextSizeTitle4" : "",
        "blockCmsTextSizeTitle5" : "",
        "blockCmsTextSizeTitle6" : "",
        "blockCmsUnderlineColorTitle1" : "grey",
        "blockCmsUnderlineColorTitle2" : "grey",
        "blockCmsUnderlineColorTitle3" : "grey",
        "blockCmsUnderlineColorTitle4" : "grey",
        "blockCmsUnderlineColorTitle5" : "grey",
        "blockCmsUnderlineColorTitle6" : "grey",
        "blockCmsUnderlineHeightTitle1" : "3px",
        "blockCmsUnderlineHeightTitle2" : "3px",
        "blockCmsUnderlineHeightTitle3" : "3px",
        "blockCmsUnderlineHeightTitle4" : "3px",
        "blockCmsUnderlineHeightTitle5" : "3px",
        "blockCmsUnderlineHeightTitle6" : "3px",
        "blockCmsUnderlineMargeBottomTitle1" : "30px",
        "blockCmsUnderlineMargeBottomTitle2" : "30px",
        "blockCmsUnderlineMargeBottomTitle3" : "30px",
        "blockCmsUnderlineMargeBottomTitle4" : "30px",
        "blockCmsUnderlineMargeBottomTitle5" : "30px",
        "blockCmsUnderlineMargeBottomTitle6" : "30px",
        "blockCmsUnderlineSpaceTitle1" : "10px",
        "blockCmsUnderlineSpaceTitle2" : "10px",
        "blockCmsUnderlineSpaceTitle3" : "10px",
        "blockCmsUnderlineSpaceTitle4" : "10px",
        "blockCmsUnderlineSpaceTitle5" : "10px",
        "blockCmsUnderlineSpaceTitle6" : "10px",
        "blockCmsUnderlineTitle1" : "none",
        "blockCmsUnderlineTitle2" : "none",
        "blockCmsUnderlineTitle3" : "none",
        "blockCmsUnderlineTitle4" : "none",
        "blockCmsUnderlineTitle5" : "none",
        "blockCmsUnderlineTitle6" : "none",
        "blockCmsUnderlineWidthTitle1" : "300px",
        "blockCmsUnderlineWidthTitle2" : "300px",
        "blockCmsUnderlineWidthTitle3" : "300px",
        "blockCmsUnderlineWidthTitle4" : "300px",
        "blockCmsUnderlineWidthTitle5" : "300px",
        "blockCmsUnderlineWidthTitle6" : "300px",
        "buttonShowAll" : false,
        "buttonShowAllText" : "Afficher tout",
        "cardAutoPlay" : true,
        "cardBg" : "transparent",
        "cardBoxShadow" : false,
        "cardBtnShowMore" : true,
        "cardNbResult" : "6",
        "cardNumberDesktop" : "3",
        "cardNumberPhone" : "1",
        "cardNumberTablet" : "2",
        "elDesign" : "1",
        "elPoiType" : "",
        "elType" : "events",
        "formTitle" : "",
        "imgBg" : "rgba(188, 188, 188, 0.753)",
        "imgBorder" : "",
        "imgBorderColor" : "",
        "imgHeight" : "352px",
        "imgRound" : "0%",
        "imgShow" : true,
        "imgWidth" : "100%",
        "infoBg" : "#f0ad16",
        "infoBorderRadius" : "0%",
        "infoDateFormat" : "1",
        "infoDistanceFromImage" : "-14px",
        "infoHeight" : "auto",
        "infoMarginLeft" : "0px",
        "infoMarginRight" : "0px",
        "infoOnHover" : false,
        "marginBottom" : "0",
        "marginTop" : "0",
        "modeLg" : "12",
        "modeMd" : "12",
        "modeSm" : "12",
        "modeXs" : "12",
        "paddingBottom" : "10",
        "paddingLeft" : "15",
        "paddingRight" : "15",
        "paddingTop" : "10",
        "showAdress" : true,
        "showDate" : true,
        "showDescription" : true,
        "showName" : true,
        "showRoles" : true,
        "showShortDescription" : true,
        "showTags" : true,
        "showType" : true,
        "title" : "AGENDA",
        "title2" : "1",
        "titleBg" : "transparent"
    },
    {
        "name" : "Element Standard",
        "type" : "blockCopy",
        "path" : "tpls.blockCms.elements.standardElement",
        "page" : "welcome",
        "parent" : {
            "614a0528e4787d741b3fedf5" : {
                "type" : "organizations",
                "name" : "dentiste2"
            }
        },
        "haveTpl" : "false",
        "collection" : "cms",
        "modified" : {
            "sec" : 1632896165,
            "usec" : 0
        },
        "updated" : 1632897113,
        "creator" : "5ef8a3fd690864c5338b4d52",
        "created" : 1632896165,
        "source" : {
            "insertOrign" : "costum",
            "key" : "dentiste2",
            "keys" : [ 
                "dentiste2"
            ]
        },
        "blockCmsBgColor" : "transparent",
        "blockCmsBgImg" : "",
        "blockCmsBgPaint" : "",
        "blockCmsBgPosition" : "center",
        "blockCmsBgRepeat" : "repeat",
        "blockCmsBgSize" : "cover",
        "blockCmsBgTarget" : "thisBlock",
        "blockCmsBgType" : "color",
        "blockCmsBorderBottom" : "",
        "blockCmsBorderColor" : "#ff007f",
        "blockCmsBorderLeft" : "",
        "blockCmsBorderRight" : "",
        "blockCmsBorderTop" : "",
        "blockCmsBorderType" : "solid",
        "blockCmsBorderWidth" : "5",
        "blockCmsColorTitle1" : "grey",
        "blockCmsColorTitle2" : "white",
        "blockCmsColorTitle3" : "white",
        "blockCmsColorTitle4" : "white",
        "blockCmsColorTitle5" : "white",
        "blockCmsColorTitle6" : "white",
        "blockCmsLineSeparatorBg" : "#ff007f",
        "blockCmsLineSeparatorBottom" : "",
        "blockCmsLineSeparatorHeight" : "5",
        "blockCmsLineSeparatorIcon" : "align-justify",
        "blockCmsLineSeparatorPosition" : "center",
        "blockCmsLineSeparatorTop" : "",
        "blockCmsLineSeparatorWidth" : "70",
        "blockCmsPoliceTitle1" : "",
        "blockCmsPoliceTitle2" : "",
        "blockCmsPoliceTitle3" : "",
        "blockCmsPoliceTitle4" : "",
        "blockCmsPoliceTitle5" : "",
        "blockCmsPoliceTitle6" : "",
        "blockCmsTextAlignTitle1" : "center",
        "blockCmsTextAlignTitle2" : "center",
        "blockCmsTextAlignTitle3" : "center",
        "blockCmsTextAlignTitle4" : "center",
        "blockCmsTextAlignTitle5" : "center",
        "blockCmsTextAlignTitle6" : "center",
        "blockCmsTextLineHeightTitle1" : "",
        "blockCmsTextLineHeightTitle2" : "",
        "blockCmsTextLineHeightTitle3" : "",
        "blockCmsTextLineHeightTitle4" : "",
        "blockCmsTextLineHeightTitle5" : "",
        "blockCmsTextLineHeightTitle6" : "",
        "blockCmsTextSizeTitle1" : "",
        "blockCmsTextSizeTitle2" : "",
        "blockCmsTextSizeTitle3" : "",
        "blockCmsTextSizeTitle4" : "",
        "blockCmsTextSizeTitle5" : "",
        "blockCmsTextSizeTitle6" : "",
        "blockCmsUnderlineColorTitle1" : "grey",
        "blockCmsUnderlineColorTitle2" : "grey",
        "blockCmsUnderlineColorTitle3" : "grey",
        "blockCmsUnderlineColorTitle4" : "grey",
        "blockCmsUnderlineColorTitle5" : "grey",
        "blockCmsUnderlineColorTitle6" : "grey",
        "blockCmsUnderlineHeightTitle1" : "3px",
        "blockCmsUnderlineHeightTitle2" : "3px",
        "blockCmsUnderlineHeightTitle3" : "3px",
        "blockCmsUnderlineHeightTitle4" : "3px",
        "blockCmsUnderlineHeightTitle5" : "3px",
        "blockCmsUnderlineHeightTitle6" : "3px",
        "blockCmsUnderlineMargeBottomTitle1" : "30px",
        "blockCmsUnderlineMargeBottomTitle2" : "30px",
        "blockCmsUnderlineMargeBottomTitle3" : "30px",
        "blockCmsUnderlineMargeBottomTitle4" : "30px",
        "blockCmsUnderlineMargeBottomTitle5" : "30px",
        "blockCmsUnderlineMargeBottomTitle6" : "30px",
        "blockCmsUnderlineSpaceTitle1" : "10px",
        "blockCmsUnderlineSpaceTitle2" : "10px",
        "blockCmsUnderlineSpaceTitle3" : "10px",
        "blockCmsUnderlineSpaceTitle4" : "10px",
        "blockCmsUnderlineSpaceTitle5" : "10px",
        "blockCmsUnderlineSpaceTitle6" : "10px",
        "blockCmsUnderlineTitle1" : "none",
        "blockCmsUnderlineTitle2" : "none",
        "blockCmsUnderlineTitle3" : "none",
        "blockCmsUnderlineTitle4" : "none",
        "blockCmsUnderlineTitle5" : "none",
        "blockCmsUnderlineTitle6" : "none",
        "blockCmsUnderlineWidthTitle1" : "300px",
        "blockCmsUnderlineWidthTitle2" : "300px",
        "blockCmsUnderlineWidthTitle3" : "300px",
        "blockCmsUnderlineWidthTitle4" : "300px",
        "blockCmsUnderlineWidthTitle5" : "300px",
        "blockCmsUnderlineWidthTitle6" : "300px",
        "buttonShowAll" : false,
        "buttonShowAllText" : "Afficher tout",
        "cardAutoPlay" : true,
        "cardBg" : "transparent",
        "cardBoxShadow" : false,
        "cardBtnShowMore" : true,
        "cardNbResult" : "6",
        "cardNumberDesktop" : "3",
        "cardNumberPhone" : "1",
        "cardNumberTablet" : "2",
        "elDesign" : "1",
        "elPoiType" : "",
        "elType" : "projects",
        "formTitle" : "",
        "imgBg" : "rgba(188, 188, 188, 0.729)",
        "imgBorder" : "",
        "imgBorderColor" : "",
        "imgHeight" : "352px",
        "imgRound" : "0%",
        "imgShow" : true,
        "imgWidth" : "100%",
        "infoBg" : "#6aa84f",
        "infoBorderRadius" : "0%",
        "infoDateFormat" : "1",
        "infoDistanceFromImage" : "-14px",
        "infoHeight" : "auto",
        "infoMarginLeft" : "0px",
        "infoMarginRight" : "0px",
        "infoOnHover" : false,
        "marginBottom" : "0",
        "marginTop" : "0",
        "modeLg" : "12",
        "modeMd" : "12",
        "modeSm" : "12",
        "modeXs" : "12",
        "paddingBottom" : "10",
        "paddingLeft" : "15",
        "paddingRight" : "15",
        "paddingTop" : "10",
        "showAdress" : true,
        "showDate" : true,
        "showDescription" : true,
        "showName" : true,
        "showRoles" : true,
        "showShortDescription" : true,
        "showTags" : true,
        "showType" : true,
        "title" : "PROJETS",
        "title2" : "1",
        "titleBg" : "transparent"
    }
]