{
    "welcomeTpl" : "costum.views.custom.alternatibaRe.home",
    "name" : "test",
    "sourceKey" : true,
    "slug" : "alternatibaRe",
    "favicon" : "/images/alternatibaRe/icone.png",
    "metaImg" : "/images/alternatibaRe/logo.png",
    "logoMin" : "/images/alternatibaRe/logo.png",
    "logo" : "/images/alternatibaRe/logo.png",
    "js" : {
        "urls" : [
            "alternatibaRe_index.js"
        ]
    },
    "dynForm" : {
        "jsonSchema" : {
            "title" : "Template config",
            "type" : "object",
            "properties" : {
                "text1" : {
                    "label" : "Text 1",
                    "inputType" : "textarea",
                    "path" : "costum.text1"
                },
                "logoMin" : {
                    "label" : "Image Logo",
                    "inputType" : "text",
                    "path" : "costum.logoMin"
                },
                "elementBanner" : {
                    "label" : "Image Banière",
                    "inputType" : "image",
                    "path" : "costum.elementBanner"
                },
                "color1" : {
                    "label" : "Couleur 1",
                    "inputType" : "colorpicker",
                    "path" : "costum.colors.pink"
                },
                "color2" : {
                    "label" : "Couleur 2",
                    "inputType" : "colorpicker",
                    "path" : "costum.colors.dark"
                },
                "typeObj" : {
                    "label" : "Selectionnez les éléments qui peuvent etre ajouter",
                    "inputType" : "select",
                    "placeholder" : "---- Things that can be added ----",
                    "options" : {
                        "poi" : "Point of Interests",
                        "organization" : "Organization",
                        "project" : "projects",
                        "event" : "Events",
                        "person" : "People",
                        "proposal" : "Proposals"
                    },
                    "path" : "costum.slug"
                },
                "menuApp" : {
                    "label" : "Selectionnez les modules qui peuvent etre ajouter",
                    "inputType" : "select",
                    "placeholder" : "---- Active Modules ----",
                    "options" : {
                        "search" : "Search",
                        "agenda" : "Agenda"
                    },
                    "path" : "costum.slug"
                }
            }
        }
    },
    "filters" : {
        "sourceKey" : true
    },
    "htmlConstruct" : {
        "appRendering" : "vertical",
        "preview": {
            "element" : "costum.views.custom.alternatibaRe.element.preview"
        },
        "redirect" : {
            "logged" : "welcome",
            "unlogged" : "welcome"
        },
        "header" : {
            "menuTop" : {
                "left" : {
                    "buttonList":{
                        "xsMenu":{
                            "buttonList":{
                                "app":{
                                    "label":true,
                                    "icon":true,
                                    "spanTooltip":true,
                                    "keyListButton":"pages",
                                    "labelClass":"padding-left-5",
                                    "buttonList":{
                                        "#search": true,
                                        "#article":true,
                                        "#agenda":true
                                    }
                                },
                                "addxs":{
                                    "label": "Add something",
                                    "icon":"plus",
                                    "href":"javascript",
                                    "class": "open-create-element"
                                }
                            }
                        },
                        "logo" : {
                            "heightMin":40,
                            "widthMin":45
                        }
                    }
                },
                "right" : {
                    "addClass":"",
                    "buttonList":{
                        "login" : true,
                        "languages" : {"connected":false},
                        "notifications" : true,
                        "userProfil" : {
                            "img" : true,
                            "name" : true,
                            "dashboard":true
                        },
                        "dropdown" : {
                            "connected" :true,
                            "buttonList" : {
                                "languages" : true,
                                "admin" : true,
                                "logout" : true
                            }
                        }                     
                    }
                }
            }
        },
        "menuLeft":{
            "addClass":"transparent align-middle",
            "buttonList":{
                "app":{
                    "buttonList":{
                        "#search": true,
                        "#article":true,
                        "#agenda":true
                    }
                },
                "add":true
            }
        },
        "adminPanel" : {
            "add" : true,
            "menu" : {
                "directory" : true,
                "statistic" : true,
                "converter" : true,
                "import" : true,
                "community":{
                    "show": true
                },
                "reference" : {
                    "show": true
                }
            }
        },
        "directory" : {
            "results" : {
                "organizations" : {
                    "defaultImg" : "/images/alternatibaRe/default_directory.jpg"
                },
                "projects" : {
                    "defaultImg" : "/images/alternatibaRe/default_directory.jpg"
                },
                "events" : {
                    "defaultImg" : "/images/alternatibaRe/default_directory.jpg"
                }
            },
            "preview" : true,
            "footer" : {
                "add" : false
            }
        },
        "footer" : {
            "url" : "costum.views.custom.alternatibaRe.footer"
        },
        "element" : {
            "tplCss":[
                "v1.0_pageProfil.css"
            ],
            "banner":"co2.views.element.bannerHorizontal",
            "containerClass":{
                "centralSection":"col-xs-12 col-lg-10 col-lg-offset-1"
            },
            "menuTop":{
                "class":"col-xs-12",
                "left":{
                    "class":"col-lg-3 col-md-3 col-sm-4 hidden-xs no-padding",
                    "buttonList":{
                        "imgUploader":true
                    }   
                },      
                "right":{
                    "class": "col-md-12 col-sm-12 col-lg-12 col-xs-12 text-center",
                    "buttonList":{
                        "xsMenu":{
                            "class":"visible-xs",
                            "buttonList":{
                                "detail":true,
                                "newspaper":true
                            }
                        },
                        "imgProfil":true,
                        "nameProfil":true,
                        "newspaper":true,
                        "detail":true,
                        "gallery":true,
                        "community":true,
                        "events":true,
                        "pois" : {
                            "label" : "Articles",
                            "icon" : "newspaper-o"
                        },
                        "create":{
                            "class":"text-green-k visible-xs"
                        },
                        "chat":{
                            "class":"text-red visible-xs"
                        },
                        "share":true,
                        "params":{
                            "buttonList":{
                                "settings":true
                            }
                        }
                    }   
                }
            }
        },
        "menuBottom" : {
            "add" : true
        }
    },
    "css" : {
        "loader" : {
            "background" : "white",
            "ring1" : {
                "color" : "#098048",
                "height" : 420,
                "width" : 420,
                "left" : -15,
                "borderWidth" : 4,
                "top" : -35
            },
            "ring2" : {
                "color" : "#098048",
                "height" : 400,
                "width" : 400,
                "left" : -10,
                "borderWidth" : 5,
                "top" : -30
            }
        },
        "progress" : {
            "value" : {
                "background" : "#098048"
            },
            "bar" : {
                "background" : "098048"
            }
        },
        "menuTop" : {
            "background" : "white",
            "button" : {
                "paddingTop" : 900,
                "fontSize" : 25,
                "color" : "#098048"
            },
            "badge" : {
                "background" : "#497614",
                "border" : "3px solid white"
            },
            "scopeBtn" : {
                "display" : "none"
            },
            "filterBtn" : {
                "display" : "none"
            },
            "connectBtn" : {
                "background" : "#098048",
                "color" : "white",
                "fontSize" : 18,
                "borderRadius" : 10,
                "padding" : "8px 15px"
            }
        },
        "menuApp" : {
            "top" : "55",
            "background" : "white",
            "button" : {
                "fontSize" : 25,
                "color" : "#098048",
                "hover" : {
                    "borderBottom" : "2px solid #fff"
                }
            }
        },
        "button" : {
            "footer" : {
                "add" : {
                    "bottom" : 10,
                    "background" : "#098048",
                    "color" : "white"
                },
                "toolbarAdds" : {
                    "bottom" : 10
                }
            }
        },
        "urls" : [
            "index.css",
            "main.css"
        ]
    },
    "app" : {
        "#search" : {
            "hash" : "#app.search",
            "urlExtra" : "/page/search",
            "useHeader" : true,
            "useFilter" : false,
            "filterObj" : "costum.views.custom.alternatibaRe.filters",
            "subdomainName" : "Tous les membres",
            "filters" : {
                "community" : true,
                "types" : [ 
                    "organizations"
                ]
            },
            "placeholderMainSearch" : "Quel article recherchez-vous ?"
        },
        "#article" : {
            "hash" : "#app.search",
            "icon" : "newspaper-o",
            "urlExtra" : "/page/article",
            "filterObj" : "costum.views.custom.alternatibaRe.filters",
            "useHeader" : true,
            "useFilter" : false,
            "open" : true,
            "subdomainName" : "Tous les articles",
            "filters" : {
                "community" : false,
                "category" : "article",
                "types" : [ 
                    "poi"
                ]
            },
            "placeholderMainSearch" : "Quel article recherchez-vous ?"
        },
        "#agenda" : {
            "hash" : "#app.agenda",
            "useHeader" : true,
            "useFilter" : false,
            "subdomainName" : "L'agenda"
        }
    },
    "typeObj" : {
        "organizations" : {
            "add": true
        },
        "event":{
            "add": true
        },
        "projects" : {
            "add" : true
        },
        "poi" : {
            "icon" : "newspaper-o",
            "name" : "Article",
            "add" : "onlyAdmin",
            "createLabel" : "Ecrire un article",
            "dynFormCostum" : {
                "beforeBuild" : {
                    "properties" : {
                        "name" : {
                            "label" : "Titre de l'article",
                            "placeholder" : "Entrez le titre de votre article..."
                        },
                        "parent" : {
                            "label" : "Auteur(s)"
                        },
                        "shortDescription" : {
                            "inputType" : "textarea",
                            "label" : "Résumé de l'article",
                            "placeholder" : "Entrez un résumé de votre article (200 caractères max.)...",
                            "rules" : {
                                "maxlength" : 200
                            },
                            "order" : 5
                        },
                        "description" : {
                            "markdown" : true,
                            "label" : "Texte de l'article",
                            "order" : 6
                        },
                        "image" : {
                            "label" : "Image(s)",
                            "order" : 7
                        },
                        "tags" : {
                            "label" : "Mot(s) clé (hashtags)"
                        },
                        "urls" : {
                            "label" : "Lien(s) : vidéo, page internet ou document...",
                            "order" : 8
                        },
                        "rank" : {
                            "inputType" : "checkboxSimple",
                            "label" : "Mettre à la Une",
                            "params" : {
                                "onText" : "Oui",
                                "offText" : "Non",
                                "onLabel" : "Article à la Une",
                                "offLabel" : "Article normal",
                                "labelText" : "Mettre l'article à la Une"
                            },
                            "checked" : false
                        }
                    }
                },
                "onload" : {
                    "actions" : {
                        "setTitle" : "Ecrire un article",
                        "html" : {
                            "infocustom" : "Formulaire de création d'un article"
                        },
                        "presetValue" : {
                            "type" : "article"
                        },
                        "hide" : {
                            "typeselect" : 1,
                            "breadcrumbcustom" : 1,
                            "locationlocation" : 1
                        }
                    }
                }
            }
        }
    },
    "searchOpenMenu" : [ 
        {
            "url" : "#article",
            "msg" : "Tous les articles"
        }
    ]
}
