{
    "slug" : "appelAProjet",
    "welcomeTpl" : "costum.views.custom.appelAProjet.home",
    "sourceKey" : true,
    "favicon" : "",
    "metaImg" : "",
    "metaTitle" : "appelAProjet",
    "logoMin" : "",
    "formId" : "projetId",
    "docId" : "id",
    "admin" : {
        "email" : ""
    },
    "js" : {
        "urls" : [ 
            "index.js"
        ]
    },
    "dynForm" : {
        "jsonSchema" : {
            "title" : "Template config",
            "type" : "object"
        }
    },
    "css" : {
        "urls" : [ 
            "index.css"
        ],
        "loader" : {
            "background" : "white",
            "ring1" : {
                "color" : "#3a8037",
                "height" : 360,
                "width" : 360,
                "left" : -15,
                "borderWidth" : 4,
                "top" : -35
            },
            "ring2" : {
                "color" : "#f8904a",
                "height" : 350,
                "width" : 350,
                "left" : -10,
                "borderWidth" : 5,
                "top" : -30
            }
        },
        "progress" : {
            "value" : {
                "background" : "#3a8037"
            },
            "bar" : {
                "background" : "#fff"
            }
        },
        "menuTop" : {
            "background" : "white",
            "boxShadow" : "1px 1px 3px #ddd",
            "logo" : {
                "height" : 70
            },
            "app" : {
                "paddingLeft" : "30px",
                "button" : {
                    "fontSize" : 20,
                    "fontWeight" : 800,
                    "paddingBottom" : "0px",
                    "marginLeft" : "10px",
                    "textTransform" : "capitalize",
                    "color" : "#000000"
                }
            },
            "button" : {
                "paddingTop" : 0,
                "fontSize" : 30,
                "color" : "#5b2649"
            },
            "scopeBtn" : {
                "color" : "#5b2649"
            },
            "filterBtn" : {
                "color" : "#5b2649"
            },
            "badge" : {
                "background" : "#5b2649",
                "border" : "1px solid white"
            },
            "connectBtn" : {
                "background" : "#5b2649",
                "color" : "white",
                "fontSize" : 18,
                "borderRadius" : 10,
                "padding" : "8px 15px"
            }
        },
        "menuApp" : {
            "background" : "#3a8037",
            "button" : {
                "fontSize" : 80,
                "color" : "#008037",
                "hover" : {
                    "borderBottom" : "2px solid #fff"
                }
            }
        },
        "button" : {
            "footer" : {
                "add" : {
                    "paddingLeft" : "10px",
                    "fontSize" : 30,
                    "bottom" : 1000,
                    "background" : "transparent",
                    "color" : "#098048"
                },
                "toolbarAdds" : {
                    "bottom" : 10,
                    "paddingLeft" : "40px",
                    "fontSize" : 50,
                    "left" : "0"
                }
            }
        },
        "color" : {
            "purple" : "#5b2649",
            "blue" : "#0091c6",
            "orange" : "#fea621"
        }
    },
    "app" : {},
    "htmlConstruct" : {
        "element" : {
            "tplCss" : [ 
                "v1.0_pageProfil.css"
            ],
            "banner" : "co2.views.element.bannerHorizontal",
            "containerClass" : {
                "centralSection" : "col-xs-12 col-lg-10 col-lg-offset-1"
            },
            "menuTop" : {
                "class" : "col-xs-12",
                "left" : {
                    "class" : "col-lg-3 col-md-3 col-sm-4 hidden-xs no-padding",
                    "buttonList" : {}
                },
                "right" : {
                    "class" : "col-md-12 col-sm-12 col-lg-12 col-xs-12 text-center",
                    "buttonList" : {
                        "xsMenu" : {
                            "class" : "visible-xs",
                            "buttonList" : {}
                        },
                        "app" : {
                            "class" : "hidden-xs",
                            "label" : true,
                            "icon" : false,
                            "spanTooltip" : false,
                            "buttonList" : {}
                        },
                        "params" : {
                            "buttonList" : {
                                "settings" : true
                            }
                        }
                    }
                }
            }
        },
        "directoryViewMode" : "block",
        "footer" : {
            "url" : "costum.views.custom.appelAProjet.footer"
        },
        "redirect" : {
            "logged" : "welcome",
            "unlogged" : "welcome"
        }
    },
    "typeObj" : {},
    "filters" : {
        "sourceKey" : true
    }
}