{
    "welcomeTpl" : "costum.views.custom.costrasbourg2.home",
    "name" : "test",
    "sourceKey" : true,
    "slug" : "costrasbourg2",
    "favicon" : "/images/coeurNumerique/icone.png",
    "metaImg" : "/images/costrasbourg/logo.png",
    "logoMin" : "/images/costrasbourg/logo.png",
    "logo" : "/images/costrasbourg/logo.png",
    "register" : "costum.views.custom.costrasbourg2.modalRegister",
    "filters" : {
        "sourceKey" : true
    },
    "js" : {
        "urls" : [ 
            "costrasbourg2_index.js"
        ]
    },
    "dynForm" : {
        "jsonSchema" : {
            "title" : "Template config",
            "type" : "object",
            "properties" : {
                "text1" : {
                    "label" : "Text 1",
                    "inputType" : "textarea",
                    "path" : "costum.text1"
                },
                "logoMin" : {
                    "label" : "Image Logo",
                    "inputType" : "text",
                    "path" : "costum.logoMin"
                },
                "elementBanner" : {
                    "label" : "Image Banière",
                    "inputType" : "image",
                    "path" : "costum.elementBanner"
                },
                "color1" : {
                    "label" : "Couleur 1",
                    "inputType" : "colorpicker",
                    "path" : "costum.colors.pink"
                },
                "color2" : {
                    "label" : "Couleur 2",
                    "inputType" : "colorpicker",
                    "path" : "costum.colors.dark"
                },
                "typeObj" : {
                    "label" : "Selectionnez les éléments qui peuvent etre ajouter",
                    "inputType" : "select",
                    "placeholder" : "---- Things that can be added ----",
                    "options" : {
                        "poi" : "Point of Interests",
                        "organization" : "Organization",
                        "project" : "projects",
                        "event" : "Events",
                        "person" : "People",
                        "proposal" : "Proposals"
                    },
                    "path" : "costum.slug"
                },
                "menuApp" : {
                    "label" : "Selectionnez les modules qui peuvent etre ajouter",
                    "inputType" : "select",
                    "placeholder" : "---- Active Modules ----",
                    "options" : {
                        "search" : "Search",
                        "agenda" : "Agenda"
                    },
                    "path" : "costum.slug"
                }
            }
        }
    },
    "htmlConstruct" : {
        "appRendering" : "vertical",
        "redirect" : {
            "logged" : "welcome",
            "unlogged" : "welcome"
        },
        "header" : {
            "menuTop" : {
                "left" : {
                    "buttonList":{
                        "xsMenu":{
                            "buttonList":{
                                "app":{
                                    "label":true,
                                    "icon":true,
                                    "spanTooltip":true,
                                    "keyListButton":"pages",
                                    "labelClass":"padding-left-5",
                                    "buttonList":{
                                        "#search": true,
                                        "#annonces":true,
                                        "#live":true,
                                        "#projects" : true,
                                        "#dda": true,
                                        "#agenda": true
                                    }
                                },
                                "addxs":{
                                    "label": "Add something",
                                    "icon":"plus",
                                    "href":"javascript",
                                    "class": "open-create-element"
                                }
                            }
                        },
                        "logo" : {
                            "heightMin":40,
                            "widthMin":45
                        }
                    }
                },
                "right" : {
                    "addClass":"",
                    "buttonList":{
                        "login" : true,
                        "languages" : {"connected":false},
                        "notifications" : true,
                        "userProfil" : {
                            "img" : true,
                            "name" : true,
                            "dashboard":true
                        },
                        "dropdown" : {
                            "connected" :true,
                            "buttonList" : {
                                "languages" : true,
                                "admin" : true,
                                "logout" : true
                            }
                        }                     
                    }
                }
            }
        },
        "menuLeft":{
            "addClass":"transparent align-middle",
            "buttonList":{
                "app":{
                    "buttonList":{
                        "#search": true,
                        "#annonces":true,
                        "#live":true,
                        "#projects" : true,
                        "#dda": true,
                        "#agenda": true
                    }
                },
                "add":true
            }
        },
        "adminPanel" : {
            "add" : true,
            "menu" : {
                "directory" : true,
                "statistic" : true,
                "converter" : true,
                "import" : true,
                "community":{
                    "show": true
                },
                "reference" : {
                    "show": true
                }
            }
        },
        "directory" : {
            "results" : {
                "organizations" : {
                    "defaultImg" : "/images/filiereCostum/no-banner.jpg"
                },
                "projects" : {
                    "defaultImg" : "/images/filiereCostum/no-banner.jpg"
                },
                "events" : {
                    "defaultImg" : "/images/filiereCostum/no-banner.jpg"
                }
            },
            "preview" : true,
            "footer" : {
                "add" : false
            }
        },
        "footer" : {
            "url" : "costum.views.custom.costrasbourg2.footer"
        },
        "element" : {
            "tplCss":[
                "v1.0_pageProfil.css"
            ],
            "banner":"co2.views.element.bannerHorizontal",
            "containerClass":{
                "centralSection":"col-xs-12 col-lg-10 col-lg-offset-1"
            },
            "menuTop":{
                "class":"col-xs-12",
                "left":{
                    "class":"col-lg-3 col-md-3 col-sm-4 hidden-xs no-padding",
                    "buttonList":{
                        "imgUploader":true
                    }   
                },      
                "right":{
                    "class": "col-md-12 col-sm-12 col-lg-12 col-xs-12 text-center",
                    "buttonList":{
                        "xsMenu":{
                            "class":"visible-xs",
                            "buttonList":{
                                "detail":true,
                                "newspaper":true
                            }
                        },
                        "imgProfil":true,
                        "nameProfil":true,
                        "newspaper":true,
                        "detail":true,
                        "gallery":true,
                        "community":true,
                        "classifieds":true,
                        "events":true,
                        "projects":true,
                        "cospace":true,
                        "create":{
                            "class":"text-green-k visible-xs"
                        },
                        "chat":{
                            "class":"text-red visible-xs"
                        },
                        "share":true,
                        "params":{
                            "buttonList":{
                                "settings":true
                            }
                        }
                    }   
                }
            }
        }
    },
    "css" : {
        "urls" : [
            "index.css",
            "filters.css",
            "main.css"
        ],
        "loader" : {
            "background" : "white",
            "ring1" : {
                "color" : "#8ec641",
                "height" : 360,
                "width" : 360,
                "left" : -15,
                "borderWidth" : 4,
                "top" : -35
            },
            "ring2" : {
                "color" : "#669933",
                "height" : 350,
                "width" : 350,
                "left" : -10,
                "borderWidth" : 5,
                "top" : -30
            }
        },
        "progress" : {
            "value" : {
                "background" : "#8ec641"
            },
            "bar" : {
                "background" : "red"
            }
        },
        "menuTop" : {
            "background" : "#e2e2e2",
            "button" : {
                "paddingTop" : 900,
                "fontSize" : 25,
                "color" : "#71A516"
            },
            "badge" : {
                "background" : "#497614",
                "border" : "3px solid white"
            },
            "scopeBtn" : {
                "display" : "none"
            },
            "filterBtn" : {
                "display" : "none"
            },
            "connectBtn" : {
                "background" : "#8ec641",
                "color" : "white",
                "fontSize" : 18,
                "borderRadius" : 10,
                "padding" : "8px 15px"
            }
        },
        "menuApp" : {
            "top" : "55",
            "background" : "#f6f6f6",
            "button" : {
                "fontSize" : 25,
                "color" : "#41445c",
                "hover" : {
                    "borderBottom" : "2px solid #fff"
                }
            }
        },
        "button" : {
            "footer" : {
                "add" : {
                    "bottom" : 10,
                    "background" : "#71A516",
                    "color" : "white"
                },
                "toolbarAdds" : {
                    "bottom" : 10
                }
            }
        },
        "font" : {
            "url" : "/font/costrasbourg/Montserrat-Regular.ttf"
        },
        "fonts" : [
            {
                "url" : "/font/costrasbourg/Montserrat-Regular.ttf",
                "name" : "Montserrat-Regular"
            },
            {
                "url" : "/font/costrasbourg/Montserrat-Bold.ttf",
                "name" : "Montserrat-Bold"
            }
        ]
    },
    "app" : {
        "#welcome" : {
            "subdomainName" : "Accueil COStrasbourg"
        },
        "#search" : {
            "subdomainName" : "La carte",
            "icon" : "map-marker",
            "fitlerObj":"costum.views.custom.costrasbourg2.filters",
            "useFilter" : true,
            "showMap":true,
            "filters" : {
                "types" : [ 
                    "organizations"
                ]
            },
            "searchObject" : {
                "indexStep" : "0",
                "sourceKey": [
                    "costrasbourg2"
                ]  
            }
        },
        "#annonces" : {
            "hash" : "#app.search",
            "icon" : "bullhorn",
            "urlExtra" : "/page/annonce",
            "filterObj":"costum.views.custom.costrasbourg2.filters",
            "subdomainName" : "Annonce",
            "placeholderMainSearch" : "what are you looking for ?",
            "useHeader" : false,
            "useFilter" : true,
            "useFooter" : true,
            "filters" : {
                "types" : [
                    "classifieds"
                ]
            },
            "searchObject" : {
                "indexStep" : "0"
            }
        },
        "#live" : {
            "subdomainName" : "L'actualité",
            "slug" : "costrasbourg2",
            "viewMode" : "list",
            "useFilter" : false
        },
        "#projects" : {
            "hash" : "#app.search",
            "icon" : "lightbulb-o",
            "filterObj":"costum.views.custom.costrasbourg2.filters",
            "urlExtra" : "/page/projects",
            "useHeader" : false,
            "useFilter" : true,
            "useFooter" : true,
            "subdomainName" : "Groupe de travail",
            "filters" : {
                "types" : [ 
                    "projects"
                ]
            },
            "searchObject" : { "indexStep" : 10},
            "placeholderMainSearch" : "what are you looking for ?"
        },
        "#dda" : {
            "subdomainName" : "Démocratie",
            "filterObj":"costum.views.custom.costrasbourg2.filters",
            "placeholderMainSearch" : "Que cherchez vous ?",
            "icon":"gavel",
            "useFilter" : true
        },
        "#agenda" : {
            "subdomainName" : "L'agenda",
            "icon" : "calendar",
            "useFilter" : true
        }
    },
    "typeObj" : {
        "organizations" : {
            "add" : true,
            "color":"dark",
            "dynFormCostum" : {
                "beforeBuild":{
                    "properties":{
                        "type" : {
                            "inputType" : "select",
                            "label" : "Type",
                            "placeholder" : "Type de l'organisation",
                            "options" : {
                                "NGO" : "Association",
                                "LocalBusiness" : "Entreprise",
                                "Group" : "Groupe informel",
                                "Cooperative" : "Coopérative"
                            },
                            "groupOptions" : false,
                            "groupSelected" : false,
                            "optionsValueAsKey":true,
                            "rules" : {
                                "required" : true
                            }
                        },
                        "category" : {
                            "inputType" : "select",
                            "order":4,
                            "label" : "Services",
                            "placeholder" : "Choisir un services",
                            "list" : "services",
                            "groupOptions" : false,
                            "groupSelected" : true,
                            "optionsValueAsKey":true,
                            "rules" : {
                                "required" : true
                            },
                            "select2" : {
                                "multiple" : true
                            }
                        },
                        "community" : {
                            "inputType" : "select",
                            "order":5,
                            "label" : "Type de communauté",
                            "placeholder" : "Choisir le type du membre de la communauté",
                            "list" : "community",
                            "groupOptions" : false,
                            "groupSelected" : true,
                            "optionsValueAsKey":true,
                            "rules" : {
                                "required" : true
                            }
                        }
                    }
                }
            }
        },
        "event":{
            "add":true
        },
        "projects" : {
            "add" : true,
            "dynFormCostum" : {
                "beforeBuild" : {
                    "properties" : {
                        "avancement" : {
                            "inputType" : "select",
                            "label" : "État du projet",
                            "placeholder" : "État du projet",
                            "list" : "etat",
                            "groupOptions" : false,
                            "groupSelected" : false,
                            "optionsValueAsKey":true,    
                            "rules" : {
                                "required" : true
                            }
                        }
                    }
                }
            }
        },
        "classifieds" : {
            "add" : true,
            "dynFormCostum" : {
                "beforeBuild" : {
                    "properties" : {
                        "devise" : {
                            "inputType" : "select",
                            "label" : "Devise",
                            "placeholder" : "Devise",
                            "options" : {
                                "Ğ1" : "Ğ1",
                                "Stück" : "Stück",
                                "Temps" : "Temps",
                                "Aucune" : "Aucune" 
                            },
                            "groupOptions" : false,
                            "groupSelected" : false,
                            "optionsValueAsKey":true,
                            "rules" : {
                                "required" : true
                            }
                        }
                    }
                }
            }
        },
        "proposals" : {
            "add" : true,
            "dynFormCostum" : {
                "beforeBuild" : {
                    "properties" : {
                        "sourceProp" : {
                            "inputType" : "select",
                            "order" : 4,
                            "label" : "Proposition",
                            "placeholder" : "De qui émane cette proposition",
                            "list" : "proposition",
                            "groupOptions" : false,
                            "groupSelected" : false,
                            "optionsValueAsKey":true,
                            "rules" : {
                                "required" : true
                            }
                        }
                    }
                }
            }
        }
    },
    "lists":{
        "types":[
            "Association",
            "Groupe informel",
            "Coopérative",
            "Entreprise"
        ],
        "community" : [
            "Membre de l'assemblée citoyenne",
            "Éco-colocation",
            "Stück"
        ], 
        "services": [
            "Accepte affiches",
            "Accepte flyers", 
            "Codelico",
            "Accepte contenant"
        ],
        "money" : [
            "Ğ1",
            "Stück",
            "Temps",
            "Aucune"
        ],
        "help" : {
            "typeHelp" : {"key": "typehelp","icon": "cogs","label": "type aide",
                "subcat" : {
                    "benevolat" : {"key": "benevolat", "label": "Benevolat", "icon" :"cook"},
                    "material" : { "key": "material", "label": "Material", "icon" :"cook"},
                    "vente" : { "key": "vente", "label": "Vente", "icon" :"cook"},
                    "donate" : { "key": "donate","label": "Donate", "icon" :"cook"},
                    "ecolocation" : {"key": "ecolocation","label": "Ecolocation","icon" :"cook"}
                }
            } 
        },
        "sections" : {
            "need": { "label":"Need something", "labelFront" : "Needs", "key" : "need", "icon" : "angle-double-down"},
            "offer": {"label":"Offer something", "labelFront" : "Offers","key" : "offer","icon" : "angle-double-up"}
        },
        "type" : [
            "Bénévolat",
            "Prêt de matériel",
            "Vente",
            "Don",
            "Éco-colocation"
        ],
        "etat" : [
            "Idée",
            "Actif",
            "Archive"
        ],
        "proposition" : [
            "Ville ou Eurometropole",
            "Citoyen"
        ]
    }
}
