{
    "slug" : "deal",
    "welcomeTpl" : "costum.views.custom.deal.home",
    "favicon" : "/ico/deal/favicon.ico",
    "isTemplate" : true,
    "hasOpenForm" : true,
    "isMultiForms" : true,
    "sourceKey" : true,
    "forms" : true,
    "class" : {
        "function" : [  "getCheckCustomUser", "generateAnswerBeforeSave", "canAccessAnswer", "canEditAnswer", "canAdminAnswer" , "AnswerMailProcess"]
    },
    "js" : {
        "urls" : [ 
            "deal_index.js"
        ]
    },
    "admin" : {
        "email" : "admin@amelioreoutkaz.re"
    },
    "mailsConfig":{
        "logo" : "/images/deal/logo_ameliore_out_kaze_bleu.png",
        "invitation":{
            "tpl":"costum.views.custom.deal.invitation"
        }
    },
    "dynForm" : { 
        "jsonSchema" : { 
            "title" : "Template config", 
            "type" : "object", 
            "properties" : { 
                "title1" : { 
                    "label" : "Title 1", 
                    "path" : "costum.cms.title1" 
                }, 
                "subtitle1" : { 
                    "label" : "Sub Title 1", 
                    "path" : "costum.cms.subtitle1" 
                }, 
                "textIntro" : { 
                    "label" : "Text Intro", 
                    "inputType" : "textarea", 
                    "path" : "costum.cms.textIntro" 
                } 
            } 
        } 
    }, 
    "metaImg" : "this.profilBannerUrl",
    "logo" : "/images/deal/logo_ameliore_out_kaze_blanc.png",
    "logoMin" : "/images/deal/logo.png",
    "colors" : {
        "pink" : "#79B51C",
        "dark" : "#354C57",
        "grey" : "#f6f6f6"
    },
    "app":{ 
        "#welcome" : {
            "subdomainName" : "Accueil",
            "useMapBtn":false,
            "useFooter" : true
        },
        "#candidature" : {
            "module":"survey",
            "hash" : "#answer.new",
            "icon" : "",
            "subdomainName" : "Déposer une candidature",
            "useHeader":true,
            "useFooter":true,
            "useMapBtn":false
        },
        "#dossiers":{
            "icon" : "",
            "hash":"#app.view",
            "urlExtra" : "/page/dossiers/url/costum.views.custom.deal.dossiers",
            "useFilter" : true,
            "useFooter" : false,
            "subdomainName" : "Dossiers",
            "restricted" : {
                "members":true,
                "roles":["Opérateur", "Financeur"]
            },
            "placeholderMainSearch" : "what are you looking for ?"
        }
    },
    "css" : {
        "urls" : [ 
            "index.css"
        ],
        "styles" : {
            "#loadingPageImg" : {
                "left" : "15px",
                "position" : "relative"
            }
        },
        "loader" : {
            "background" : "white",
            "ring1" : {
                "color" : "#79B51C",
                "height" : 360,
                "width" : 360,
                "left" : -15,
                "borderWidth" : 4,
                "top" : -35
            },
            "ring2" : {
                "color" : "this.colors.dark",
                "height" : 350,
                "width" : 350,
                "left" : -10,
                "borderWidth" : 5,
                "top" : -30
            }
        },
        "progress" : {
            "value" : {
                "background" : "#79B51C"
            },
            "bar" : {
                "background" : "#fff"
            }
        },
        "menuTop" : {
            "background" : "white",
            "button" : {
                "paddingTop" : 0,
                "fontSize" : 30,
                "color" : "#676F78"
            },
            "app" : {
                "paddingLeft" : "30px",
                "button" : {
                    "fontSize" : 24,
                    "fontWeight" : 700,
                    "paddingBottom" : "0px",
                    "marginLeft" : "10px",
                    "color" : "#676F78"
                }
            },
            "badge" : {
                "background" : "this.colors.pink",
                "border" : "1px solid white"
            },
            "connectBtn" : {
                "background" : "this.colors.dark",
                "color" : "#79B51C",
                "fontSize" : 18,
                "borderRadius" : 10,
                "padding" : "8px 15px"
            }
        },
        "menuLeft" : {
            "background" : "#061f37",
            "button" : {
                "fontSize" : 20,
                "color" : "white",
                "hover" : {
                    "borderBottom" : "2px solid #fff"
                }
            }
        },
        "color" : {
            "green" : "#79B51C",
            "gray" : "#EAEEF2",
            "red" : "#d9534e",
            "purple" : "this.colors.pink",
            "dark":"#061f37"
        }
    },
    "htmlConstruct" : {
        "loadingModal" : {
            "logo" : "/images/deal/logo_ameliore_out_kaze_bleu.png"
        },
        "appRendering" : "vertical",
        "header" : {
            "menuTop" : {
                "addClass" : "pos-after-menu-left",
                "left" : {
                    "buttonList" : {
                        "xsMenu": {
                            "class": "visible-sm col-xs-12 text-white",
                            "label": "Menu",
                            "buttonList":{
                                "logo" : {
                                    "height" : 80
                                },
                                "userProfil" : {
                                    "dashboard":true,
                                    "class":"pull-left bg-white col-xs-11 col-xs-offset-1 no-padding",
                                    "view":"costum.views.custom.deal.accountModal",
                                    "label" : "Tableau de bord",
                                    "tooltips":"Tableau de bord"
                                },
                                "app" : {
                                    "label" : true,
                                    "icon" : false,
                                    "tooltips" : false,
                                    "buttonList":{
                                        "#candidature":true,
                                        "#dossiers":true,
                                        "#dashboard":true
                                    }
                                },
                                "login" : true
                            }
                        }
                    }
                },
                "right" : {
                    "buttonList":{
                    
                    }
                }
            }
        },
        "menuLeft" : {
            "addClass": "pos-top-0 fit-content padding-top-20",
            "buttonList":{
                "logo" : {
                    "aClass" : "lbh menu-btn-top col-xs-12 padding-bottom-20",
                    "height" : 140
                },
                "userProfil" : {
                    "dashboard":true,
                    "view":"costum.views.custom.deal.accountModal",
                    "tooltips":false,
                    "class": "pull-left bg-white col-xs-11 col-xs-offset-1 no-padding",
                    "label" : "Tableau de bord"
                },
                "app" : {
                    "label" : true,
                    "labelClass": "elipsis",
                    "icon" : false,
                    "spanTooltip":false,
                    "buttonList":{
                        "#candidature":true,
                        "#dossiers":true,
                        "#dashboard":true
                    }
                },
                "login" : true
            }
        },
        "element" : {
            "initView" : "detail",
            "banner" : {
                "headerInfos": "costum.views.custom.deal.headerInfos"
            },
            "menuLeft" : {
                "buttonList":{
                    "answerInvitation":true,
                    "invite":true
                }
            },     
            "menuTop" : {
                "class":"col-xs-12",
                "left" : {
                    "class":"col-lg-3 col-md-3 col-sm-4 hidden-xs no-padding",
                    "buttonList" : {
                        "imgUploader":true,
                        "imgProfil":true
                    }
                },
                "right":{
                    "class":"col-lg-9 col-lg-offset-3 col-md-9 col-md-offset-3 col-sm-9 col-sm-offset-3 hidden-xs no-padding",
                    "buttonList" : {
                        "xsMenu" : {
                            "label":"Menu",
                            "buttonList" : {
                                "detail" : true,
                                "community" : true,
                                "gallery" : false,
                                "events" : false,
                                "classifieds" : false,
                                "newspaper" : false,
                                "chat":false,
                                "create":false
                            }
                        },
                        "detail" : true,
                        "community" : true                      
                    }
                }
            }
        },
        "adminPanel" : {
            "js":true,
            "add" : false,
            "menu" : {
                "directory" : true,
                "community" : {
                    "show" : true
                },
                "form":{
                    "label" : "Edition du formulaire",
                    "class" : "text-dark",
                    "view" : "openform",
                    "icon" : "pencil"
                },
                "listforms":{
                    "label" : "Gestion des formulaires",
                    "class" : "text-dark",
                    "view" : "listforms",
                    "icon" : "list"
                },
                "candidatures" : {
                    "label" : "Candidatures",
                    "class" : "text-purple",
                    "view" : "candidatures",
                    "roles":["Financeur"],
                    "icon" : "arrow-right"
                },
                "mails":true,
                "importZourit" : {
                    "label" : "Import Zourit",
                    "class" : "text-blue",
                    "view" : "importZourit",
                    "icon" : "list"
                }
            }
        },
        "directoryViewMode" : "block",
        "directory" : {
            "header" : {
                "map" : false,
                "viewMode" : false,
                "add" : {
                    "proposals" : true
                }
            }
        },
        "footer" : {
            "url" : "costum.views.custom.deal.footer"
        },
        "redirect" : {
            "logged" : "welcome",
            "unlogged" : "welcome"
        }
    },
    "roles":[
        "Financeur",
        "Opérateur"
    ],
    "searchOpenMenu" : [ 
        {
            "url" : "#search",
            "msg" : "Tous les COnstructeurs"
        }
    ]

}