{
    "welcomeTpl" : "costum.views.custom.filiereCostum.home",
    "sourceKey" : true,
    "isTemplate" : true,
    "slug" : "filiereCostum",
    "favicon" : "/ico/filiereCostum/default.ico",
    "metaImg" : "/images/filiereCostum/filiere.png",
    "shortDescription" : "Testez notre costum qui se base sur le design des filières avec la possibilité de modulé ces app à sa guise",
    "name" : "Filière générique",
    "filters" : {
        "sourceKey" : true
    },
    "js" : {
        "urls" : [ 
            "filierecostum_index.js"
        ]
    },
    "dynForm" : {
        "jsonSchema" : {
            "title" : "Template config",
            "type" : "object",
            "properties" : {
                "text1" : {
                    "label" : "Text 1",
                    "inputType" : "textarea",
                    "path" : "costum.text1"
                },
                "logoMin" : {
                    "label" : "Image Logo",
                    "inputType" : "text",
                    "path" : "costum.logoMin"
                },
                "elementBanner" : {
                    "label" : "Image Banière",
                    "inputType" : "image",
                    "path" : "costum.elementBanner"
                },
                "color1" : {
                    "label" : "Couleur 1",
                    "inputType" : "colorpicker",
                    "path" : "costum.colors.pink"
                },
                "color2" : {
                    "label" : "Couleur 2",
                    "inputType" : "colorpicker",
                    "path" : "costum.colors.dark"
                },
                "typeObj" : {
                    "label" : "Selectionnez les éléments qui peuvent etre ajouter",
                    "inputType" : "select",
                    "placeholder" : "---- Things that can be added ----",
                    "options" : {
                        "poi" : "Point of Interests",
                        "organization" : "Organization",
                        "project" : "projects",
                        "event" : "Events",
                        "person" : "People",
                        "proposal" : "Proposals"
                    },
                    "path" : "costum.slug"
                },
                "menuApp" : {
                    "label" : "Selectionnez les modules qui peuvent etre ajouter",
                    "inputType" : "select",
                    "placeholder" : "---- Active Modules ----",
                    "options" : {
                        "search" : "Search",
                        "agenda" : "Agenda"
                    },
                    "path" : "costum.slug"
                }
            }
        }
    },
    "appMenusPath":[
        "header.menuTop.center.buttonList.app",
        "header.menuTop.center.buttonList.xsMenu.buttonList.app"
    ],
    "htmlConstruct" : {
        "appRendering" : "vertical",
        "redirect" : {
            "logged" : "welcome",
            "unlogged" : "welcome"
        },
        "header" : {
            "menuTop" : {
                "left" : {
                    "class" : "col-sm-5 col-lg-5 text-center",
                    "buttonList" : {
                        "logo" : {
                            "height" : 40
                        },
                        "searchBar" : true
                    }
                },
                "center" : {
                    "class":"text-right col-sm-5 col-lg-5 menu-center-app hidden-xs",
                    "menu":true,
                    "buttonList":{
                        "xsMenu" : {
                            "buttonList" : {
                                "app" :{
                                    "icon" : true,
                                    "label" :true,
                                    "labelClass" :"nameMenuTop",
                                    "class": "pull-right hidden-xs padding-5",
                                    "buttonList":{

                                    } 
                                }
                            }
                        },
                        "app" : {
                            "icon" : true,
                            "label" :true,
                            "labelClass" :"nameMenuTop",
                            "class": "pull-right hidden-xs padding-5",
                            "buttonList":{

                            }
                        }
                    }
                },
                "right" : {
                    "buttonList" : {
                        "userProfil" : {
                            "img" : true
                        },
                        "dropdown" : {
                            "connected" :true,
                            "buttonList" : {
                                "admin" : true,
                                "settings" : true,
                                "logout" : true
                            }
                        },
                        "login" : true
                    }
                }
            },
            "logo" : "",
            "bannerImg" : "this.profilRealBannerUrl"
        },
        "footer" : false,
        "directory" : {
            "results" : {
                "organizations" : {
                    "defaultImg" : "/images/filiereCostum/no-banner.jpg"
                },
                "projects" : {
                    "defaultImg" : "/images/filiereCostum/no-banner.jpg"
                },
                "events" : {
                    "defaultImg" : "/images/filiereCostum/no-banner.jpg"
                }
            },
            "footer" : {
                "add" : false
            }
        },
        "adminPanel" : {
            "add" : true,
            "statistic" : true,
            "directory" : true,
            "community":{"show":true},
            "reference" : {"show":true}
        },
        "element" : {
            "initView" : "detail",
            "menuLeft" : {
                "detail" : true,
                "gallery" : true,
                "community" : true
            },
            "menuTop" : {
                "img" : true,
                "btnGroup" : {
                    "imgProfil" : true,
                    "nameProfil" : true,
                    "newspaper" : false,
                    "cospace" : false,
                    "chat" : false,
                    "create" : false,
                    "params" : {
                        "dropdown" : true
                    }
                },
                "navRight" : {
                    "connected" : {
                        "dropdownUser" : {
                            "languages" : true,
                            "statistics" : false,
                            "documentation" : false,
                            "donate" : false,
                            "admin" : true,
                            "settings" : false,
                            "logout" : true
                        },
                        "userProfil" : {
                            "img" : true
                        },
                        "networkFloop" : false,
                        "notifications" : true,
                        "dda" : false,
                        "chat" : false,
                        "home" : false,
                        "app" : false
                    },
                    "disconnected" : {
                        "languages" : false,
                        "login" : true,
                        "app" : true
                    }
                }
            },
            "intro" : {
                "title" : "Bienvenue dans le CostumPersonnaliser",
                "left" : {
                    "title" : "Carto/Annuaire",
                    "paragraphe" : "Toutes les informations sont récupérés depuis le fichier json dans la partie element"
                },
                "right" : {
                    "img" : "/images/coeurNumerique/element/carto.png"
                }
            },
            "description" : {
                "left" : {
                    "title" : "",
                    "paragraphe" : "Vous pouvez modifier les couleurs dans la partis css, c'est simple"
                },
                "right" : {
                    "img" : "/images/smarterre/cercle1.jpg"
                }
            },
            "actu" : {
                "active" : true,
                "title" : "Actualité"
            },
            "agenda" : {
                "active" : true,
                "title" : "Agenda",
                "caroussel" : true
            }
        }
    },
    "css" : {
        "loader" : {
            "background" : "white",
            "ring1" : {
                "color" : "#94c11f",
                "height" : 360,
                "width" : 360,
                "left" : -15,
                "borderWidth" : 4,
                "top" : -35
            },
            "ring2" : {
                "color" : "#c7d301",
                "height" : 350,
                "width" : 350,
                "left" : -10,
                "borderWidth" : 5,
                "top" : -30
            }
        },
        "progress" : {
            "value" : {
                "background" : "#313757"
            },
            "bar" : {
                "background" : "red"
            }
        },
        "menuTop" : {
            "background" : "#e2e2e1",
            "button" : {
                "paddingTop" : 900,
                "fontSize" : 25,
                "color" : "#c8d400"
            },
            "badge" : {
                "background" : "#497614",
                "border" : "100px solid white"
            },
            "scopeBtn" : {
                "display" : "none"
            },
            "filterBtn" : {
                "display" : "none"
            },
            "connectBtn" : {
                "background" : "#c8d400",
                "color" : "white",
                "fontSize" : 18,
                "borderRadius" : 10,
                "padding" : "8px 15px"
            }
        },
        "menuApp" : {
            "top" : "60",
            "background" : "#f6f6f6",
            "button" : {
                "fontSize" : 25,
                "color" : "#41445c",
                "hover" : {
                    "borderBottom" : "2px solid #fff"
                }
            }
        },
        "button" : {
            "footer" : {
                "add" : {
                    "bottom" : 25,
                    "background" : "transparent",
                    "color" : "black"
                },
                "toolbarAdds" : {
                    "bottom" : 30
                }
            }
        },
        "urls" : [
            "../filiereCostum/index.css"
        ],
        "header" : {
            "background" : "#97bf1e"
        },
        "footer" : {
            "background" : "#91a926",
            "color" : "white"
        }
    },
    "app" : {
        "#welcome" : {
            "hash" : "#app.welcome",
            "subdomainName" : "Accueil Fillière Numérique"
        },
        "#search" : {
            "hash" : "#app.search",
            "icon" : "search",
            "urlExtra" : "/page/annuaire",
            "img" : "/images/filiereEnergie/menu/annuaire.svg",
            "nameMenuTop" : "Annuaire",
            "subdomainName" : "",
            "class" : "Annuaire",
            "placeholderMainSearch" : "what are you looking for ?",
            "inMenu":true,
            "useHeader" : false,
            "useFilter" : true,
            "useFooter" : true,
            "filters" : {
                "types" : [ 
                    "organizations",
                    "events",
                    "projects"
                ]
            },
            "searchObject" : {
                "indexStep" : "0"
            }
        },
        "#live" : {
            "subdomainName" : "",
            "class" : "Annuaire",
            "slug" : "filiereEnergie",
            "img" : "/images/filiereEnergie/menu/actus.svg",
            "nameMenuTop" : "Actus",
            "formCreate" : false,
            "useFilter" : false,
            "inMenu" : true,
            "viewMode" : "list"
        },
        "#agenda" : {
            "subdomainName" : "",
            "class" : "Agenda",
            "inMenu" : true,
            "img" : "/images/filiereEnergie/menu/agenda.svg",
            "nameMenuTop" : "Agenda"
        },
        "#map" : {
            "icon" : "map-marker",
            "inMenu" : true,
            "urlExtra" : "/page/maps",
            "img" : "/images/filiereEnergie/menu/carto.svg",
            "nameMenuTop" : "Carto",
            "subdomainName" : "",
            "useFilter" : true,
            "useFooter" : false,
            "useHeader" : true,
            "inMenuLeft" : false,
            "filters" : {
                "types" : [ 
                    "organizations",
                    "events"
                ]
            },
            "searchObject" : {
                "indexStep" : "0"
            }
        },
        "#dda" : {
            "subdomainName" : "Sondage",
            "placeholderMainSearch" : "Que cherchez vous ?",
            "inMenu" : false,
            "showInviteBtn":false,
            "showAmendmentBlock":false,
            "showExternLinkBlock":false
        }
    },
    "menuBottom" : {
        "add" : true
    },
    "typeObj" : {
        "events" : {
            "add" : true
        },
        "projects" : {
            "add" : true
        },
        "organizations" : {
            "add" : true
        }
    }
}
