{
    "welcomeTpl" : "costum.views.custom.filiereNumerique.home",
    "name" : "Filiere Numerique Mada",
    "sourceKey" : true,
    "slug" : "filierenumerique",
    "favicon" : "/images/filiereNumerique/logo.png",
    "metaImg" : "/images/filiereNumerique/mada-background.jpg",
    "logoMin" : "/images/filiereNumerique/logo.png",
    "logo" : "/images/filiereNumerique/logo.png",
    "js" : {
        "urls" : [ 
            "/jquery.simpleLoadMore.min.js"
        ]
    },
    "filters" : {
        "sourceKey" : true
    },
    "htmlConstruct" : {
        "appRendering" : "horizontal",
        "redirect" : {
            "logged" : "welcome",
            "unlogged" : "welcome"
        },
        "header" : {
            "menuTop" : {
                "left" : {
                    "buttonList" : {
                        "searchBar" : {
                            "class" : "pull-left margin-top-5 margin-left-15 hidden-xs"
                        }
                    }
                },
                "right" : {
                    "addClass" : "margin-top-5",
                    "buttonList" : {
                        "login" : true,
                        "userProfil" : {
                            "img" : true,
                            "name" : true,
                            "dashboard": true
                        }
                    }
                }
            }
        },
        "menuLeft" : {
            "addClass" : "bg-default align-middle",
            "buttonList" : {
                "app" : {
                    "buttonList" : {
                        "#filiere" : true,
                        "#live" : true,
                        "#agenda" : true,
                        "#search" : true
                    }
                },
                "add" : true
            }
        },
        "adminPanel" : {
            "add" : true,
            "menu" : {
                "directory" : true,
                "statistic" : true,
                "converter" : true,
                "import" : true,
                "community" : {
                    "show" : true
                },
                "reference" : {
                    "show" : true
                }
            }
        },
        "directoryViewMode" : "block",
        "directory" : {
            "header" : {
                "map" : false,
                "viewMode" : false,
                "add" : false
            },
            "preview" : true,
            "results" : {
                "projets" : {
                    "defaultImg" : "/images/mednumRhoneAlpe/lightbulb.svg"
                },
                "events" : {
                    "defaultImg" : "/images/mednumRhoneAlpe/lightbulb.svg"
                }
            },
            "footer" : {
                "add" : true
            }
        },
        "element" : {
            "js" : "pageProfil.js",
            "css" : "pageProfil.css",
            "initView" : "detail",
            "banner" : {
                "img" : "/images/coeurNumerique/banner.jpg",
                "preferences" : true,
                "editButton" : {
                    "dynform" : true
                }
            },
            "menuLeft" : {
                "detail" : true,
                "gallery" : true,
                "events" : true,
                "projects" : false,
                "community" : true,
                "collections" : {
                    "label" : "Favoris",
                    "icon" : "star",
                    "class" : "",
                    "separator" : true,
                    "view" : "directory",
                    "dataAttr" : {
                        "dir" : "collections",
                        "icon" : "star"
                    },
                    "typeAllow" : [ 
                        "citoyens"
                    ]
                }
            },
            "menuTop" : {
                "img" : true,
                "btnGroup" : {
                    "imgProfil" : true,
                    "nameProfil" : true,
                    "newspaper" : true,
                    "cospace" : false,
                    "chat" : false,
                    "create" : false,
                    "params" : {
                        "dropdown" : true
                    }
                },
                "navRight" : {
                    "connected" : {
                        "dropdownUser" : {
                            "languages" : true,
                            "statistics" : false,
                            "documentation" : false,
                            "donate" : false,
                            "admin" : true,
                            "settings" : false,
                            "logout" : true
                        },
                        "userProfil" : {
                            "img" : true
                        },
                        "networkFloop" : false,
                        "notifications" : true,
                        "chat" : false,
                        "home" : false,
                        "app" : false
                    },
                    "disconnected" : {
                        "languages" : false,
                        "login" : true,
                        "app" : true
                    }
                }
            }
        },
        "menuBottom" : {
            "add" : true
        }
    },
    "css" : {
        "loader" : {
            "background" : "white",
            "ring1" : {
                "color" : "#6abea2",
                "height" : 360,
                "width" : 360,
                "left" : -15,
                "borderWidth" : 4,
                "top" : -35
            },
            "ring2" : {
                "color" : "#313757",
                "height" : 350,
                "width" : 350,
                "left" : -10,
                "borderWidth" : 5,
                "top" : -30
            }
        },
        "progress" : {
            "value" : {
                "background" : "#313757"
            },
            "bar" : {
                "background" : "red"
            }
        },
        "menuTop" : {
            "background" : "#e2e2e2",
            "button" : {
                "paddingTop" : 900,
                "fontSize" : 25,
                "color" : "#00aca9"
            },
            "badge" : {
                "background" : "#497614",
                "border" : "3px solid white"
            },
            "scopeBtn" : {
                "display" : "none"
            },
            "filterBtn" : {
                "display" : "none"
            },
            "connectBtn" : {
                "background" : "#313757",
                "color" : "white",
                "fontSize" : 18,
                "borderRadius" : 10,
                "padding" : "8px 15px"
            }
        },
        "menuApp" : {
            "top" : "55",
            "background" : "#f6f6f6",
            "button" : {
                "fontSize" : 25,
                "color" : "#41445c",
                "hover" : {
                    "borderBottom" : "2px solid #fff"
                }
            }
        },
        "button" : {
            "footer" : {
                "add" : {
                    "bottom" : 10,
                    "background" : "#00aca9",
                    "color" : "white"
                },
                "toolbarAdds" : {
                    "bottom" : 10
                }
            }
        },
        "color" : {
            "blue" : "#41435b",
            "bg-green" : "#00aca9"
        },
        "urls" : [ 
            "index.css", 
            "main.css", 
            "filters.css"
        ],
        "font" : {
            "url" : "/font/coeurNumerique/SharpSansNo1-Medium.ttf"
        },
        "menuRight" : {
            "img" : {
                "chat" : "/images/coeurNumerique/icon/chat.svg",
                "notifications" : "/images/coeurNumerique/icon/notif.svg",
                "networkFloop" : "/images/coeurNumerique/icon/people.svg"
            }
        }
    },
    "app" : {
        "#welcome" : {
            "subdomainName" : "Accueil Fillière Numérique"
        },
        "#search" : {
            "hash" : "#app.search",
            "subdomainName" : "CARTO",
            "urlExtra" : "page/search",
            "filterObj" : "costum.views.custom.filiereNumerique.filters",
            "img" : "/images/coeurNumerique/icon/carto.svg",
            "icon" : "map-marker",
            "showMap" : true,
            "placeholderMainSearch" : "Map",
            "filters" : {
                "types" : [ 
                    "organizations", 
                    "events"
                ]
            }
        },
        "#filiere" : {
            "hash" : "#app.search",
            "icon" : "search",
            "filterObj" : "costum.views.custom.filiereNumerique.filters",
            "urlExtra" : "/page/filiere",
            "img" : "/images/coeurNumerique/icon/annuaire.svg",
            "subdomainName" : "ANNUAIRE",
            "placeholderMainSearch" : "what are you looking for ?",
            "useFilter" : true,
            "useFooter" : true,
            "filters" : {
                "types" : [ 
                    "organizations",
                    "citoyens"
                ]
            },
            "searchObject" : {
                "indexStep" : "0"
            }
        },
        "#Etudiant" : {
            "hash" : "#app.search",
            "icon" : "search",
            "filterObj" : "costum.views.custom.filiereNumerique.filters",
            "urlExtra" : "/page/Etudiant",
            "subdomainName" : "Tous les acteurs étudiants",
            "placeholderMainSearch" : "what are you looking for ?",
            "useHeader" : false,
            "useFilter" : true,
            "useFooter" : true,
            "filters" : {
                "types" : [ 
                    "organizations"
                ]
            },
            "searchObject" : {
                "indexStep" : "0"
            }
        },
        "#live" : {
            "subdomainName" : "ACTUS",
            "slug" : "filierenumerique",
            "formCreate" : false,
            "useFilter" : false,
            "viewMode" : "list"
        },
        "#agenda" : {
            "subdomainName" : "AGENDA",
            "nameMenuTop" : "Agenda"
        }
    },
    "typeObj" : {
        "organization" : {
            "add" : true,
            "dynFormCostum" : {
                "beforeBuild" : {
                    "properties" : {
                        "type" : {
                            "placeholder" : "Type d'organisation",
                            "inputType" : "select",
                            "label" : "Type d'organisation",
                            "labelInformation" : "test",
                            "options" : {
                                "NGO" : "Association",
                                "LocalBusiness" : "Entreprise",
                                "GovernmentOrganization" : "Service Public",
                                "Group" : "Autre"
                            },
                            "groupOptions" : false,
                            "groupSelected" : false,
                            "optionsValueAsKey" : true,
                            "select2" : {
                                "multiple" : true
                            }
                        },
                        "category" : {
                            "placeholder" : "Identifiez-vous à un acteur",
                            "inputType" : "select",
                            "label" : "Catégorie d'acteur*",
                            "order" : 5,
                            "labelInformation" : "test",
                            "options" : {
                                "Producteur" : "Producteur (développeur, webdesigner, architecte, etc.)",
                                "Formateur" : "Formateur (institut de formation)",
                                "Strategie" : "Institution publique",
                                "Consommateur" : "Consommateur (entreprises, associations)"
                            }
                        }
                    }
                }
            }
        },
        "event" : {
            "add" : true,
            "dynFormCostum" : {
                "beforeBuild" : {
                    "properties" : {
                        "organizer" : {
                            "inputType" : "finder",
                            "id" : "organizer",
                            "label" : "Qui organise cet événement",
                            "initMe" : false,
                            "placeholder" : "Sélectionner une organisation",
                            "rules" : {
                                "required" : false,
                                "lengthMin" : [ 
                                    1, 
                                    "parent"
                                ]
                            },
                            "initType" : [ 
                                "organizations"
                            ],
                            "openSearch" : true
                        },
                        "parent" : {
                            "inputType" : "finder",
                            "id" : "parent",
                            "label" : "Fait parti d'un événement",
                            "initMe" : false,
                            "placeholder" : "Sélectionner un élément parent",
                            "rules" : {
                                "required" : false,
                                "lengthMin" : [ 
                                    1, 
                                    "parent"
                                ]
                            },
                            "initType" : [ 
                                "events"
                            ],
                            "openSearch" : true
                        }
                    }
                }
            }
        },
        "projects" : {
            "add" : true,
            "dynFormCostum" : {
                "beforeBuild" : {
                    "properties" : {
                        "parent" : {
                            "inputType" : "finder",
                            "id" : "parent",
                            "label" : "Qui porte le projet",
                            "initMe" : false,
                            "placeholder" : "Sélectionner une organisation/projet",
                            "rules" : {
                                "required" : false,
                                "lengthMin" : [ 
                                    1, 
                                    "parent"
                                ]
                            },
                            "initType" : [ 
                                "organizations", 
                                "projects"
                            ],
                            "openSearch" : true
                        }
                    }
                }
            }
        },
        "badge" : {
            "add" : "onlyAdmin",
            "explainText" : "",
            "dynFormCostum" : {
                "beforeBuild" : {
                    "properties" : {
                        "info" : {
                            "inputType" : "custom",
                            "order" : 1,
                            "html" : "<p><i class='fa fa-info-circle'></i> Proposer un badge pour la barre recherche</p>"
                        },
                        "category" : {
                            "inputType" : "select",
                            "label" : "Catégorie du badge",
                            "order" : 2,
                            "placeholder" : "Sélectionner une catégorie",
                            "options" : {
                                "domainAction" : "Recherche par "
                            },
                            "rules" : {
                                "required" : true
                            }
                        },
                        "parent" : {
                            "inputType" : "finder",
                            "label" : "Ajouter un badge parent",
                            "initMe" : false,
                            "placeholder" : "Rechercher un badge existant",
                            "rules" : {
                                "required" : false,
                                "lengthMin" : [ 
                                    1, 
                                    "parent"
                                ]
                            },
                            "initType" : [ 
                                "badges"
                            ],
                            "openSearch" : true
                        },
                        "name" : {
                            "label" : "Titre du badge",
                            "order" : 3,
                            "placeholder" : "Titre du badge"
                        },
                        "icon" : {
                            "order" : 8
                        },
                        "color" : {
                            "order" : 9
                        }
                    }
                },
                "onload" : {
                    "actions" : {
                        "setTitle" : "Proposer un badge pour la barre de recherche",
                        "hide" : {
                            "tagstags" : 1,
                            "structagstags" : 1,
                            "icontext" : 1,
                            "colortext" : 1
                        },
                        "presetValue" : {
                            "tags" : {
                                "value" : "",
                                "forced" : true
                            }
                        }
                    }
                }
            }
        }
    },
    "lists" : {
        "domainAction" : {
            "type" : "badges",
            "category" : "domainAction",
            "sourceKey" : true
        }
    }
}