{
    "slug" : "jsonEditor",
    "welcomeTpl" : "costum.views.custom.jsonEditor.home",
"favicon" : "",

    "dynForm" : {
        "jsonSchema" : {
            "title" : "Template config",
            "type" : "object"
        }
    },

    "css" : {
        "urls" : [ 
            "jsonEditor_index.css", 
            "aos.css"
        ],
        "loader" : {
            "background" : "white",
            "ring1" : {
                "color" : "#3a8037",
                "height" : 360,
                "width" : 360,
                "left" : -15,
                "borderWidth" : 4,
                "top" : -35
            },
            "ring2" : {
                "color" : "#f8904a",
                "height" : 350,
                "width" : 350,
                "left" : -10,
                "borderWidth" : 5,
                "top" : -30
            }
        },
        "progress" : {
            "value" : {
                "background" : "#3a8037"
            },
            "bar" : {
                "background" : "#fff"
            }
        },
        "menuTop" : {
            "background" : "white",
            "boxShadow" : "1px 1px 1px #ddd",
            "app" : {
                "button" : {
                    "fontSize" : 24,
                    "fontWeight" :"bold",
                    "textTransform" : "capitalize",
                    "color" : "black"
                }
            },
            "button" : {
                "paddingTop" : 0,
                "fontSize" : 30,
                "color" : "#5b2649"
            },
            "scopeBtn" : {
                "color" : "#5b2649"
            },
            "filterBtn" : {
                "color" : "#red"
            },
            "badge" : {
                "background" : "#5b2649",
                "border" : "50px solid white"
            },
            "connectBtn" : {
                "background" : "red",
                "color" : "green",
                "fontSize" : 18,
                "borderRadius" : 0,
                "padding" : "8px 15px"
            }
        },
        "menuApp" : {
            "background" : "#3a8037",
            "button" : {
                "fontSize" : 900,
                "color" : "#008037",
                "hover" : {
                    "borderBottom" : "90px solid red"
                }
            }
        },
        "button" : {
            "footer" : {
                "add" : {
                    "paddingLeft" : "10px",
                    "fontSize" : 30,
                    "bottom" : 1000,
                    "background" : "transparent",
                    "color" : "#098048"
                },
                "toolbarAdds" : {
                    "bottom" : 10,
                    "paddingLeft" : "40px",
                    "fontSize" : 50,
                    "left" : "0"
                }
            }
        }
    },
    
    "app" : {
    },

    "htmlConstruct" : {
        "adminPanel" : {
            "js" : true,
            "add" : true
        },
        "directoryViewMode" : "block",
        "footer" : {
            "url" : "costum.views.custom.jsonEditor.footer"
        },
        "redirect" : {
            "logged" : "welcome",
            "unlogged" : "welcome"
        }
    },
    "typeObj" : {
    },
    "filters" : {
        "sourceKey" : true
    }
}