{
    "slug" : "laSagePitrerie",
    "welcomeTpl" : "costum.views.custom.laSagePitrerie.home",
    "sourceKey" : true,
    "favicon" : "/ico/pactePourLaTransition/favicon.ico",
    "metaImg" : "/images/pactePourLaTransition/banner_ctc.png",
    "metaTitle" : "Pacte pour la transition",
    "logoMin" : "/images/pactePourLaTransition/logo-min.png",
    "admin" : {
        "email" : "ciedubourdon@gmail.com"
    },
    "js" : {
        "urls" : [ 
            "index.js"
        ]
    },
    "css" : {
        "urls" : [ 
            "index.css"
        ],
        "font" : {
            "url" : "/font/pactePourLaTransition/fengardoneue_regular-webfont.ttf"
        },
        "loader" : {
            "background" : "#393d40",
            "ring1" : {
                "color" : "#eda638",
                "height" : 360,
                "width" : 360,
                "left" : -15,
                "borderWidth" : 4,
                "top" : -35
            },
            "ring2" : {
                "color" : "#d45045",
                "height" : 350,
                "width" : 350,
                "left" : -10,
                "borderWidth" : 5,
                "top" : -30
            }
        },
        "progress" : {
            "value" : {
                "background" : "#d45045"
            },
            "bar" : {
                "background" : "#fff"
            }
        },
        "menuTop" : {
            "background" : "#353d41",
            "boxShadow" : "1px 1px 3px #ddd",
            "logo" : {
                "height" : 100
            },
            "app" : {
                "paddingLeft" : "30px",
                "button" : {
                    "fontSize" : 24,
                    "fontWeight" : 800,
                    "paddingBottom" : "0px",
                    "marginLeft" : "10px",
                    "textTransform" : "capitalize",
                    "color" : "#e3d8a8"
                }
            },
            "button" : {
                "paddingTop" : 0,
                "fontSize" : 30,
                "color" : "#e3d8a8"
            },
            "scopeBtn" : {
                "color" : "#5b2649"
            },
            "filterBtn" : {
                "color" : "#5b2649"
            },
            "badge" : {
                "background" : "#e3d8a8",
                "border" : "1px solid white"
            },
            "connectBtn" : {
                "background" : "#5b2649",
                "color" : "white",
                "fontSize" : 18,
                "borderRadius" : 10,
                "padding" : "8px 15px"
            }
        },
        "menuApp" : {
            "background" : "#5b2649",
            "button" : {
                "fontSize" : 25,
                "color" : "#fff",
                "hover" : {
                    "borderBottom" : "2px solid #fff"
                }
            }
        },
        "button" : {
            "footer" : {
                "add" : {
                    "bottom" : 60,
                    "background" : "transparent",
                    "color" : "white"
                },
                "toolbarAdds" : {
                    "bottom" : 50
                }
            }
        },
        "color" : {
            "purple" : "#5b2649",
            "blue" : "#0091c6",
            "orange" : "#fea621"
        }
    },
    "htmlConstruct" : {
        "appRendering" : "horizontal",
        "header" : {
            "menuTop" : {
                "navLeft" : {
                    "logo" : {
                        "height" : 100
                    },
                    "app" : {
                        "label" : true,
                        "icon" : false,
                        "tooltips" : false
                    },
                    "searchBar" : false,
                    "useFilter" : {
                        "scopeFilter" : false,
                        "showFilter" : false
                    }
                },
                "navRight" : {
                    "connected" : {
                        "dropdownUser" : {
                            "languages" : false,
                            "statistics" : false,
                            "documentation" : false,
                            "donate" : false,
                            "admin" : true,
                            "settings" : false,
                            "logout" : true
                        },
                        "userProfil" : {
                            "img" : false,
                            "name" : false
                        },
                        "networkFloop" : false,
                        "notifications" : false,
                        "dda" : false,
                        "chat" : false,
                        "home" : false
                    },
                    "disconnected" : {
                        "app" : {
                            "label" : true,
                            "icon" : false,
                            "tooltips" : false
                        },
                        "languages" : false,
                        "login" : false
                    }
                }
            }
        },
        "subMenu" : false,
        "menuBottom" : {
            "add" : false,
            "donate" : false
        },
        "adminPanel" : {
            "js":true,
            "add" : true,
            "menu":{
                "statistic" : true,
                "directory" : true,
                "community" : {"show":true},
                "groupe" : {
                    "label" : "Collectifs locaux",
                    "costumAdmin" : true,
                    "class" : "text-dark",
                    "icon" : "group",
                    "view":"collectifLocaux"
                },
                "reference" : {
                    "show":true,
                    "initType" : [ 
                        "organizations"
                    ]
                },
                "importcontrat" : {
                    "label": "Import des contrats",
                    "icon" : "upload",
                    "view" : "importcontrat",
                    "class" : "text-blue"
                },
                "exportcandidat" : {
                    "label": "Export des candidats",
                    "icon" : "download",
                    "view" : "exportcandidat",
                    "action" : true,
                    "class" : "text-green-k"
                },
                "mails":true
            }
        },
        "preview": {
            "poi" : "costum.views.custom.siteDuPactePourLaTransition.preview"
        },
        "directoryViewMode" : "block",
        "directory" : {
            "filters" : {
                "tagsList" : true
            },
            "header" : false,
            "results" : {
                "proposals" : {
                    "defaultImg" : "/images/pactePourLaTransition/default_directory.png"
                },
                "organizations" : {
                    "defaultImg" : "/images/pactePourLaTransition/default_directory.png"
                }
            },
            "footer" : {
                "add" : false
            }
        },
        "redirect" : {
            "logged" : "home",
            "unlogged" : "home"
        }
    },
    "app" : {
        "#home" : {
            "hash" : "#app.welcome",
            "useHeader" : true,
            "useFooter" : false,
            "useFilter" : false,
            "inMenu" : true,
            "icon":"",
            "subdomainName" : "la Sage Pitrerie"
        },
        "#ciebourdon" : {
            "hash" : "#app.view",
            "icon" : "",
            "urlExtra" : "/page/cieBourdon/url/costum.views.custom.laSagePitrerie.cieBourdon",
            "useHeader" : true,
            "useFooter" : false,
            "useFilter" : false,
            "inMenu" : true,
            "subdomainName" : "Cie du bourdon"
        },
        "#contact" : {
            "hash" : "#app.view",
            "icon" : "",
            "urlExtra" : "/page/contact/url/costum.views.custom.laSagePitrerie.contact",
            "useHeader" : true,
            "useFilter" : false,
            "useFooter" : true,
            "inMenu" : true,
            "subdomainName" : "Contact",
            "placeholderMainSearch" : "what are you looking for ?"
        },
        "#actualites" : {
            "hash" : "#app.search",
            "icon" : "newspaper-o",
            "urlExtra" : "/page/actualites",
            "useHeader" : true,
            "useFilter" : false,
            "useFooter" : true,
            "inMenu" : false,
            "subdomainName" : "Toutes l'actualités",
            "filters" : {
                "types" : [ 
                    "poi"
                ],
                "category" : "article"
            },
            "placeholderMainSearch" : "what are you looking for ?"
        }
    },
    "modules" : {
        "dda" : {
            "name" : "PACTE",
            "icon" : "fa-handshake-o",
            "documentTitle" : "Contrats signés",
            "addDocumentBtn" : "Ajouter un Contrat",
            "noDocuments" : "Aucun Contrat signé",
            "hide" : {
                "menuProposals" : 1,
                "menuActions" : 1,
                "menuRoomProps" : 1
            },
            "tpls" : {
                "home" : "dda.views.custom.siteDuPactePourLaTransition.home"
            }
        }
    },
    "typeObj" : {
        "citoyens" : {
            "color" : "yellow-k",
            "name" : "Personne",
            "add" : true,
            "createLabel" : "Inviter vos amis"
        },

        "events":{
            "add":true
        }
    },
    "filters" : {
        "sourceKey" : true
    },
    "searchObject" : {
        "indexStep" : 40,
        "sortBy" : [ 
            "name"
        ]
    }
}