{
    "slug" : "mayenneDemain",
    "welcomeTpl" : "costum.views.custom.mayenneDemain.home",
    "sourceKey" : true,
    "host":"www.mayenne-demain.fr",
    "favicon" : "/ico/mayenneDemain/favicon.ico",
    "metaImg" : "/images/mayenneDemain/banner.png",
    "logoMin" : "/images/mayenneDemain/logo-min.png",
    "js" : {
        "urls" : [ 
            "mayenneDemain_index.js"
        ]
    },
    "css" : {
        "urls" : [ 
            "index.css"
        ],
        "font" : {
            "url" : "/font/mayenneDemain/fengardoneue_regular-webfont.ttf"
        },

        "loader" : {
            "background" : "white",
            "ring1" : {
                "color" : "#8a2f88",
                "height" : 360,
                "width" : 360,
                "left" : -15,
                "borderWidth" : 4,
                "top" : -35
            },
            "ring2" : {
                "color" : "#71b62c",
                "height" : 350,
                "width" : 350,
                "left" : -10,
                "borderWidth" : 5,
                "top" : -30
            }
        },
        "progress" : {
            "value" : {
                "background" : "#8a2f88"
            },
            "bar" : {
                "background" : "#fff"
            }
        },
        "menuTop" : {
            "background" : "#8a2f88",
            "button" : {
                "paddingTop" : 0,
                "fontSize" : 30,
                "color" : "white"
            },
            "app" : {
                "paddingLeft" : "30px",
                "button" : {
                    "fontSize" : 24,
                    "fontWeight" : 800,
                    "paddingBottom" : "0px",
                    "marginLeft" : "10px",
                    "textTransform" : "capitalize",
                    "color" : "white"
                }
            },
            "scopeBtn" : {
                "color" : "#8a2f88"
            },
            "filterBtn" : {
                "color" : "#8a2f88"
            },
            "badge" : {
                "background" : "#8a2f88",
                "border" : "1px solid white"
            },
            "connectBtn" : {
                "background" : "white",
                "color" : "#8a2f88",
                "fontSize" : 18,
                "borderRadius" : 10,
                "padding" : "8px 15px"
            }
        },
        "menuApp" : {
            "background" : "#8a2f88",
            "button" : {
                "fontSize" : 25,
                "color" : "#fff",
                "hover" : {
                    "borderBottom" : "2px solid #fff"
                }
            }
        },
        "button" : {
            "footer" : {
                "add" : {
                    "bottom" : 25,
                    "background" : "transparent",
                    "color" : "white"
                },
                "toolbarAdds" : {
                    "bottom" : 30
                }
            }
        },
        "color" : {
            "purple" : "#8a2f88"
        }
    },
    "htmlConstruct" : {
        "appRendering" : "horizontal",
        "header" : {
            "menuTop" : {
                "left" : {
                    "buttonList" : {
                        "xsMenu":{
                            "addClass" : "padding-left-10",
                            "buttonList":{
                                "app":{
                                    "label":true,
                                    "icon" : false,
                                    "spanTooltip":false,
                                    "buttonList":{
                                        "#accueil": true,
                                        "#dda": true,
                                        "#live": true,
                                        "#liste":true,
                                        "#candidat":true,
                                        "#programme" : true,
                                        "#don" : true
                                    }
                                },
                                "add":true
                            }
                        },
                        "logo" : {
                            "height" : 60
                        }
                    }
                },
                "center" : {
                    "class":"padding-top-10 text-right col-sm-9 col-lg-9 hidden-xs",
                    "menu":true,
                    "buttonList":{
                        "app" : {
                            "img" : true,
                            "label" : true,
                            "class": "hidden-xs padding-right-20",
                            "buttonList" : {
                                "#accueil": true,
                                "#dda": true,
                                "#live": true,
                                "#liste":true,
                                "#candidat":true,
                                "#programme" : true,
                                "#don" : true
                            }
                        } 
                    }
                },    
                "right" : {
                    "buttonList":{ 
                        
                        "userProfil" : {
                            "img" : true,
                            "name" : false
                        },
                        "dropdown" : {
                            "connected":true,
                            "buttonList":{
                                "admin" : true,
                                "logout" : true
                            }
                        },                    
                        "login" : true
                    }                   
                }
            }
        },
        "subMenu" : false,
        "menuBottom" : {
            "add" : false,
            "donate" : false
        },
        "adminPanel" : {
            "add" : true,
            "menu" : {
                "statistic" : true,
                "directory" : true,
                "community" : {
                    "show" : true
                },
                "reference" : {
                    "show" : true,
                    "initType" : [ 
                        "organizations"
                    ]
                }
            }    
        },
        "preview": {
            "element" : "costum.views.custom.mayenneDemain.preview"
        },
        "directoryViewMode" : "block",
        "directory" : {
            "header" : {
                "map" : false,
                "viewMode" : false,
                "add" : {
                    "proposals" : true
                }
            },
            "results" : {
                "proposals" : {
                    "defaultImg" : "/images/mayenneDemain/default_directory.png"
                }
            },
            "footer" : {
                "add" : true
            }
        },
        "footer" : {
            "url" : "costum.views.custom.mayenneDemain.footer"
        },

        "element" : {
            "initView" : "detail",
            "menuLeft" : {
                "buttonList":{
                    "answerInvitation":true,
                    "linksBtn":true,
                    "invite":true,
                    "detail" : true,
                    "gallery": true,
                    "community" : true,
                    "events" : false,
                    "ressources" : false
                }
            },
            "menuTop" : {
                "left":{
                    "buttonList":{
                        "imgUploader":true
                    }
                },
                "right":{
                    "buttonList" : {
                        "imgProfil":true,
                        "nameProfil":true,
                        "newspaper" : true,
                        "cospace":false,
                        "chat":false,
                        "create":true,
                        "dropdown":{
                            "buttonList":{
                                "history" : true,
                                "settings" : false,
                                "settingsCommunity" : false,
                                "mindmap" : false,
                                "editSlug" : true,
                                "delete" : true
                            }
                        }
                    }
                }
            }
        },
        "redirect" : {
            "logged" : "welcome",
            "unlogged" : "welcome"
        }
    },
    "filters" : {
        "sourceKey" : true,
        "searchTypeGS" : [ 
            "proposals"
        ]
    },
    "app" : {
        "#home" : {
            "subdomainName" : "Accueil"
        },
        
        
         "#accueil" : {
            "hash" : "#app.welcome",
            "icon" : "",
            "subdomainName" : "Accueil",
            "placeholderMainSearch" : "what are you looking for ?",
            "inMenu":true,
            "useFilter":false,
            "useHeader":true,
            "useFooter":true
        },
        
        "#dda" : {
            "title" : "Si j’étais maire…",
            "subdomainName" : "Je contribue",
            "placeholderMainSearch" : "Que cherchez vous ?",
            "icon":"",
            "showInviteBtn":false,
            "showAmendmentBlock":false,
            "showExternLinkBlock":false
        },
        
        "#live" : {
            "title":    "Les actualités",
            "subdomainName" : "Actualités",
            "placeholderMainSearch" : "Que cherchez vous ?",
            "slug" : "mayenneDemain",
            "formCreate" : false,
            "useFilter" : false,
            "icon":"",
            "showAskLogin":false
        },
        
        "#liste" : {
            "hash" : "#app.view",
            "icon" : "",
            "urlExtra" : "/page/liste/url/costum.views.custom.mayenneDemain.liste",
            "useHeader" : true,
            "useFooter" : true,
            "useFilter" : false,
            "inMenu" : true,
            "subdomainName" : "La liste"
        },

        "#candidat" : {
            "hash" : "#app.view",
            "icon" : "",
            "urlExtra" : "/page/candidat/url/costum.views.custom.mayenneDemain.candidat",
            "useHeader" : true,
            "useFooter" : true,
            "useFilter" : false,
            "inMenu" : true,
            "subdomainName" : "Le candidat"
        },
        
        "#programme" : {
            "hash" : "#app.view",
            "icon" : "",
            "urlExtra" : "/page/programme/url/costum.views.custom.mayenneDemain.programme",
            "useHeader" : true,
            "useFooter" : true,
            "useFilter" : false,
            "inMenu" : true,
            "subdomainName" : "Le programme"
        },
        
        "#don" : {
            "hash" : "#app.view",
            "icon" : "",
            "urlExtra" : "/page/don/url/costum.views.custom.mayenneDemain.don",
            "useHeader" : true,
            "useFooter" : true,
            "useFilter" : false,
            "inMenu" : true,
            "subdomainName" : "Faire un don"
       },
       "#mentions" : {
            "hash" : "#app.view",
            "icon" : "",
            "urlExtra" : "/page/mentions/url/costum.views.custom.mayenneDemain.mentions",
            "useHeader" : true,
            "useFooter" : true,
            "useFilter" : false,
            "inMenu" : false,
            "subdomainName" : "Mentions légales"
        }
        

    },
    "searchOpenMenu" : {
        "url" : "#dda",
        "msg" : "Toutes les idées"
    },
    "typeObj" : {
        "organizations" : {
            "add" : true
        },
        "proposals" : {
            "add" : "true",
            "color" : "purple",
            "name" : "Idée",
            "createLabel" : "Ajouter une idée",
            "dynFormCostum" : {
                "onload" : {
                    "actions" : {
                        "formatAmendVote" : 1,
                        "adminOnly" : {
                            "producerfinder" : 1,
                            "imageuploader" : 1
                        },
                        "setTitle" : "Ajouter une idée",
                        "html" : {
                            "titletext>label" : "Détail de l'idée",
                            "infocustom" : "Si vous identifiez un problème, merci de proposer une idée constructive pour le résoudre.<br/> Proposez votre idée en vous demandant et #SiJétaisMaire ? de manière à ce que les autres internautes puissent voter pour ou contre votre idée."
                        },
                        "presetValue" : {
                            "voteDateEnd" : "28/03/2020 23:59",
                            "voteAnonymous" : true,
                            "voteCanChange" : true,
                            "majority" : 50,
                            "amendementAndVote" : false,
                            "amendementActivated" : true,
                            "multiChoicecheckboxSimple" : false
                        },
                        "hide" : {
                            "voteDateEnddatetime" : 1,
                            "urlsarray" : 1,
                            "imageuploader" : 1,
                            "voteAnonymouscheckboxSimple" : 1,
                            "voteCanChangecheckboxSimple" : 1,
                            "majoritytext" : 1,
                            "amendementAndVotecheckboxSimple" : 1,
                            "amendementActivatedcheckboxSimple" : 1,
                            "multiChoicecheckboxSimple" : 1,
                            "answersarray" : 1,
                            "producerfinder" : 1
                        }
                    }
                }
            }
        },
        "citoyens" : {
            "add" : true
        }
    }
}

