{
    "slug" : "mednum974",
    "welcomeTpl" : "costum.views.custom.mednum974.home",
    "sourceKey" : true,
    "filters" : {
        "sourceKey" : true
    },
    "favicon" : "/images/lapossession/logoPossession.jpg",
    "metaImg" : "/images/lapossession/logoPossession.jpg",
    "logoMin" : "/images/lapossession/logoPossession.jpg",
    "logo" : "/images/lapossession/logoPossession.jpg",
    "js" : {
        "urls" : [
            "index.js"
        ]
    },
    "css" : {
        "urls" : [
            "index.css"
        ],
        "loader" : {
            "background" : "white",
            "ring1" : {
                "color" : "#3253a0",
                "height" : 360,
                "width" : 360,
                "left" : -15,
                "borderWidth" : 4,
                "top" : -35
            },
            "ring2" : {
                "color" : "#3ca936",
                "height" : 350,
                "width" : 350,
                "left" : -10,
                "borderWidth" : 5,
                "top" : -30
            }
        },
        "progress" : {
            "value" : {
                "background" : "#3253a0"
            },
            "bar" : {
                "background" : "#3ca936"
            }
        },
        "menuTop" : {
            "background" : "rgba(0,0,0,.6)",
            "button" : {
                "paddingTop" : 1,
                "fontSize" : 25,
                "color" : "grey"
            },
            "badge" : {
                "display" : "none"
            },
            "scopeBtn" : {
                "display" : "none"
            },
            "filterBtn" : {
                "display" : "none"
            },
            "connectBtn" : {
                "background" : "#5b2649",
                "color" : "white",
                "fontSize" : 13,
                "borderRadius" : 10,
                "padding" : "8px 15px"
            }
        },
        "menuApp" : {
            "top" : "50",
            "background" : "white",
            "button" : {
                "fontSize" : 25,
                "color" : "black",
                "hover" : {
                    "borderBottom" : "2px solid #fff"
                }
            }
        },
        "button" : {
            "footer" : {
                "add" : {
                    "bottom" : 25,
                    "background" : "transparent",
                    "color" : "black"
                },
                "toolbarAdds" : {
                    "bottom" : 30
                }
            }
        }
    },
    "htmlConstruct" : {
        "appRendering" : "horizontal",
        "preview": {
            "element" : "costum.views.custom.mednum974.elements.preview"
        },
        "header" : {
            "menuTop" : {
                "navLeft" : {
                    "logo" : {
                        "height" : 40
                    },
                    "searchBar" : false,
                    "useFilter" : {
                        "dropdownResult" : true,
                        "scopeFilter" : true,
                        "showFilter" : true
                    },
                    "app" : {
                        "paddingLeft" : "30px",
                        "img" : true,
                        "class" : "text-right col-sm-6 col-lg-6 navigator hidden-xs"
                    }
                },
                "navRight" : {
                    "connected" : {
                        "dropdownUser" : {
                            "languages" : false,
                            "statistics" : false,
                            "documentation" : false,
                            "donate" : false,
                            "admin" : true,
                            "settings" : true,
                            "logout" : true
                        },
                        "userProfil" : {
                            "img" : true,
                            "name" : true
                        },
                        "networkFloop" : false,
                        "notifications" : false,
                        "dda" : false,
                        "chat" : false,
                        "home" : false,
                        "app" : false
                    },
                    "disconnected" : {
                        "languages" : false,
                        "login" : true
                    }
                }
            }
        },
        "footer" : {
            "add" : false,
            "donation" : false
        },
        "adminPanel" : {
            "add" : true,
            "statistic" : true,
            "directory" : true,
            "community":{"show":true},
            "reference" : {"show":true}
        },
        "element" : {
            "banner" : {
                "img" : "/images/mednum974/smarterre.svg",
                "preferences" : false,
                "editButton" : {
                    "dynform" : true
                },
                "badges" : false,
                "headerInfos": "costum.views.custom.ctenat.element.logo"
            },
            "js" : "about.js",
            "initView" : "detail",
            "menuLeft" : {
                "detail" : true,
                "community" : true,
                "gallery" : true,
                "events" : true,
                "projects" : true,
                "ressources" : true,
                "classifieds" : true,
                "jobs" : true
            },
            "menuBottom" : {
                "add" : true
            },
            "menuTop" : {
                "img" : true,
                "btnGroup" : {
                    "imgProfil":true,
                    "nameProfil":true,
                    "newspaper" : false,
                    "cospace":true,
                    "chat":true,
                    "create":true,
                    "params" : {
                        "dropdown":{
                            "history" : true,
                            "settings" : true,
                            "mindmap" : true,
                            "editSlug" : true,
                            "delete" : true
                        }
                    }
                }
            }
        },
        "directory" : {
            "results" : {
                "organizations" : {
                    "defaultImg" : "/images/mednum974/default_directory.png"
                },
                "projects" : {
                    "defaultImg" : "/images/mednum974/default_directory.png"
                },
                "events" : {
                    "defaultImg" : "/images/mednum974/default_directory.png"
                }
            },
            "preview" : true,
            "footer" : {
                "add" : false
            }
        },
        "redirect" : {
            "logged" : "welcome",
            "unlogged" : "welcome"
        }
    },
    "app" : {
        "#search" : {
            "hash" : "#app.search",
            "urlExtra" : "/page/search",
            "subdomainName" : "",
            "placeholderMainSearch" : "what are you looking for ?",
            "inMenu":false,
            "useHeader" : false,
            "useFilter" : true,
            "useFooter" : true,
            "filters" : {
                "types" : [ 
                    "events",
                    "projects",
                    "persons"
                ]
            },
            "searchObject" : {
                "indexStep" : "0"
            }
        },
        "#agenda" : {
            "subdomainName" : "",
            "icon" : "",
            "img" : "/images/mednum974/agenda-01.svg",
            "nameMenuTop" : "Agenda",
            "inMenu":true,
            "inMenuTop" : true,
            "inMenuLeft" : false
        },
        "#live" : {
            "slug" : "mednum974",
            "subdomainName" : "",
            "icon" : "",
            "img" : "/images/mednum974/actus-01.svg",
            "nameMenuTop" : "Actualités",
            "useFilter" : false,
            "inMenu":true,
            "inMenuTop" : true,
            "inMenuLeft" : false
        }
    },
    "typeObj" : {
        "events" : {
            "add" : true
        },
        "projects" : {
            "add" : true
        }
    },
    "lists":{
        "domainAction":{
            "type":"badges",
            "category":"domainAction",
            "sourceKey":true
        }
    }
}
