{
    "slug" : "mednumRhoneAlpe",
    "welcomeTpl" : "costum.views.custom.mednumRhoneAlpe.home",
    "docTpl" : "costum.views.custom.mednumRhoneAlpe.doc",
    "sourceKey" : true,
    "favicon" : "/images/mednumRhoneAlpe/default_directory.png",
    "metaImg" : "/images/mednumRhoneAlpe/default_directory.png",
    "logoMin" : "/images/mednumRhoneAlpe/default_directory.png",
    "logo" : "/images/mednumRhoneAlpe/default_directory.png",
    "filters" : {
        "sourceKey" : true
    },
    "js" : {
        "urls" : [
            "mednumRhoneAlpe_index.js",
            "mednumRhoneAlpe_categ.js",
            "mednumRhoneAlpe_showResultsDirectoryHtml.js"
        ]
    },
    "css" : {
        "urls" : [
            "index.css",
            "filters.css"
        ],
        "loader" : {
            "background" : "white",
            "ring1" : {
                "color" : "#ffd400",
                "height" : 410,
                "width" : 410,
                "left" : -15,
                "borderWidth" : 4,
                "top" : -35
            },
            "ring2" : {
                "color" : "#00bcbe",
                "height" : 395,
                "width" : 395,
                "left" : -10,
                "borderWidth" : 5,
                "top" : -30
            }
        },
        "progress" : {
            "value" : {
                "background" : "#3253a0"
            },
            "bar" : {
                "background" : "#3ca936"
            }
        },
        "menuTop" : {
            "background" : "rgba(0,0,0,.6)",
            "button" : {
                "paddingTop" : 1,
                "fontSize" : 25,
                "color" : "#00bcbe"
            },
            "badge" : {
                "display" : "none"
            },
            "scopeBtn" : {
                "display" : "none"
            },
            "filterBtn" : {
                "display" : "none"
            },
            "connectBtn" : {
                "background" : "#00bcbe",
                "color" : "white",
                "fontSize" : 13,
                "borderRadius" : 10,
                "padding" : "8px 15px"
            }
        },
        "menuApp" : {
            "top" : "50",
            "background" : "#f6f6f6",
            "button" : {
                "fontSize" : 25,
                "color" : "#41445c",
                "hover" : {
                    "borderBottom" : "2px solid #fff"
                }
            }
        },
        "button" : {
            "footer" : {
                "add" : {
                    "bottom" : 25,
                    "background" : "transparent",
                    "color" : "black"
                },
                "toolbarAdds" : {
                    "bottom" : 56
                }
            }
        },
        "color" : {
            "purple" : "this.colors.pink"
        }
    },
    "htmlConstruct" : {
        "appRendering" : "horizontal",
        "preview": {
            "element" : "costum.views.custom.mednumRhoneAlpe.element.preview"
        },
        "header" : {
            "menuTop" : {
                "left" : {
                    "buttonList":{
                        "logo" : {
                            "height" : 40
                        }
                    }
                },
                "center" : {
                    "class":"text-right col-sm-7 col-lg-6 navigator hidden-xs",
                    "menu":true,
                    "buttonList":{
                        "app" : {
                            "img" : true,
                            "label" :true,
                            "class": "nameApp pull-right hidden-xs padding-5",
                            "buttonList":{
                                "#documentation":true,
                                "#live":true,
                                "#agenda":true,
                                "#projects":true,
                                "#search":true
                            }
                        }
                    }
                },
                "right" : {
                    "buttonList" : {
                        "userProfil" : {
                            "img" : true,
                            "name" : true
                        },
                        "dropdown" : {
                            "connected":true,
                            "buttonList":{
                                "admin" : true,
                                "settings" : true,
                                "logout" : true
                            }
                        },
                        "login" : true
                    }
                }
            }
        },
        "adminPanel" : {
            "add" : true,
            "menu" : {
                "directory" : true,
                "statistic" : true,
                "converter" : true,
                "import" : true,
                "community":{
                    "show": true
                },
                "reference" : {
                    "show": true
                }
            }
        },
        "element" : {
            "js" : "pageProfil.js",
            "css" : "pageProfil.css",
            "banner" : {
                "img" : "/images/mednumRhoneAlpe/bannermednum.jpg",
                "preferences" : false,
                "editButton" : {
                    "dynform" : true
                },
                "badges" : false,
                "headerInfos": "costum.views.custom.mednumRhoneAlpe.element.headerInfos"
            },
            "initView" : "detail",
            "containerClass" : {
                "centralSection" : "col-xs-12",
                "centralSectionSub" : "col-xs-12 col-md-10 col-md-offset-1 col-lg-10 col-lg-offset-1"
            },
            "menuTop" : {
                "left":{
                    "buttonList":{
                        "imgUploader" : true
                    }
                },
                "right":{
                    "class": "col-md-12 col-sm-12 col-lg-12 col-xs-12 text-center",
                    "buttonList":{
                        "xsMenu":{
                            "class":"visible-xs",
                            "buttonList":{
                                "newspaper":true,
                                "detail":true,
                                "gallery":true,
                                "community":true
                            }
                        },
                        "imgProfil":true,
                        "nameProfil":true,
                        "newspaper":true,
                        "detail":true,
                        "gallery":true,
                        "community":true,
                        "create":{
                            "labelClass":"hidden",
                            "class":"text-green visible-xs pull-left"
                        },
                        "invite":{
                            "class":"btn invite-btn visible-xs pull-left"
                        },
                        "share":{
                            "class":"pull-left visible-xs"
                        },
                        "settings":{
                            "labelClass":"hidden",
                            "class":"visible-xs pull-right"
                        },
                        "settingsCommunity":{
                            "labelClass":"hidden",
                            "class":"visible-xs pull-right"
                        }
                    }
                }
            }
        },
        "directoryViewMode" : "block",
        "directory" : {
            "header" : {
                "map" : false,
                "viewMode" : false,
                "add" : false
            },
            "preview" : true,
            "results" : {
                "projets" : {
                    "defaultImg" : "/images/mednumRhoneAlpe/lightbulb.svg"
                },
                "events" : {
                    "defaultImg" : "/images/mednumRhoneAlpe/lightbulb.svg"
                }
            },
            "footer" : {
                "add" : true
            }
        },
        "menuBottom" : {
            "buttonList" : {
                "add" : {
                    "class" : "pull-left padding-20 bottom-add"
                }
            }
        },
        "footer" : {
            "url" : "costum.views.custom.mednumRhoneAlpe.footer"
        },
        "redirect" : {
            "logged" : "welcome",
            "unlogged" : "welcome"
        }
    },
    "app" : {
        "#welcome" : {
            "subdomainName" : "Accueil Hinaura"
        },
        "#search" : {
            "hash" : "#app.search",
            "urlExtra" : "/page/search",
            "subdomainName" : "Annuaire",
            "placeholderMainSearch" : "what are you looking for ?",
            "filterObj": "costum.views.custom.mednumRhoneAlpe.filters",
            "img" : "/images/mednumRhoneAlpe/icons-chercher.svg",
            "useHeader" : false,
            "useFilter" : true,
            "useFooter" : true,
            "filters" : {
                "types" : [ 
                    "organizations"
                ]
            },
            "searchObject" : {
                "indexStep" : "10"
            }
        },
        "#projects" : {
            "hash" : "#app.search",
            "urlExtra" : "/page/projects",
            "filterObj": "costum.views.custom.mednumRhoneAlpe.filters",
            "subdomainName" : "Dispositifs",
            "icon" : "",
            "placeholderMainSearch" : "what are you looking for ?",
            "img" : "/images/mednumRhoneAlpe/lightbulb.svg",
            "useHeader" : false,
            "useFilter" : true,
            "useFooter" : true,
            "filters" : {
                "types" : [ 
                    "projects"
                ]
            },
            "searchObject" : {
                "indexStep" : "10"
            }
        },
        "#agenda" : {
            "hash" : "#app.search",
            "urlExtra" : "/page/agenda",
            "subdomainName" : "Agenda",
            "img" : "/images/mednumRhoneAlpe/agenda-01.svg",
            "useHeader" : true,
            "useFilter" : true,
            "useFooter" : true,
            "filters" : {
                "community" : true
            },
            "searchObject" : {
                "indexStep" : "10"
            }
        },
        "#live" : {
            "slug" : "hinaura",
            "subdomainName" : "Actualités",
            "img" : "/images/mednumRhoneAlpe/actus-01.svg",
            "nameMenuTop" : "Actualités",
            "useFilter" : false
        },
        "#documentation" : {
            "hash":"#app.docs.page.welcome",
            "subdomainName" : "Documentation",
            "img" : "/images/mednumRhoneAlpe/book.svg",
            "onlyMember" : false,
            "dropdownResult":true,
            "placeholderMainSearch" : "what are you looking for ?",
            "useFilter" : false,
            "useMapBtn":false
        }
    },
    "typeObj" : {
        "events" : {
            "add" : true,
            "name" : "Événement",
            "dynFormCostum" : {
                "beforeBuild" : {
                    "properties" : {
                        "parent" : {
                            "inputType" : "finder",
                            "label" : "Ajouter un porteur au projet",
                            "initMe":true,
                            "placeholder":"Rechercher une organization existante",
                            "rules" : { "required" : true, "lengthMin":[1, "parent"]}, 
                            "initType": ["organizations"],
                            "openSearch" :true,
                            "initContext":false,
                            "initContacts":true
                        }
                    }
                },
                "onload" : {
                    "actions" : {
                        "html" : {
                            
                            "infocustom" : "Référencez et relayez des événements qui concourent à un numérique inclusif."
                        },
                        "hide":{
                            "publiccheckboxSimple":1,
                            "parentfinder":1
                        }
                    }
                }
            }
        },
        "dispositifs" : {
            "color" : "purple",
            "icon" : "book",
            "name" : "dispositifs",
            "formType" : "dispositifs",
            "class" : "mednumProjects",
            "add" : true,
            "createLabel" : "Ajouter un dispositif"
        },
        "projects" : {
            "color" : "purple",
            "icon" : "book",
            "name" : "Dispositifs",
            "add" : false,
            "createLabel" : "Ajouter un dispositif",
            "dynFormCostum" : {
                "beforeBuild" : {
                    "properties" : {
                        "name" : {
                            "label":"Intitulé du dispositif",
                            "placeholder":"Intitulé du dispositif",
                            "rules" : {
                                "required" : true
                            }
                        },
                        "parent" : {
                            "inputType" : "finder",
                            "label" : "Ajouter un porteur au projet",
                            "initMe":false,
                            "placeholder":"Rechercher une organization existante",
                            "rules" : { "required" : true, "lengthMin":[1, "parent"]}, 
                            "initType": ["organizations"],
                            "openSearch" :true,
                            "initContext":false,
                            "initContacts":true
                        },
                        "categ" : {
                            "inputType" : "hidden",
                            "optionsValueAsKey":true
                        },
                        "subcateg" : {
                            "inputType" : "hidden",
                            "optionsValueAsKey":true
                        },
                        "subsubcateg" : {
                            "inputType" : "hidden",
                            "optionsValueAsKey":true
                        },
                        "accessibilite" : {
                            "inputType" : "checkboxSimple",
                            "label" : "Accésibilité personnes à mobilité réduite",
                            "params" : {
                                "onText" : "Oui",
                                "offText" : "Non",
                                "onLabel" : "Accésibilité PMR",
                                "offLabel" : "Accésibilité PMR"
                            },
                            "checked" : false,
                            "optionsValueAsKey":true
                        },
                        "coeffone" : {
                            "inputType" : "text",
                            "label" : "Tarif coefficient 1",
                            "groupOptions" : false,
                            "groupSelected" : false,
                            "optionsValueAsKey":true
                        },
                        "coefftwo" : {
                            "inputType" : "text",
                            "label" : "Tarif coefficient 2",
                            "groupOptions" : false,
                            "groupSelected" : false,
                            "optionsValueAsKey":true
                        },
                        "coeffthree" : {
                            "inputType" : "text",
                            "label" : "Tarif coefficient 3",
                            "groupOptions" : false,
                            "groupSelected" : false,
                            "optionsValueAsKey":true
                        },
                        "beneficiaire" : {
                            "inputType" : "select",
                            "label" : "Type de bénéficiaire",
                            "list" : "beneficiaire",
                            "groupOptions" : false,
                            "groupSelected" : false,
                            "optionsValueAsKey":true,
                            "select2" : {
                                "multiple" : true
                            }
                        }
                    }
                },
                "onload" : {
                    "actions" : {
                        "setTitle" : "Ajouter un dispositif",
                        "html" : {
                            
                            "infocustom" : "Faites connaître dispositifs"
                        }
                    }
                }
            }
        },
        "organizations" : {
            "add" : true,
            "name" : "Membre(s) du hub",
            "dynFormCostum" : {
                "beforeBuild" : {
                    "properties" : {
                        "name" : {
                            "label":"Nom du membre",
                            "placeholder": "Nom du membre"
                        },
                        "typePlace" : {
                            "order":4,
                            "inputType" : "select",
                            "label" : "Type de lieu",
                            "placeholder" : "Choisir un type de lieu",
                            "list" :"typePlace",
                            "groupOptions" : false,
                            "groupSelected" : false,
                            "optionsValueAsKey":true,
                            "select2" : {
                                "multiple" : true
                            }
                        },
                        "openingHours" : {
                            "order" :5,
                            "inputType" : "openingHours",
                            "label" : "horaire d'ouverture",
                            "placeholder" : "horaire d'ouverture",
                            "optionsValueAsKey":true
                        }
                    }
                },
                "onload" : {
                    "actions" : {
                        "setTitle" : "Ajouter un membre du hub",
                        "html" : {
                            
                            "infocustom" : "Faites connaître et valorisez les acteurs qui concourent à un numérique inclusif."
                        },
                        "hide":{
                            "publiccheckboxSimple":1,
                            "parentfinder":1
                        }
                    }
                }
            }
        }
    },
    "lists":{
        "typePlace":[
            "Amicale Laïque",
            "BIJ/PIJ",
            "Centre Social",
            "Cyberbase / Cybercentre",
            "Fablab / Hackerspace",
            "Maison de Quartier",
            "Maison des Services",
            "Médiathèque"
        ],
        "beneficiaire" : [
            "tout public",
            "enfants",
            "adultes",
            "seniors"
        ],
        "categ" : {
            "Accès" : "Accès",
            "Accompagnement" : "Accompagnement",
            "Formations" : "Formations",
            "Sensibilisation" : "Sensibilisation"
        },
        "subaccess" : {
            "Réseau WiFi": "Réseau WiFi",
            "Accès libre à du matériel informatique" : "Accès libre à du matériel informatique"
        },
        "subaccompagnement" : {
            "Accès libre avec un accompagnement" : "Accès libre avec un accompagnement" ,
            "Accompagnement individuel sur rendez-vous" : "Accompagnement individuel sur rendez-vous",
            "Accompagnement individuel sans rendez-vous" : "Accompagnement individuel sans rendez-vous",
            "Accompagnement en groupe sur inscription" : "Accompagnement en groupe sur inscription",
            "Accompagnement en groupe sans inscription" : "Accompagnement en groupe sans inscription",
            "Accompagnement CAF" : "Accompagnement CAF",
            "Accompagnement Pôle Emploi" : "Accompagnement Pôle Emploi",
            "Accompagnement CARSAT" : "Accompagnement CARSAT" ,
            "Accompagnement CARSAT" : "Accompagnement CARSAT" ,
            "Accompagnement impôts" : "Accompagnement impôts" ,
            "Accompagnement CPAM (Ameli)" : "Accompagnement CPAM (Ameli)",
            "Atelier de réparation de matériel informatique" : "Atelier de réparation de matériel informatique"
        },
        "subformation" : {
            "Competences de base" : "Competences de base",
            "Acces aux droits" : "Acces aux droits",
            "Education/aide à la parentalite" : "Education/aide à la parentalite",
            "Culture numerique" : "Culture numerique"
        },
        "subsensibilisation" : {
            "Education/aide à la parentalite" : "Education/aide à la parentalite",
            "Culture numerique" : "Culture numerique"
        },
        "subsubcateg" : {
            "faire un diagnostic des competences" :"faire un diagnostic des competences",
            "découvrir le matériel et son environnement :" :"découvrir le matériel et son environnement :",
            "ordinateurs" :"ordinateurs",
            "smartphone" :"smartphone",
            "tablette" :"tablette",
            "péripheriques (imprimantes, scanners, cles USB…)" :"péripheriques (imprimantes, scanners, cles USB…)",
            "creer et gerer son adresse mail" : "creer et gerer son adresse mail",
            "gerer ses documents" : "gerer ses documents",
            "ecrire un document" : "ecrire un document",
            "gerer ses donnees numeriques (mot de passe…)" : "gerer ses donnees numeriques (mot de passe…)",
            "naviguer sur des sites web" : "naviguer sur des sites web",
            "rechercher des informations sur internet" : "rechercher des informations sur internet",
            "comprendre et utiliser France-Connect" :"comprendre et utiliser France-Connect",
            "Formation CAF" :"Formation CAF",
            "Formation Pole Emploi" :"Formation Pole Emploi",
            "Formation CARSAT" :"Formation CARSAT",
            "Formation Logement" :"Formation Logement",
            "Formation impots" :"Formation impots",
            "Formation CPAM (Ameli)" :"Formation CPAM (Ameli)",
            "Formation Comprendre et utiliser un Espace Numerique de Travail" :"Formation Comprendre et utiliser un Espace Numerique de Travail",
            "Formation gerer son identite numerique" : "Formation gerer son identite numerique",
            "Formation utiliser le numérique à des fins créatives et récréatives" : "Formation utiliser le numérique à des fins créatives et récréatives",
            "Education aux medias et à l’informations" : "Education aux medias et à l’informations",
            "Vie privee" : "Vie privee",
            "Sensibilisation : la parentalite a l'ere du numerique" : "Sensibilisation : la parentalite a l'ere du numerique",
            "Sensibilisation : connaitre les pratiques des usages des jeunes" : "Sensibilisation : connaitre les pratiques des usages des jeunes"
        }
    }
}