{
    "slug" : "sommom",
    "host": "www.reseau-whalewatching-france.com",
    "welcomeTpl" : "costum.views.custom.sommom.home",
    "isTemplate" : true,
    "hasOpenForm" : true,
    "isMultiForms" : true,
    "sourceKey" : true,
    "admin" : {
        "email" : "quietude@cedtm-asso.org"
    },
    "dynForm" : {
        "jsonSchema" : {
            "title" : "Template config",
            "type" : "object",
            "properties" : {
                "title1" : {
                    "label" : "Title 1",
                    "path" : "costum.cms.title1"
                },
                "subtitle1" : {
                    "label" : "Sub Title 1",
                    "path" : "costum.cms.subtitle1"
                },
                "textIntro" : {
                    "label" : "Text Intro",
                    "inputType" : "textarea",
                    "path" : "costum.cms.textIntro"
                }
            }
        }
    },
    "class" : {
        "function" : [ "canEditAnswer" ]
    },
    "app" : {
        "#dashboard" : {
            "hash" : "#sommom.dashboard",
            "icon" : "home",
            "module" : "costum",
            "urlExtra" : "/tpl/costum.views.custom.sommom.dashboard",
            "useHeader" : true,
            "useFilter" : false,
            "useFooter" : true,
            "inMenu" : true,
            "dropdownResult" : true,
            "subdomainName" : "Accueil",
            "useMapBtn" : false
        },
        "#graph" : {
            "hash" : "#sommom.graph",
            "icon" : "binoculars",
            "module" : "costum",
            "urlExtra" : "/tpl/costum.views.custom.sommom.dash",
            "useHeader" : true,
            "useFilter" : false,
            "useFooter" : true,
            "inMenu" : true,
            "dropdownResult" : true,
            "subdomainName" : "Observatoire",
            "useMapBtn" : false
        },
        "#membre" : {
            "hash" : "#sommom.member",
            "icon" : "group",
            "module" : "costum",
            "urlExtra" : "/tpl/costum.views.custom.sommom.member",
            "useHeader" : true,
            "useFilter" : false,
            "useFooter" : true,
            "inMenu" : true,
            "dropdownResult" : true,
            "subdomainName" : "Devenir membre de la communauté",
            "useMapBtn" : false
        },
        "#partenaire" : {
            "hash" : "#sommom.partenaire",
            "icon" : "handshake-o",
            "module" : "costum",
            "urlExtra" : "/tpl/costum.views.custom.sommom.partenaire",
            "useHeader" : true,
            "useFilter" : false,
            "useFooter" : true,
            "inMenu" : true,
            "dropdownResult" : true,
            "subdomainName" : "Devenir partenaire",
            "useMapBtn" : false
        },
        "#help" : {
            "hash" : "#sommom.help",
            "icon" : "question-circle",
            "module" : "costum",
            "urlExtra" : "/tpl/costum.views.custom.sommom.help",
            "useHeader" : true,
            "useFilter" : false,
            "useFooter" : true,
            "inMenu" : true,
            "dropdownResult" : true,
            "subdomainName" : "Aide",
            "useMapBtn" : false
        },
        "#territory" : {
            "hash" : "#sommom.territory",
            "icon" : "question-circle",
            "module" : "costum",
            "urlExtra" : "/tpl/costum.views.custom.sommom.territory",
            "useHeader" : true,
            "useFilter" : false,
            "useFooter" : true,
            "inMenu" : false,
            "dropdownResult" : true,
            "subdomainName" : "Aide",
            "useMapBtn" : false
        },
        "#live" : {
            "icon" : "newspaper-o",
            "subdomainName" : "Actualité",
            "slug" : "sommom",
            "nameMenuTop" : "Actus",
            "useHeader" : true,
            "formCreate" : false,
            "useFilter" : false,
            "inMenu" : true,
            "viewMode" : "list"
        }
    },
    "favicon" : "co2#/images/favicon.ico",
    "metaImg" : "this.profilBannerUrl",
    "logoMin" : "co2#/images/logoBtn.png",
    "colors" : {
        "pink" : "#E4394D",
        "dark" : "#354C57",
        "grey" : "#f6f6f6"
    },
    "css" : {
        "styles" : {
            "#loadingPageImg" : {
                "left" : "15px",
                "position" : "relative"
            }
        },
        "loader" : {
            "background" : "white",
            "ring1" : {
                "color" : "this.colors.pink",
                "height" : 360,
                "width" : 360,
                "left" : -15,
                "borderWidth" : 4,
                "top" : -35
            },
            "ring2" : {
                "color" : "this.colors.dark",
                "height" : 350,
                "width" : 350,
                "left" : -10,
                "borderWidth" : 5,
                "top" : -30
            }
        },
        "progress" : {
            "value" : {
                "background" : "this.colors.pink"
            },
            "bar" : {
                "background" : "#fff"
            }
        },
        "menuTop" : {
            "background" : "white",
            "button" : {
                "paddingTop" : 0,
                "fontSize" : 30,
                "color" : "this.colors.dark"
            },
            "scopeBtn" : {
                "color" : "this.colors.dark"
            },
            "filterBtn" : {
                "color" : "this.colors.dark"
            },
            "badge" : {
                "background" : "this.colors.pink",
                "border" : "1px solid white"
            },
            "connectBtn" : {
                "background" : "this.colors.dark",
                "color" : "#3ea3b4",
                "fontSize" : 18,
                "borderRadius" : 10,
                "padding" : "8px 15px"
            }
        },
        "menuLeft" : {
            "background" : "this.colors.pink",
            "button" : {
                "fontSize" : 25,
                "color" : "#2c3e50",
                "hover" : {
                    "borderBottom" : "2px solid #fff"
                }
            }
        },
        "button" : {
            "footer" : {
                "add" : {
                    "bottom" : 25,
                    "background" : "transparent",
                    "color" : "white"
                },
                "toolbarAdds" : {
                    "bottom" : 30
                }
            }
        },
        "color" : {
            "purple" : "this.colors.pink"
        }
    },
    "htmlConstruct" : {
        "appRendering" : "vertical",
        "header" : {
            "menuTop" : {
                "left" : {
                    "buttonList" : {
                        "logo" : {
                            "height" : 40,
                            "href" : "#dashboard"
                        },
                        "xsMenu" : {
                            "buttonList" : {
                                "app" : {
                                    "label" : true,
                                    "icon" : true,
                                    "buttonList" : {
                                        "#dashboard" : true,
                                        "#graph" : true,
                                        "#membre" : true,
                                        "#partenaire" : true,
                                        "#live" : true,
                                        "#help" : true
                                    }
                                }
                            }
                        }
                    }
                },
                "right" : {
                    "buttonList" : {
                        "chat" : true,
                        "notifications" : true,
                        "networkFloop" : true,
                        "userProfil" : {
                            "img" : true
                        },
                        "dropdown" : {
                            "connected":true,
                            "buttonList":{
                                "documentation" : true,
                                "admin" : true,
                                "logout" : true
                            }
                        },
                        "login" : true
                    }
                }
            }
        },
        "element" : {
            "initView" : "detail",
            "menuLeft" : {
                "buttonList":{
                    "answerInvitation":true,
                    "linksBtn":true,
                    "invite":true,
                    "detail" : true,
                    "community" : true,
                    "gallery" : true,
                    "events" : true,
                    "projects" : true,
                    "ressources" : true,
                    "classifieds" : true,
                    "jobs" : true
                }
            },
            "menuTop" : {
                "left":{
                    "buttonList":{
                        "imgUploader":true
                    }
                },
                "right":{
                    "buttonList" : {
                        "xsMenu" : {
                            "buttonList" : {
                                "detail" : true,
                                "community" : true,
                                "gallery" : true,
                                "events" : true,
                                "projects" : true,
                                "ressources" : true,
                                "classifieds" : true,
                                "jobs" : true
                            }
                        },
                        "imgProfil":true,
                        "nameProfil":true,
                        "newspaper" : true,
                        "cospace":true,
                        "chat":true,
                        "create":true,
                        "dropdown":{
                            "buttonList":{
                                "history" : true,
                                "settings" : true,
                                "settingsCommunity" : true,
                                "mindmap" : true,
                                "editSlug" : true,
                                "delete" : true
                            }
                        }
                    }
                }
            }
        },
        "menuLeft" : {
            "buttonList" : {
                "app" : {
                    "buttonList" : {
                        "#dashboard" : true,
                        "#graph" : true,
                        "#membre" : true,
                        "#partenaire" : true,
                        "#live" : true,
                        "#help" : true
                    }
                }
            }
        },
        "adminPanel" : {
            "add" : true,
            "menu" : {
                "statistic" : true,
                "directory" : true,
                "community" : {
                    "show" : true
                },
                "reference" : {
                    "show" : true
                }
            }
        },
        "directoryViewMode" : "block",
        "directory" : {
            "header" : {
                "map" : false,
                "viewMode" : false,
                "add" : {
                    "proposals" : true
                }
            }
        },
        "redirect" : {
            "logged" : "welcome",
            "unlogged" : "welcome"
        }
    },
    "searchOpenMenu" : [ 
        {
            "url" : "#search",
            "msg" : "Tous les COnstructeurs"
        }
    ]
}