   {
    "slug" : "staticpage",
    "welcomeTpl" : "costum.views.custom.staticpage.home",
    "formId" : "projetId",
    "docId":"id",
    "sourceKey" : true,
    "css" : {
        "loader" : {
            "background" : "white",
            "ring1" : {
                "color" : "#f5833c",
                "height" : 360,
                "width" : 360,
                "left" : -15,
                "borderWidth" : 4,
                "top" : -35
            },
            "ring2" : {
                "color" : "#327753",
                "height" : 350,
                "width" : 350,
                "left" : -10,
                "borderWidth" : 5,
                "top" : -30
            }
        },
        "progress" : {
            "value" : {
                "background" : "#bec9f7"
            },
            "bar" : {
                "background" : "#fff"
            }
        },
        "menuApp" : {
            "background" : "#bec9f7",
            "button" : {
                "fontSize" : 25,
                "color" : "#fff",
                "hover" : {
                    "borderBottom" : "2px solid #fff"
                }
            }
        },
        "button" : {
            "footer" : {
                "add" : {
                    "paddingLeft":"10px",
                    "fontSize" :30,
                    "bottom" : 1000,
                    "background" : "transparent",
                    "color" : "#098048"
                },
                "toolbarAdds" : {
                    "bottom" : 10,
                    "paddingLeft":"40px",
                    "fontSize" :50,
                    "left": "0"
                }
            }
        },
        "color" : {
            "purple" : "#bec9f7"
        }
    },
    "dynForm" : {
        "jsonSchema" : {
            "title" : "Template config",
            "type" : "object"
        }
    },
    "appMenusPath":[
        "header.menuTop.left.buttonList.app",
        "header.menuTop.left.buttonList.xsMenu.buttonList.app"
    ],
    "htmlConstruct" : {
        "appRendering" : "horizontal",
        "header" : {
            "menuTop" : {
                "left" : {
                    "class":"text-right col-sm-6 col-lg-7 navigator hidden-xs",
                    "buttonList" : {
                        "xsMenu":{
                            "buttonList":{
                                "app":{
                                    "label":true,
                                    "icon":true,
                                    "spanTooltip":true,
                                    "keyListButton":"pages",
                                    "labelClass":"padding-left-5",
                                    "buttonList":{
                                        
                                    }
                                },
                                "addxs":{
                                    "label": "Add something",
                                    "icon":"plus",
                                    "href":"javascript",
                                    "class": "open-create-element"
                                }
                            }
                        },
                        "logo" : {
                            "assets" : "costum",
                            "url" : "/images/staticpage/kosasa-logo-rvb-couleur_orig.png",
                            "urlMin" : "/images/staticpage/logo-point.png",
                            "heightMin" : 250,
                            "widthMin" : 100
                        },
                        "app" : {
                            "label" : true,
                            "icon" : false,
                            "labelClass" :"nameMenuTop",
                            "class": "pull-right hidden-xs padding-5",
                            "tooltips" : true,
                            "buttonList":{

                            }
                        }
                    }
                },

                "right" : {
                    "addClass" : "",
                    "buttonList" : {
                        "login" : false,
                        "languages" : {
                            "connected" : false
                        },
                        "home" : true,
                        "chat" : true,
                        "notifications" : true,
                        "userProfil" : {
                            "img" : true,
                            "name" : true,
                            "dashboard" : true
                        }
                    }
                }
            }
        },
        "element" : {
            "tplCss":[
                "v1.0_pageProfil.css"
            ],
            "banner":"co2.views.element.bannerHorizontal",
            "containerClass":{
                "centralSection":"col-xs-12 col-lg-10 col-lg-offset-1"
            },
            "menuTop":{
                "class":"col-xs-12",
                "left":{
                    "class":"col-lg-3 col-md-3 col-sm-4 hidden-xs no-padding",
                    "buttonList":{
                        "imgUploader":true
                    }   
                },      
                "right":{
                    "class": "col-md-12 col-sm-12 col-lg-12 col-xs-12 text-center",
                    "buttonList":{
                        "xsMenu":{
                            "class":"visible-xs",
                            "buttonList":{
                                "detail":true,
                                "newspaper":true
                            }
                        },
                        "imgProfil":true,
                        "nameProfil":true,
                        "newspaper":true,
                        "detail":true,
                        "gallery":true,
                        "community":true,
                        "events":true,
                        "cospace":true,
                        "create":{
                            "class":"text-green-k visible-xs"
                        },
                        "chat":{
                            "class":"text-red visible-xs"
                        },
                        "share":true,
                        "params":{
                            "buttonList":{
                                "settings":true
                            }
                        }
                    }   
                }
            }
        },
        "directoryViewMode" : "block",
        "directory" : {
            "header" : {
                "map" : false,
                "viewMode" : false,
                "add" : {
                    "proposals" : true
                }
            }
        },
        "redirect" : {
            "logged" : "welcome",
            "unlogged" : "welcome"
        }
    },
    "app" : {
        "#home" : {
            "hash" : "#app.view",
            "icon" : "",
            "urlExtra" : "/page/home/url/costum.views.custom.staticpage.home",
            "useHeader" : true,
            "useFooter" : false,
            "useFilter" : false,
            "inMenu" : true,
            "subdomainName" : "Accueil"
        }
    }
}