{
    "welcomeTpl" : "costum.views.custom.university.home",
    "sourceKey" : true,
    "slug" : "university",
    "name" : "university",
    "js" : {
        "urls" : [
            "index.js"
        ]
    },
    "filters" : {
        "sourceKey" : true
    },
    "htmlConstruct" : {
        "appRendering" : "vertical",
        "preview" : {
            "element" : "costum.views.custom.university.preview"
        },
        "redirect" : {
            "logged" : "welcome",
            "unlogged" : "welcome"
        },
        "adminPanel" : {
            "add" : true,
            "menu" : {
                "directory" : true,
                "statistic" : true,
                "converter" : true,
                "import" : true,
                "community" : {
                    "show" : true
                },
                "reference" : {
                    "show" : true
                }
            }
        },
        "directoryViewMode" : "block",
        "directory" : {
            "header" : {
                "map" : false,
                "viewMode" : false,
                "add" : false
            },
            "preview" : true,
            "results" : {
                "projets" : {
                    "defaultImg" : "/images/mednumRhoneAlpe/lightbulb.svg"
                },
                "events" : {
                    "defaultImg" : "/images/mednumRhoneAlpe/lightbulb.svg"
                }
            },
            "footer" : {
                "add" : true
            }
        },
        "footer" : false,
        "element" : {
            "js" : "pageProfil.js",
            "css" : "pageProfil.css",
            "tplCss" : [ 
                "v1.0_pageProfil.css"
            ],
            "banner" : "co2.views.element.bannerHorizontal",
            "containerClass" : {
                "centralSection" : "col-xs-12 col-lg-10 col-lg-offset-1"
            },
            "menuTop" : {
                "class" : "col-xs-12",
                "left" : {
                    "class" : "col-lg-3 col-md-3 col-sm-4 hidden-xs no-padding",
                    "buttonList" : {
                        "imgUploader" : true
                    }
                },
                "right" : {
                    "class" : "col-md-12 col-sm-12 col-lg-12 col-xs-12 text-center",
                    "buttonList" : {
                        "xsMenu" : {
                            "class" : "visible-xs",
                            "buttonList" : {
                                "detail" : true,
                                "newspaper" : true,
                                "gallery" : true,
                                "community" : true
                            }
                        },
                        "app" : {
                            "class" : "hidden-xs",
                            "label" : true,
                            "icon" : false,
                            "spanTooltip" : false,
                            "buttonList" : {
                                "#home" : true,
                                "#mesures" : true,
                                "#ressources" : true,
                                "#signatures" : true
                            }
                        },
                        "imgProfil" : true,
                        "nameProfil" : true,
                        "newspaper" : true,
                        "detail" : true,
                        "gallery" : true,
                        "community" : true,
                        "share" : true,
                        "params" : {
                            "buttonList" : {
                                "settings" : true
                            }
                        }
                    }
                }
            }
        },
        "menuBottom" : {
            "add" : true
        }
    },
    "css" : {
        "loader" : {
            "background" : "white",
            "ring1" : {
                "color" : "#6abea2",
                "height" : 360,
                "width" : 360,
                "left" : -15,
                "borderWidth" : 4,
                "top" : -35
            },
            "ring2" : {
                "color" : "#313757",
                "height" : 350,
                "width" : 350,
                "left" : -10,
                "borderWidth" : 5,
                "top" : -30
            }
        },
        "progress" : {
            "value" : {
                "background" : "#313757"
            },
            "bar" : {
                "background" : "red"
            }
        },
        "menuTop" : {
            "background" : "#e2e2e2",
            "button" : {
                "paddingTop" : 1,
                "fontSize" : 16
            },
            "badge" : {
                "background" : "#c7d301",
                "border" : "3px solid white"
            },
            "scopeBtn" : {
                "display" : "none"
            },
            "filterBtn" : {
                "display" : "none"
            },
            "connectBtn" : {
                "background" : "#c7d301",
                "color" : "white",
                "fontSize" : 20,
                "borderRadius" : 10,
                "padding" : "8px 15px"
            }
        },
        "menuApp" : {
            "top" : "55",
            "background" : "#f6f6f6",
            "button" : {
                "fontSize" : 25,
                "color" : "#c7d301",
                "hover" : {
                    "borderBottom" : "2px solid #fff"
                }
            }
        },
        "button" : {
            "footer" : {
                "add" : {
                    "bottom" : 10,
                    "background" : "#c7d301",
                    "color" : "white"
                },
                "toolbarAdds" : {
                    "bottom" : 10
                }
            }
        },
        "color" : {
            "green" : "#c7d301",
            "bg-green" : "white"
        },
        "urls" : [ 
            "style.css"
        ],
        "font" : {
            "url" : "/font/university/SharpSansNo1-Medium.ttf"
        }
    },
    "app" : {
        "#Welcome" : {
            "subdomainName" : "Accueil"
        }
    },
    "typeObj" : {
    }
}
