{
    "_id" : ObjectId("5f72e5ecc629700d008b457a"),
    "type" : "blockCms",
    "path" : "tpls.blockCms.community.blockpartenaire",
    "name" : "Block partenaire",
    "developpeur" : "false",
    "img" : "",
    "description" : "",
    "parent" : "",
    "created" : NumberLong(1601365484),
    "creator" : "5f09a237c629700c008b4570"
}