{
    "_id" : ObjectId("5f803285cf7b6a5c2c8b456a"),
    "type" : "blockCms",
    "path" : "tpls.blockCms.social.chat",
    "name" : "chat",
    "developpeur" : "false",
    "img" : "",
    "description" : "Contact direct et messagerie",
    "parent" : "",
    "created" : NumberLong(1602237061),
    "creator" : "5f7bfdb9cf7b6a010e8b4587"
}