{
    "_id" : ObjectId("60126407baabc51c048b4580"),
    "type" : "blockCms",
    "path" : "tpls.blockCms.community.communityGlaz",
    "name" : "Communauté basé sur glazBijoux",
    "collection" : "cms",
    "updated" : NumberLong(1611818952),
    "creator" : "5f09a237c629700c008b4570",
    "created" : NumberLong(1611818025),
    "description" : ""
}