{
    "_id" : ObjectId("5f883311f5100e0f008b45b8"),
    "type" : "blockCms",
    "path" : "tpls.blockCms.fullpage.fullPage",
    "name" : "une page",
    "developpeur" : "true",
    "img" : "",
    "description" : "",
    "parent" : "",
    "created" : NumberLong(1602761489),
    "creator" : "5f04be4313c2670d008b4570"
}