<?xml version="1.0" encoding="utf-8"?>
<!-- Generator: Adobe Illustrator 24.0.3, SVG Export Plug-In . SVG Version: 6.00 Build 0)  -->
<svg version="1.1" id="Calque_1" xmlns="http://www.w3.org/2000/svg" xmlns:xlink="http://www.w3.org/1999/xlink" x="0px" y="0px"
	 viewBox="0 0 49 41" style="enable-background:new 0 0 49 41;" xml:space="preserve">
<style type="text/css">
	.st0{fill:#8CC63F;}
	.st1{fill:none;stroke:#FFFFFF;stroke-width:0.5504;stroke-linecap:round;stroke-linejoin:round;stroke-miterlimit:10;}
	.st2{fill:#FFFFFF;}
</style>
<g>
	<path class="st0" d="M112.58,151.99v6.81c0,0.47,0.38,0.85,0.85,0.85h2.55v-8.52h-2.55C112.96,151.14,112.58,151.52,112.58,151.99z
		"/>
	<path class="st0" d="M124.64,151.99h-2.52c-0.22,0-0.33-0.15-0.37-0.21c-0.04-0.06-0.11-0.23-0.01-0.42l0.89-1.6
		c0.19-0.35,0.21-0.76,0.06-1.13c-0.16-0.37-0.47-0.63-0.86-0.73l-0.63-0.16c-0.15-0.04-0.31,0.01-0.42,0.13l-3.4,3.77
		c-0.35,0.39-0.55,0.9-0.55,1.42v4.46c0,1.17,0.96,2.13,2.13,2.13l4.24,0c0.96,0,1.8-0.64,2.05-1.57l0.91-4.17
		c0.03-0.12,0.04-0.23,0.04-0.35C126.21,152.7,125.5,151.99,124.64,151.99L124.64,151.99z"/>
</g>
<g>
	<path id="XMLID_9_" class="st1" d="M24.2,10.34l7.15-2.75h0l-7.14-2.41L16.9,7.64h0L24.2,10.34z"/>
	<path id="XMLID_8_" class="st2" d="M23.17,12.17l-7.77-2.86l0,0v8.54l7.77,2.96V12.17z"/>
	<path id="XMLID_7_" class="st1" d="M25.25,12.16v8.59l7.77-2.96V9.17l0,0L25.25,12.16z"/>
	<path id="XMLID_6_" class="st2" d="M14.37,26.48L6.6,23.43v10.16l7.77,2.71l0,0V26.48z"/>
	<path id="XMLID_5_" class="st1" d="M16.45,26.48v9.81l6.72-2.34V23.84L16.45,26.48z"/>
	<path id="XMLID_4_" class="st1" d="M21.32,22.33l-7.35-2.8L8.14,21.8l7.26,2.86L21.32,22.33z"/>
	<path id="XMLID_3_" class="st1" d="M33.02,24.66l7.26-2.86l-5.9-2.3l-7.35,2.8L33.02,24.66z"/>
	<path id="XMLID_2_" class="st1" d="M34.06,36.29l7.77-2.71V23.43l-7.77,3.05V36.29z"/>
	<path id="XMLID_1_" class="st2" d="M31.98,26.48l-6.72-2.64v10.11l6.72,2.34l0,0L31.98,26.48z"/>
</g>
</svg>
