<?xml version="1.0" encoding="utf-8"?>
<!-- Generator: Adobe Illustrator 24.0.3, SVG Export Plug-In . SVG Version: 6.00 Build 0)  -->
<svg version="1.1" id="Calque_1" xmlns="http://www.w3.org/2000/svg" xmlns:xlink="http://www.w3.org/1999/xlink" x="0px" y="0px"
	 viewBox="0 0 52 46" style="enable-background:new 0 0 52 46;" xml:space="preserve">
<style type="text/css">
	.st0{fill:#8CC63F;}
</style>
<g>
	<path class="st0" d="M5.18,17.78V39c0,1.46,1.2,2.65,2.69,2.65h8.07V15.13H7.87C6.39,15.13,5.18,16.32,5.18,17.78z"/>
	<path class="st0" d="M43.24,17.78H35.3c-0.69,0-1.04-0.46-1.16-0.65c-0.12-0.2-0.35-0.72-0.02-1.32l2.8-4.97
		c0.61-1.09,0.68-2.37,0.17-3.51c-0.5-1.14-1.5-1.98-2.72-2.28L32.4,4.56c-0.48-0.12-0.99,0.03-1.32,0.4L20.35,16.71
		c-1.11,1.22-1.72,2.8-1.72,4.44v13.88c0,3.66,3.02,6.63,6.72,6.63l13.38,0c3.02,0,5.69-2.01,6.48-4.88l2.87-12.99
		c0.08-0.36,0.13-0.73,0.13-1.1C48.21,19.98,45.98,17.78,43.24,17.78L43.24,17.78z"/>
</g>
</svg>
