<?xml version="1.0" encoding="utf-8"?>
<!-- Generator: Adobe Illustrator 23.1.1, SVG Export Plug-In . SVG Version: 6.00 Build 0)  -->
<svg version="1.1" id="Calque_1" xmlns="http://www.w3.org/2000/svg" xmlns:xlink="http://www.w3.org/1999/xlink" x="0px" y="0px"
	 viewBox="0 0 1300 1080" style="enable-background:new 0 0 1300 1080;" xml:space="preserve">
<style type="text/css">
	.st0{opacity:0.35;fill:#FFFFFF;}
	.st1{opacity:0.35;fill:none;stroke:#FFFFFF;stroke-width:11.2889;stroke-miterlimit:10;}
</style>
<polygon class="st0" points="950.81,1.78 876.26,1.78 77.86,1.78 1.34,1.78 -0.17,539 1.34,1076.21 77.86,1076.21 876.26,1076.21 
	950.81,1076.21 1246.32,539 "/>
<polyline class="st1" points="984.26,0.48 1273.19,537.9 985.48,1077.34 "/>
</svg>
